study	center	dataState	count	frequency	samples
TARGET	BCCAGSC	live	1	0.056	1
TARGET	BCM	live	1	0.056	1
TARGET	BCM	ready	4	0.222	4
TARGET	BI	live	2	0.111	2
TARGET	CompleteGenomics	absent	1	0.056	1
TARGET	CompleteGenomics	error	2	0.111	2
TARGET	CompleteGenomics	live	3	0.167	3
TARGET	CompleteGenomics	ready	4	0.222	4
Total			18	1.000	14
