study	center	metadataState	count	frequency	samples
TARGET	BCCAGSC	live	1	0.056	1
TARGET	BCM	absent	4	0.222	4
TARGET	BCM	live	1	0.056	1
TARGET	BI	live	2	0.111	2
TARGET	CompleteGenomics	absent	2	0.111	2
TARGET	CompleteGenomics	live	3	0.167	3
TARGET	CompleteGenomics	ready	5	0.278	5
Total			18	1.000	14
