Accession	Submission	Status	Updated	Published	Received	Type	Center	Visibility	Alias	Experiment	Sample	Study	Loaded	Spots	Bases	Md5sum	BioSample	BioProject	ReplacedBy
SRX084977	SRA043588	live	2013-03-28T21:05:10Z	2011-07-26T15:10:22Z	2011-07-26T14:28:02Z	EXPERIMENT	BCCAGSC	controlled_access	HS0821-1	-	SRS405465	SRP020238	-	-	-	5f3f484111865e3dde8982b155102219	SAMN00672721	PRJNA172564	-
SRR316095	SRA043588	live	2014-05-25T23:11:26Z	2011-07-26T19:22:04Z	2011-07-26T14:28:02Z	RUN	BCCAGSC	controlled_access	HS0821-1.	SRX084977	SRS405465	SRP020238	1	6074749	437381928	9d8cae050c60c0d9312d9e0214a65c40	SAMN00672721	PRJNA172564	-
SRR316096	SRA043588	live	2014-05-25T23:12:41Z	2011-07-26T23:00:03Z	2011-07-26T14:28:02Z	RUN	BCCAGSC	controlled_access	HS0821-1..1	SRX084977	SRS405465	SRP020238	1	8853583	885358300	3a756161d9320492ff57bd7daaaaa735	SAMN00672721	PRJNA172564	-
SRR316097	SRA043588	live	2014-05-25T23:11:28Z	2011-07-26T19:23:03Z	2011-07-26T14:28:02Z	RUN	BCCAGSC	controlled_access	HS0821-1..10	SRX084977	SRS405465	SRP020238	1	6012268	432883296	c0ad9c29d43d7242d04efc43b964d429	SAMN00672721	PRJNA172564	-
SRR316098	SRA043588	live	2014-05-25T23:12:06Z	2011-07-26T19:23:03Z	2011-07-26T14:28:02Z	RUN	BCCAGSC	controlled_access	HS0821-1..11	SRX084977	SRS405465	SRP020238	1	6657259	479322648	7096fae8f1754a4b21bf69786523f594	SAMN00672721	PRJNA172564	-
SRR316099	SRA043588	live	2014-05-25T23:12:35Z	2011-07-26T19:24:04Z	2011-07-26T14:28:02Z	RUN	BCCAGSC	controlled_access	HS0821-1..12	SRX084977	SRS405465	SRP020238	1	6636541	477830952	a4b8e8c0aa65e07620bba441666cdbfa	SAMN00672721	PRJNA172564	-
SRR316100	SRA043588	live	2014-05-25T23:12:27Z	2011-07-26T19:24:04Z	2011-07-26T14:28:02Z	RUN	BCCAGSC	controlled_access	HS0821-1..13	SRX084977	SRS405465	SRP020238	1	6662475	479698200	4767fbf57bf0e9239de580c33e8a1028	SAMN00672721	PRJNA172564	-
SRR316101	SRA043588	live	2014-05-25T23:14:10Z	2011-07-26T23:01:10Z	2011-07-26T14:28:02Z	RUN	BCCAGSC	controlled_access	HS0821-1..2	SRX084977	SRS405465	SRP020238	1	9231683	923168300	5f3784c24614820f75d2707c7789101b	SAMN00672721	PRJNA172564	-
SRR316102	SRA043588	live	2014-05-25T23:14:11Z	2011-07-26T23:03:03Z	2011-07-26T14:28:02Z	RUN	BCCAGSC	controlled_access	HS0821-1..3	SRX084977	SRS405465	SRP020238	1	8843404	884340400	04b3670df9bc1c8634fdb8f463435e2f	SAMN00672721	PRJNA172564	-
SRR316103	SRA043588	live	2014-05-25T23:14:01Z	2011-07-26T23:04:04Z	2011-07-26T14:28:02Z	RUN	BCCAGSC	controlled_access	HS0821-1..4	SRX084977	SRS405465	SRP020238	1	8801832	880183200	b549278148f82667f58b6463fb98e6f4	SAMN00672721	PRJNA172564	-
SRR316104	SRA043588	live	2014-05-25T23:14:23Z	2011-07-26T23:05:04Z	2011-07-26T14:28:02Z	RUN	BCCAGSC	controlled_access	HS0821-1..5	SRX084977	SRS405465	SRP020238	1	9025476	902547600	e5838f81273392d84843dfbedb5305b5	SAMN00672721	PRJNA172564	-
SRR316105	SRA043588	live	2014-05-25T23:14:18Z	2011-07-26T23:06:03Z	2011-07-26T14:28:02Z	RUN	BCCAGSC	controlled_access	HS0821-1..6	SRX084977	SRS405465	SRP020238	1	9115157	911515700	fca6e69451693d4749d04c3a0b84832a	SAMN00672721	PRJNA172564	-
SRR316106	SRA043588	live	2014-05-25T23:14:15Z	2011-07-26T23:08:03Z	2011-07-26T14:28:02Z	RUN	BCCAGSC	controlled_access	HS0821-1..7	SRX084977	SRS405465	SRP020238	1	9130457	913045700	381e6b3831c03be5e840287e4838e4df	SAMN00672721	PRJNA172564	-
SRR316107	SRA043588	live	2014-05-25T23:12:49Z	2011-07-26T19:25:04Z	2011-07-26T14:28:02Z	RUN	BCCAGSC	controlled_access	HS0821-1..8	SRX084977	SRS405465	SRP020238	1	6575459	473433048	5bef2b6b4cfbeaf49172ac4d4fc6738b	SAMN00672721	PRJNA172564	-
SRR316108	SRA043588	live	2014-05-25T23:13:35Z	2011-07-26T19:25:04Z	2011-07-26T14:28:02Z	RUN	BCCAGSC	controlled_access	HS0821-1..9	SRX084977	SRS405465	SRP020238	1	6600421	475230312	6ff5f70b35d1ec12f52c99d69a00f071	SAMN00672721	PRJNA172564	-
SRR390365	SRA043588	live	2013-08-02T08:14:54Z	2011-12-19T04:42:27Z	2011-12-15T22:27:38Z	RUN	BCCAGSC	controlled_access	HS0821-bam	SRX084977	SRS405465	SRP020238	1	88383863	7799799100	bc444a5814623e2bcddab6ba96a9e4aa	SAMN00672721	PRJNA172564	-
SRZ019344	SRA043588	suppressed	2014-06-02T04:42:21Z	-	2011-09-30T20:29:07Z	ANALYSIS	BCCAGSC	controlled_access	HS0821	-	-	SRP020238	0	-	-	779450712cfd9b0c60b6b4bedb662168	-	PRJNA172564	SRR390365
SRX278599	SRA043856	live	2013-05-17T11:40:41Z	2013-05-16T17:56:07Z	2013-05-16T17:54:29Z	EXPERIMENT	BCM	controlled_access	ING_ALLSRG.PAPLDL04A-1_1pA_2	-	SRS160216	SRP011999	-	-	-	2e87d0485ada38aff35b1ed5f79eb5d1	SAMN00198602	PRJNA89529	-
SRR851896	SRA043856	live	2013-05-16T19:30:06Z	2013-05-16T19:30:06Z	2013-05-16T17:54:29Z	RUN	BCM	controlled_access	110112_SN142_0312_A81A0HABXX_6_bam	SRX278599	SRS160216	SRP011999	1	97760626	19552125200	c40b30c50a63a95506963d29f19cd9e7	SAMN00198602	PRJNA89529	-
SRZ016961	SRA043856	suppressed	2014-06-02T04:42:21Z	-	2011-08-05T03:48:02Z	ANALYSIS	BCM	controlled_access	TARGET-10-PAPLDL-04A-01D_2011-01-24	-	-	SRP002653	0	-	-	924d5971596afc5ea773df207a5f8578	-	PRJNA74789	SRR327362
SRX089145	SRA043856	suppressed	2013-07-19T19:57:37Z	-	2011-08-05T03:48:02Z	EXPERIMENT	BCM	controlled_access	ING_ALLSRG.PAPLDL10A-1_1pA_1	-	SRS160216	SRP011999	-	-	-	74b1e073f40728ca76a41c5d7d7c704b	SAMN00198602	PRJNA89529	SRX278599
SRR327362	SRA043856	suppressed	2014-04-15T22:26:16Z	-	2011-08-05T03:48:02Z	RUN	BCM	controlled_access	700142_20110112_81A0HABXX-7	SRX089145	SRS160216	SRP011999	0	-	-	646f835cba7a51720ee5b1413ee84ed0	SAMN00198602	PRJNA89529	-
SRR563774	SRA043856	suppressed	2013-05-15T16:22:06Z	-	2012-09-08T23:53:03Z	RUN	BCM	controlled_access	110112_SN142_0312_A81A0HABXX_7	SRX089145	SRS160216	SRP011999	0	-	-	a9cb761228eef72f122fbb08f28fbff9	SAMN00198602	PRJNA89529	-
SRX278600	SRA043901	live	2013-05-17T11:40:41Z	2013-05-16T17:56:10Z	2013-05-16T17:54:29Z	EXPERIMENT	BCM	controlled_access	ING_ALLSRG.PAPLDL10A-1_1pA_2	-	SRS160217	SRP011999	-	-	-	30e59819a8b42e6da1b8c4e7dc6ff128	SAMN00198603	PRJNA89529	-
SRR851897	SRA043901	live	2013-05-16T19:09:05Z	2013-05-16T19:09:05Z	2013-05-16T17:54:29Z	RUN	BCM	controlled_access	110112_SN142_0312_A81A0HABXX_7_bam	SRX278600	SRS160217	SRP011999	1	82327016	16465403200	128e18ce0188e679c69b897218843483	SAMN00198603	PRJNA89529	-
SRZ017005	SRA043901	suppressed	2014-06-02T04:42:21Z	-	2011-08-05T03:48:02Z	ANALYSIS	BCM	controlled_access	TARGET-10-PAPLDL-10A-01D_2011-01-24	-	-	SRP002653	0	-	-	cfef7b4c1f8fdc99ace6d0d96f0d7aef	-	PRJNA74789	SRR327406
SRX089189	SRA043901	suppressed	2013-07-19T19:57:37Z	-	2011-08-05T03:48:02Z	EXPERIMENT	BCM	controlled_access	ING_ALLSRG.PAPLDL04A-1_1pA_1	-	SRS160217	SRP011999	-	-	-	37033fb0b0e9adb47df11509531a104b	SAMN00198603	PRJNA89529	SRX278600
SRR327406	SRA043901	suppressed	2014-04-15T22:26:17Z	-	2011-08-05T03:48:02Z	RUN	BCM	controlled_access	700142_20110112_81A0HABXX-6	SRX089189	SRS160217	SRP011999	0	-	-	83ec3f30fdad3de764bd5d256b3f8041	SAMN00198603	PRJNA89529	-
SRR563772	SRA043901	suppressed	2013-05-15T16:21:07Z	-	2012-09-08T23:53:03Z	RUN	BCM	controlled_access	110112_SN142_0312_A81A0HABXX_6	SRX089189	SRS160217	SRP011999	0	-	-	ceb69171a88e7d8819a3a10ca0488819	SAMN00198603	PRJNA89529	-
SRX100062	SRA046828	live	2012-09-09T00:17:12Z	2011-10-07T18:54:44Z	2011-10-07T18:53:06Z	EXPERIMENT	BCM	controlled_access	ING_AMLSRG.PARGVC14-1_1pA_1	-	SRS160295	SRP012000	-	-	-	e5254511959f78b623a4e8277ecc29b0	SAMN00198681	PRJNA89525	-
SRR563748	SRA046828	live	2013-08-03T08:46:49Z	2012-09-09T01:31:14Z	2012-09-08T23:07:22Z	RUN	BCM	controlled_access	110114_SN580_0040_B81AC8ABXX_7	SRX100062	SRS160295	SRP012000	1	84533756	16906751200	69540d98d043b0c86c6be82dc5d24389	SAMN00198681	PRJNA89525	-
SRZ019584	SRA046828	suppressed	2014-06-02T04:42:21Z	-	2011-10-07T18:53:06Z	ANALYSIS	BCM	controlled_access	TARGET-20-PARGVC-14A-01D_2011-01-24	-	-	SRP002653	0	-	-	f07720453fe2d52c3cc25e3c2c5fa637	-	PRJNA74789	SRR351099
SRR351099	SRA046828	suppressed	2013-02-15T20:27:32Z	-	2011-10-07T18:53:06Z	RUN	BCM	controlled_access	700580_20110114_81AC8ABXX-7	SRX100062	SRS160295	SRP012000	0	-	-	ad82bfc17f38aea9735f09d0635e3883	SAMN00198681	PRJNA89525	SRR563748
SRR577256	SRA050174	live	2013-01-31T12:35:33Z	2012-09-30T06:54:10Z	2012-09-26T14:18:22Z	RUN	CompleteGenomics	controlled_access	GS49504-FS3_L01	SRX189928	SRS160217	SRP011999	1	3708059978	259564198460	c88a1b07aaee26bbf7e5eff4b7477c81	SAMN00198603	PRJNA89529	-
SRX129981	SRA050174	live	2012-07-25T21:26:15Z	2012-04-09T04:51:36Z	2012-03-15T03:12:21Z	EXPERIMENT	CompleteGenomics	controlled_access	GS00396-DNA_G01	-	SRS118139	SRP012006	-	-	-	d9af3c9c4a0385853505aa7bdf3ee6ab	SAMN00116606	PRJNA89521	-
SRR445535	SRA050174	live	2013-01-31T11:34:53Z	2012-07-25T21:26:18Z	2012-03-15T03:12:21Z	RUN	CompleteGenomics	controlled_access	GS20485-FS3_L01	SRX129981	SRS118139	SRP012006	1	6076259049	425338133430	7ea47fe51ab2208283a8dfe61812803f	SAMN00116606	PRJNA89521	-
SRX129980	SRA050174	live	2012-07-30T00:31:47Z	2012-04-09T04:51:36Z	2012-03-15T03:12:21Z	EXPERIMENT	CompleteGenomics	controlled_access	GS00396-DNA_A03	-	SRS118140	SRP012006	-	-	-	fd6273c481a04ef60e2f25a77b6fc2dd	SAMN00116607	PRJNA89521	-
SRR445543	SRA050174	live	2013-01-31T11:34:53Z	2012-07-30T00:31:49Z	2012-03-15T03:12:21Z	RUN	CompleteGenomics	controlled_access	GS20508-FS3_L01	SRX129980	SRS118140	SRP012006	1	7112267632	497858734240	49971a3e7526f49fd75d58610a4b1619	SAMN00116607	PRJNA89521	-
SRR445536	SRA050174	suppressed	2012-07-17T19:09:15Z	-	2012-03-15T03:12:21Z	RUN	-	controlled_access	-	-	-	-	0	-	-	-	-	-	SRR445535
SRR445537	SRA050174	suppressed	2012-07-17T19:09:15Z	-	2012-03-15T03:12:21Z	RUN	-	controlled_access	-	-	-	-	0	-	-	-	-	-	SRR445535
SRR445538	SRA050174	suppressed	2012-07-17T19:09:15Z	-	2012-03-15T03:12:21Z	RUN	-	controlled_access	-	-	-	-	0	-	-	-	-	-	SRR445535
SRR445539	SRA050174	suppressed	2012-07-17T19:09:15Z	-	2012-03-15T03:12:21Z	RUN	-	controlled_access	-	-	-	-	0	-	-	-	-	-	SRR445535
SRR445540	SRA050174	suppressed	2012-07-17T19:09:15Z	-	2012-03-15T03:12:21Z	RUN	-	controlled_access	-	-	-	-	0	-	-	-	-	-	SRR445535
SRR445541	SRA050174	suppressed	2012-07-17T19:09:15Z	-	2012-03-15T03:12:21Z	RUN	-	controlled_access	-	-	-	-	0	-	-	-	-	-	SRR445535
SRR445542	SRA050174	suppressed	2012-07-17T19:09:15Z	-	2012-03-15T03:12:21Z	RUN	-	controlled_access	-	-	-	-	0	-	-	-	-	-	SRR445535
SRR445544	SRA050174	suppressed	2012-07-17T19:09:15Z	-	2012-03-15T03:12:21Z	RUN	-	controlled_access	-	-	-	-	0	-	-	-	-	-	SRR445543
SRR445545	SRA050174	suppressed	2012-07-17T19:09:15Z	-	2012-03-15T03:12:21Z	RUN	-	controlled_access	-	-	-	-	0	-	-	-	-	-	SRR445543
SRR445546	SRA050174	suppressed	2012-07-17T19:09:15Z	-	2012-03-15T03:12:21Z	RUN	-	controlled_access	-	-	-	-	0	-	-	-	-	-	SRR445543
SRR445547	SRA050174	suppressed	2012-07-17T19:09:15Z	-	2012-03-15T03:12:21Z	RUN	-	controlled_access	-	-	-	-	0	-	-	-	-	-	SRR445543
SRR445548	SRA050174	suppressed	2012-07-17T19:09:15Z	-	2012-03-15T03:12:21Z	RUN	-	controlled_access	-	-	-	-	0	-	-	-	-	-	SRR445543
SRR445549	SRA050174	suppressed	2012-07-17T19:09:15Z	-	2012-03-15T03:12:21Z	RUN	-	controlled_access	-	-	-	-	0	-	-	-	-	-	SRR445543
SRR445550	SRA050174	suppressed	2012-07-17T19:09:15Z	-	2012-03-15T03:12:21Z	RUN	-	controlled_access	-	-	-	-	0	-	-	-	-	-	SRR445543
SRR577257	SRA050174	suppressed	2012-09-29T06:54:18Z	-	2012-09-26T14:18:22Z	RUN	-	controlled_access	-	-	-	-	0	-	-	-	-	-	SRR577256
SRR577258	SRA050174	suppressed	2012-09-29T06:54:18Z	-	2012-09-26T14:18:22Z	RUN	-	controlled_access	-	-	-	-	0	-	-	-	-	-	SRR577256
SRR577259	SRA050174	suppressed	2012-09-29T06:54:18Z	-	2012-09-26T14:18:22Z	RUN	-	controlled_access	-	-	-	-	0	-	-	-	-	-	SRR577256
SRR577260	SRA050174	suppressed	2012-09-29T06:54:18Z	-	2012-09-26T14:18:22Z	RUN	-	controlled_access	-	-	-	-	0	-	-	-	-	-	SRR577256
SRR577261	SRA050174	suppressed	2012-09-29T06:54:19Z	-	2012-09-26T14:18:22Z	RUN	-	controlled_access	-	-	-	-	0	-	-	-	-	-	SRR577256
SRZ029653	SRA050174	suppressed	2014-06-02T04:42:21Z	-	2012-09-26T14:18:22Z	ANALYSIS	-	controlled_access	-	-	-	-	0	-	-	-	-	-	SRR577256
SRR529542	SRA050174	suppressed	2013-02-15T20:27:32Z	-	2012-07-29T02:11:32Z	RUN	CompleteGenomics	controlled_access	GS48869-FS3_L02	SRX171646	SRS270713	SRP012000	0	-	-	a65faf24944ae04da717f8b0e9aaf28a	SAMN00752934	PRJNA89525	SRR529541
SRR529543	SRA050174	suppressed	2013-02-15T20:27:32Z	-	2012-07-29T02:11:32Z	RUN	CompleteGenomics	controlled_access	GS48870-FS3_L05	SRX171646	SRS270713	SRP012000	0	-	-	56dda27efc37add7b42010b7fe340074	SAMN00752934	PRJNA89525	SRR529541
SRR529544	SRA050174	suppressed	2013-02-15T20:27:32Z	-	2012-07-29T02:11:32Z	RUN	CompleteGenomics	controlled_access	GS48870-FS3_L04	SRX171646	SRS270713	SRP012000	0	-	-	f8480bcab351f63fec1d8cd2e0a16ba1	SAMN00752934	PRJNA89525	SRR529541
SRR529545	SRA050174	suppressed	2013-02-15T20:27:32Z	-	2012-07-29T02:11:32Z	RUN	CompleteGenomics	controlled_access	GS48870-FS3_L07	SRX171646	SRS270713	SRP012000	0	-	-	4edfe60f57468a4b835fa6762589fbe8	SAMN00752934	PRJNA89525	SRR529541
SRR529546	SRA050174	suppressed	2013-02-15T20:27:32Z	-	2012-07-29T02:11:32Z	RUN	CompleteGenomics	controlled_access	GS48870-FS3_L06	SRX171646	SRS270713	SRP012000	0	-	-	c627e6a2b1da4fa7325c33036ebc51da	SAMN00752934	PRJNA89525	SRR529541
SRR529547	SRA050174	suppressed	2013-02-15T20:27:32Z	-	2012-07-29T02:11:32Z	RUN	CompleteGenomics	controlled_access	GS48870-FS3_L08	SRX171646	SRS270713	SRP012000	0	-	-	3d85301797475045e237bf8c73c174dd	SAMN00752934	PRJNA89525	SRR529541
SRZ023098	SRA050174	suppressed	2014-06-02T04:42:21Z	-	2012-03-15T03:12:21Z	ANALYSIS	CompleteGenomics	controlled_access	GS00396-DNA_A03	-	-	SRP012006	0	-	-	da2eae8e12866e190cf45e04deda8186	-	PRJNA89521	SRR445543
SRZ023099	SRA050174	suppressed	2014-06-02T04:42:21Z	-	2012-03-15T03:12:21Z	ANALYSIS	CompleteGenomics	controlled_access	GS00396-DNA_G01	-	-	SRP012006	0	-	-	4bfe9746ca127c3d74afceebcd052b76	-	PRJNA89521	SRR445535
SRX189928	SRA057190	live	2012-10-09T23:32:45Z	2012-09-30T06:54:09Z	2012-09-26T14:18:22Z	EXPERIMENT	CompleteGenomics	controlled_access	GS00826-DNA_F02	-	SRS160217	SRP011999	-	-	-	04f0fb989694b75c51f5eaf174dea078	SAMN00198603	PRJNA89529	-
SRX171646	SRA058595	live	2012-07-31T19:37:21Z	2012-07-31T08:34:07Z	2012-07-29T02:11:32Z	EXPERIMENT	CompleteGenomics	controlled_access	GS00824-DNA_H01	-	SRS270713	SRP012000	-	-	-	c7d02a823b2b289c328bbcc6f678f22c	SAMN00752934	PRJNA89525	-
SRR529541	SRA058595	live	2013-03-03T07:06:22Z	2012-07-31T08:34:10Z	2012-07-29T02:11:32Z	RUN	CompleteGenomics	controlled_access	GS48869-FS3_L01	SRX171646	SRS270713	SRP012000	1	3676117610	257328232700	6ac42d2d7bbc797fbf698a030f44f147	SAMN00752934	PRJNA89525	-
SRZ026686	SRA058595	suppressed	2014-06-02T04:42:21Z	-	2012-07-29T02:11:32Z	ANALYSIS	-	controlled_access	-	-	-	-	0	-	-	-	-	-	SRR529541
SRX204262	SRA061507	live	2012-11-15T11:16:08Z	2012-11-15T11:16:07Z	2012-11-12T06:19:59Z	EXPERIMENT	CompleteGenomics	controlled_access	GS01858-DNA_C06	-	SRS375186	SRP012002	-	-	-	c5be7e43d132512b5422793ea6353dd3	SAMN01778324	PRJNA89523	-
SRR616391	SRA061507	live	2013-01-31T12:40:54Z	2012-11-15T11:16:08Z	2012-11-12T06:19:59Z	RUN	CompleteGenomics	controlled_access	GS55368-FS3_L03	SRX204262	SRS375186	SRP012002	1	3726484717	260853930190	e1a129f5129e941dcf1a8056cf2b8977	SAMN01778324	PRJNA89523	-
SRR616392	SRA061507	suppressed	2012-11-13T14:48:33Z	-	2012-11-12T06:19:59Z	RUN	-	controlled_access	-	-	-	-	0	-	-	-	-	-	SRR616391
SRR616393	SRA061507	suppressed	2012-11-13T14:48:33Z	-	2012-11-12T06:19:59Z	RUN	-	controlled_access	-	-	-	-	0	-	-	-	-	-	SRR616391
SRR616394	SRA061507	suppressed	2012-11-13T14:48:33Z	-	2012-11-12T06:19:59Z	RUN	-	controlled_access	-	-	-	-	0	-	-	-	-	-	SRR616391
SRR616395	SRA061507	suppressed	2012-11-13T14:48:33Z	-	2012-11-12T06:19:59Z	RUN	-	controlled_access	-	-	-	-	0	-	-	-	-	-	SRR616391
SRR616396	SRA061507	suppressed	2012-11-13T14:48:33Z	-	2012-11-12T06:19:59Z	RUN	-	controlled_access	-	-	-	-	0	-	-	-	-	-	SRR616391
SRR616397	SRA061507	suppressed	2012-11-13T14:48:33Z	-	2012-11-12T06:19:59Z	RUN	-	controlled_access	-	-	-	-	0	-	-	-	-	-	SRR616391
SRZ030402	SRA061507	suppressed	2014-06-02T04:42:21Z	-	2012-11-12T06:19:59Z	ANALYSIS	-	controlled_access	-	-	-	-	0	-	-	-	-	-	SRR616391
SRX205056	SRA061740	live	2012-11-20T14:04:08Z	2012-11-20T14:04:07Z	2012-11-18T14:35:28Z	EXPERIMENT	CompleteGenomics	controlled_access	GS01858-DNA_F04	-	SRS375980	SRP012002	-	-	-	13adcf5fecbafd80571bb4e13306c3ca	SAMN01778361	PRJNA89523	-
SRR618209	SRA061740	live	2014-04-15T18:49:22Z	2012-11-20T14:04:09Z	2012-11-18T14:35:28Z	RUN	CompleteGenomics	controlled_access	GS55578-FS3_L01	SRX205056	SRS375980	SRP012002	1	3777827772	264447944040	b61ad7d3c77ee63db7b9d8f1df7e7b3d	SAMN01778361	PRJNA89523	-
SRR618210	SRA061740	suppressed	2012-11-19T02:36:02Z	-	2012-11-18T14:35:28Z	RUN	-	controlled_access	-	-	-	-	0	-	-	-	-	-	SRR618209
SRR618211	SRA061740	suppressed	2012-11-19T02:36:02Z	-	2012-11-18T14:35:28Z	RUN	-	controlled_access	-	-	-	-	0	-	-	-	-	-	SRR618209
SRR618212	SRA061740	suppressed	2012-11-19T02:36:02Z	-	2012-11-18T14:35:28Z	RUN	-	controlled_access	-	-	-	-	0	-	-	-	-	-	SRR618209
SRR618213	SRA061740	suppressed	2012-11-19T02:36:02Z	-	2012-11-18T14:35:28Z	RUN	-	controlled_access	-	-	-	-	0	-	-	-	-	-	SRR618209
SRR618214	SRA061740	suppressed	2012-11-19T02:36:02Z	-	2012-11-18T14:35:28Z	RUN	-	controlled_access	-	-	-	-	0	-	-	-	-	-	SRR618209
SRR618215	SRA061740	suppressed	2012-11-19T02:36:02Z	-	2012-11-18T14:35:28Z	RUN	-	controlled_access	-	-	-	-	0	-	-	-	-	-	SRR618209
SRR618216	SRA061740	suppressed	2012-11-19T02:36:02Z	-	2012-11-18T14:35:28Z	RUN	-	controlled_access	-	-	-	-	0	-	-	-	-	-	SRR618209
SRZ030492	SRA061740	suppressed	2014-06-02T04:42:21Z	-	2012-11-18T14:35:28Z	ANALYSIS	-	controlled_access	-	-	-	-	0	-	-	-	-	-	SRR618209
SRX211946	SRA062875	live	2014-06-12T03:42:33Z	2012-12-19T15:10:29Z	2012-12-19T02:24:50Z	EXPERIMENT	BI	controlled_access	661196.WR28224.Catch-130980.C0703ACXX120123.P	-	SRS375186	SRP012002	-	-	-	50b2805daff0be494f2331f76b9c9c1a	SAMN01778324	PRJNA89523	-
SRR638633	SRA062875	live	2014-04-15T19:05:57Z	2012-12-19T16:31:32Z	2012-12-19T02:25:08Z	RUN	BI	controlled_access	C0703ACXX120123.6.TAAGCACA.C829.TARGET-30-PASTCN-01A-01D.1.bam	SRX211946	SRS375186	SRP012002	1	40472959	6151889768	3ccb132f7ddede063820e41543662701	SAMN01778324	PRJNA89523	-
SRX209854	SRA062875	live	2014-06-12T03:40:02Z	2012-12-13T22:01:57Z	2012-12-13T20:41:11Z	EXPERIMENT	BI	controlled_access	661196.WR28227.Catch-131472.C0CL6ACXX120125.P	-	SRS375980	SRP012002	-	-	-	505499f3066e62cf45932e485a37dfc2	SAMN01778361	PRJNA89523	-
SRR631430	SRA062875	live	2014-04-15T18:49:25Z	2012-12-13T22:04:02Z	2012-12-13T20:41:30Z	RUN	BI	controlled_access	C0CL6ACXX120125.6.CGCTATGT.C829.TARGET-30-PASEGA-10A-01D.3.bam	SRX209854	SRS375980	SRP012002	1	34861462	5280516965	67a323fe1e75e429de1a9daee013129b	SAMN01778361	PRJNA89523	-
SRR638634	SRA062875	suppressed	2012-12-19T18:08:17Z	-	2012-12-19T02:25:08Z	RUN	-	controlled_access	-	-	-	-	0	-	-	-	-	-	SRR638633
SRR638635	SRA062875	suppressed	2012-12-19T18:08:17Z	-	2012-12-19T02:25:08Z	RUN	-	controlled_access	-	-	-	-	0	-	-	-	-	-	SRR638633
SRR638636	SRA062875	suppressed	2012-12-19T18:08:17Z	-	2012-12-19T02:25:08Z	RUN	-	controlled_access	-	-	-	-	0	-	-	-	-	-	SRR638633
SRR638637	SRA062875	suppressed	2012-12-19T18:08:17Z	-	2012-12-19T02:25:08Z	RUN	-	controlled_access	-	-	-	-	0	-	-	-	-	-	SRR638633
SRR638638	SRA062875	suppressed	2012-12-19T18:08:17Z	-	2012-12-19T02:25:08Z	RUN	-	controlled_access	-	-	-	-	0	-	-	-	-	-	SRR638633
SRR638639	SRA062875	suppressed	2012-12-19T18:08:17Z	-	2012-12-19T02:25:08Z	RUN	-	controlled_access	-	-	-	-	0	-	-	-	-	-	SRR638633
SRR638640	SRA062875	suppressed	2012-12-19T18:08:17Z	-	2012-12-19T02:25:08Z	RUN	-	controlled_access	-	-	-	-	0	-	-	-	-	-	SRR638633
SRR638641	SRA062875	suppressed	2012-12-19T18:08:18Z	-	2012-12-19T02:25:08Z	RUN	-	controlled_access	-	-	-	-	0	-	-	-	-	-	SRR638633
SRR638642	SRA062875	suppressed	2012-12-19T18:08:18Z	-	2012-12-19T02:25:08Z	RUN	-	controlled_access	-	-	-	-	0	-	-	-	-	-	SRR638633
SRR638643	SRA062875	suppressed	2012-12-19T18:08:18Z	-	2012-12-19T02:25:08Z	RUN	-	controlled_access	-	-	-	-	0	-	-	-	-	-	SRR638633
SRR638644	SRA062875	suppressed	2012-12-19T18:08:19Z	-	2012-12-19T02:25:08Z	RUN	-	controlled_access	-	-	-	-	0	-	-	-	-	-	SRR638633
SRR638645	SRA062875	suppressed	2012-12-19T18:08:19Z	-	2012-12-19T02:25:08Z	RUN	-	controlled_access	-	-	-	-	0	-	-	-	-	-	SRR638633
SRR638646	SRA062875	suppressed	2012-12-19T18:08:19Z	-	2012-12-19T02:25:08Z	RUN	-	controlled_access	-	-	-	-	0	-	-	-	-	-	SRR638633
SRR638647	SRA062875	suppressed	2012-12-19T18:08:19Z	-	2012-12-19T02:25:08Z	RUN	-	controlled_access	-	-	-	-	0	-	-	-	-	-	SRR638633
SRR638648	SRA062875	suppressed	2012-12-19T18:08:19Z	-	2012-12-19T02:25:08Z	RUN	-	controlled_access	-	-	-	-	0	-	-	-	-	-	SRR638633
SRR638649	SRA062875	suppressed	2012-12-19T18:08:19Z	-	2012-12-19T02:25:08Z	RUN	-	controlled_access	-	-	-	-	0	-	-	-	-	-	SRR638633
SRR638650	SRA062875	suppressed	2012-12-19T18:08:20Z	-	2012-12-19T02:25:08Z	RUN	-	controlled_access	-	-	-	-	0	-	-	-	-	-	SRR638633
SRZ031011	SRA062875	suppressed	2014-06-02T04:42:21Z	-	2012-12-19T02:25:17Z	ANALYSIS	-	controlled_access	-	-	-	-	0	-	-	-	-	-	SRR638633
SRZ030728	SRA062875	suppressed	2014-06-02T04:42:21Z	-	2012-12-13T20:41:39Z	ANALYSIS	BI	controlled_access	C829.TARGET-30-PASEGA-10A-01D.3.bam	-	-	SRP012002	0	-	-	a11952290e11f88ee12991a477ff9097	-	PRJNA89523	SRR631430
SRX211944	SRA062875	suppressed	2014-06-12T03:42:33Z	-	2012-12-19T02:24:50Z	EXPERIMENT	BI	controlled_access	661196.WR28224.Catch-130980.D0JTGACXX120125.P	-	SRS375186	SRP012002	-	-	-	62d04ad93fc24d2ccd89b1d180097071	SAMN01778324	PRJNA89523	SRX211946
SRX211945	SRA062875	suppressed	2014-06-12T03:42:33Z	-	2012-12-19T02:24:50Z	EXPERIMENT	BI	controlled_access	661196.WR28224.Catch-130980.C079CACXX120123.P	-	SRS375186	SRP012002	-	-	-	09fe56fb4979e6e14924659c352b1ffc	SAMN01778324	PRJNA89523	SRX211946
SRX209855	SRA062875	suppressed	2014-06-12T03:40:02Z	-	2012-12-13T20:41:11Z	EXPERIMENT	BI	controlled_access	661196.WR28227.Catch-131472.D0DP7ACXX120120.P	-	SRS375980	SRP012002	-	-	-	a2da02d729320ae9942c42492d1b2091	SAMN01778361	PRJNA89523	SRX209854
SRX209856	SRA062875	suppressed	2014-06-12T03:40:02Z	-	2012-12-13T20:41:11Z	EXPERIMENT	BI	controlled_access	661196.WR28227.Catch-131472.D0C9BACXX120123.P	-	SRS375980	SRP012002	-	-	-	4031ded34de8c2fba3a5bfb9a1f343ce	SAMN01778361	PRJNA89523	SRX209854
SRX209857	SRA062875	suppressed	2014-06-12T03:40:02Z	-	2012-12-13T20:41:11Z	EXPERIMENT	BI	controlled_access	661196.WR28227.Catch-131472.C0C1MACXX120201.P	-	SRS375980	SRP012002	-	-	-	b6fe9f90d625b595ff1451511eacde26	SAMN01778361	PRJNA89523	SRX209854
SRX209858	SRA062875	suppressed	2014-06-12T03:40:02Z	-	2012-12-13T20:41:11Z	EXPERIMENT	BI	controlled_access	661196.WR28227.Catch-131472.D0K1DACXX120126.P	-	SRS375980	SRP012002	-	-	-	b11ce3ca90ac5ddd80166e5de1aa1186	SAMN01778361	PRJNA89523	SRX209854
SRR631433	SRA062875	suppressed	2012-12-16T11:31:34Z	-	2012-12-13T20:41:30Z	RUN	BI	controlled_access	C0CL6ACXX120125.5.CGCTATGT.C829.TARGET-30-PASEGA-10A-01D.3.bam	SRX209854	SRS375980	SRP012002	0	-	-	f6f3d60683eb749853e6caf95bd2b191	SAMN01778361	PRJNA89523	SRR631430
SRR631434	SRA062875	suppressed	2012-12-16T11:31:35Z	-	2012-12-13T20:41:30Z	RUN	BI	controlled_access	C0CL6ACXX120125.7.CGCTATGT.C829.TARGET-30-PASEGA-10A-01D.3.bam	SRX209854	SRS375980	SRP012002	0	-	-	5f8b83316114ddf936fda52a9a8bc119	SAMN01778361	PRJNA89523	SRR631430
SRR631437	SRA062875	suppressed	2012-12-16T11:31:35Z	-	2012-12-13T20:41:30Z	RUN	BI	controlled_access	C0CL6ACXX120125.8.CGCTATGT.C829.TARGET-30-PASEGA-10A-01D.3.bam	SRX209854	SRS375980	SRP012002	0	-	-	3f0265da485167c857ab6e2f44584628	SAMN01778361	PRJNA89523	SRR631430
SRR631441	SRA062875	suppressed	2012-12-16T11:31:35Z	-	2012-12-13T20:41:30Z	RUN	BI	controlled_access	C0CL6ACXX120125.3.CGCTATGT.C829.TARGET-30-PASEGA-10A-01D.3.bam	SRX209854	SRS375980	SRP012002	0	-	-	3c325e4d1c5c9f0726de67c83608be09	SAMN01778361	PRJNA89523	SRR631430
SRR631442	SRA062875	suppressed	2012-12-16T11:31:35Z	-	2012-12-13T20:41:30Z	RUN	BI	controlled_access	C0CL6ACXX120125.2.CGCTATGT.C829.TARGET-30-PASEGA-10A-01D.3.bam	SRX209854	SRS375980	SRP012002	0	-	-	f547cf3e8c3a42ea07f9d7e8e02d1ee3	SAMN01778361	PRJNA89523	SRR631430
SRR631436	SRA062875	suppressed	2012-12-16T11:31:35Z	-	2012-12-13T20:41:30Z	RUN	BI	controlled_access	D0DP7ACXX120120.4.CGCTATGT.C829.TARGET-30-PASEGA-10A-01D.3.bam	SRX209855	SRS375980	SRP012002	0	-	-	9d569261911e22e81476e4706e2883c1	SAMN01778361	PRJNA89523	SRR631430
SRR631431	SRA062875	suppressed	2012-12-16T11:31:34Z	-	2012-12-13T20:41:30Z	RUN	BI	controlled_access	D0C9BACXX120123.4.CGCTATGT.C829.TARGET-30-PASEGA-10A-01D.3.bam	SRX209856	SRS375980	SRP012002	0	-	-	ba44a70333c97b0a9d26cbf5f2a163f0	SAMN01778361	PRJNA89523	SRR631430
SRR631432	SRA062875	suppressed	2012-12-16T11:31:34Z	-	2012-12-13T20:41:30Z	RUN	BI	controlled_access	D0C9BACXX120123.1.CGCTATGT.C829.TARGET-30-PASEGA-10A-01D.3.bam	SRX209856	SRS375980	SRP012002	0	-	-	1813e7d2767460a886d64b1545c242aa	SAMN01778361	PRJNA89523	SRR631430
SRR631435	SRA062875	suppressed	2012-12-16T11:31:35Z	-	2012-12-13T20:41:30Z	RUN	BI	controlled_access	D0C9BACXX120123.2.CGCTATGT.C829.TARGET-30-PASEGA-10A-01D.3.bam	SRX209856	SRS375980	SRP012002	0	-	-	caf2bc638b1d940c3d1e4d5ca14ee496	SAMN01778361	PRJNA89523	SRR631430
SRR631439	SRA062875	suppressed	2012-12-16T11:31:35Z	-	2012-12-13T20:41:30Z	RUN	BI	controlled_access	D0C9BACXX120123.7.CGCTATGT.C829.TARGET-30-PASEGA-10A-01D.3.bam	SRX209856	SRS375980	SRP012002	0	-	-	1b3d65e16ad6793500e87ac39b6e0725	SAMN01778361	PRJNA89523	SRR631430
SRR631440	SRA062875	suppressed	2012-12-16T11:31:35Z	-	2012-12-13T20:41:30Z	RUN	BI	controlled_access	D0C9BACXX120123.3.CGCTATGT.C829.TARGET-30-PASEGA-10A-01D.3.bam	SRX209856	SRS375980	SRP012002	0	-	-	2339f50ef50ed318d80c9cbed3611186	SAMN01778361	PRJNA89523	SRR631430
SRR631443	SRA062875	suppressed	2012-12-16T11:31:35Z	-	2012-12-13T20:41:30Z	RUN	BI	controlled_access	D0C9BACXX120123.8.CGCTATGT.C829.TARGET-30-PASEGA-10A-01D.3.bam	SRX209856	SRS375980	SRP012002	0	-	-	c3c4c4b7e94cb28b87db46d9d0f24d07	SAMN01778361	PRJNA89523	SRR631430
SRR631444	SRA062875	suppressed	2012-12-16T11:31:35Z	-	2012-12-13T20:41:30Z	RUN	BI	controlled_access	D0C9BACXX120123.6.CGCTATGT.C829.TARGET-30-PASEGA-10A-01D.3.bam	SRX209856	SRS375980	SRP012002	0	-	-	a97346513503142b1ae0634723fbd139	SAMN01778361	PRJNA89523	SRR631430
SRR631445	SRA062875	suppressed	2012-12-16T11:31:35Z	-	2012-12-13T20:41:30Z	RUN	BI	controlled_access	D0C9BACXX120123.5.CGCTATGT.C829.TARGET-30-PASEGA-10A-01D.3.bam	SRX209856	SRS375980	SRP012002	0	-	-	08fee60e7cbba5120038d811ed5008ee	SAMN01778361	PRJNA89523	SRR631430
SRR631446	SRA062875	suppressed	2012-12-16T11:31:35Z	-	2012-12-13T20:41:30Z	RUN	BI	controlled_access	C0C1MACXX120201.4.CGCTATGT.C829.TARGET-30-PASEGA-10A-01D.3.bam	SRX209857	SRS375980	SRP012002	0	-	-	b2ffb7729e83e6df635a7fad5f52c756	SAMN01778361	PRJNA89523	SRR631430
SRR631438	SRA062875	suppressed	2012-12-16T11:31:35Z	-	2012-12-13T20:41:30Z	RUN	BI	controlled_access	D0K1DACXX120126.4.CGCTATGT.C829.TARGET-30-PASEGA-10A-01D.3.bam	SRX209858	SRS375980	SRP012002	0	-	-	44886a558724e6e96ca5ca55d1f93898	SAMN01778361	PRJNA89523	SRR631430
SRX213073	SRA063302	live	2012-12-28T20:40:11Z	2012-12-28T20:40:10Z	2012-12-27T08:34:38Z	EXPERIMENT	CompleteGenomics	controlled_access	GS01859-DNA_D03	-	SRS382218	SRP012004	-	-	-	7f2bc042c714cdee0b52490c782faccd	SAMN01778419	PRJNA89535	-
SRR641177	SRA063302	live	2014-04-15T19:06:00Z	2012-12-28T20:40:12Z	2012-12-27T08:34:38Z	RUN	CompleteGenomics	controlled_access	GS56926-FS3_L01	SRX213073	SRS382218	SRP012004	1	3601853557	252129748990	4cf6a96ed7745c40bf018a115cce730d	SAMN01778419	PRJNA89535	-
SRR641178	SRA063302	suppressed	2012-12-28T15:07:35Z	-	2012-12-27T08:34:38Z	RUN	-	controlled_access	-	-	-	-	0	-	-	-	-	-	SRR641177
SRR641179	SRA063302	suppressed	2012-12-28T15:07:35Z	-	2012-12-27T08:34:38Z	RUN	-	controlled_access	-	-	-	-	0	-	-	-	-	-	SRR641177
SRR641180	SRA063302	suppressed	2012-12-28T15:07:35Z	-	2012-12-27T08:34:38Z	RUN	-	controlled_access	-	-	-	-	0	-	-	-	-	-	SRR641177
SRR641181	SRA063302	suppressed	2012-12-28T15:07:35Z	-	2012-12-27T08:34:38Z	RUN	-	controlled_access	-	-	-	-	0	-	-	-	-	-	SRR641177
SRR641182	SRA063302	suppressed	2012-12-28T15:07:35Z	-	2012-12-27T08:34:38Z	RUN	-	controlled_access	-	-	-	-	0	-	-	-	-	-	SRR641177
SRR641183	SRA063302	suppressed	2012-12-28T15:07:35Z	-	2012-12-27T08:34:38Z	RUN	-	controlled_access	-	-	-	-	0	-	-	-	-	-	SRR641177
SRR641184	SRA063302	suppressed	2012-12-28T15:07:35Z	-	2012-12-27T08:34:38Z	RUN	-	controlled_access	-	-	-	-	0	-	-	-	-	-	SRR641177
SRZ031177	SRA063302	suppressed	2014-06-02T04:42:21Z	-	2012-12-27T08:34:38Z	ANALYSIS	-	controlled_access	-	-	-	-	0	-	-	-	-	-	SRR641177
SRX363102	SRA105400	live	2013-11-06T08:01:08Z	2013-11-06T08:01:08Z	2013-09-09T18:32:40Z	EXPERIMENT	CompleteGenomics	controlled_access	GS01686-DNA_E04	-	SRS489834	SRP012006	-	-	-	8b4936dbd7853ea820b4f5575fee2f0c	SAMN01778524	PRJNA89521	-
SRR1008037	SRA105400	live	2013-11-06T08:01:07Z	2013-11-06T08:01:07Z	2013-09-09T18:32:40Z	RUN	CompleteGenomics	controlled_access	GS64953-FS3_L01	SRX363102	SRS489834	SRP012006	1	3724822920	260737604400	603780bb7d0256d69a8855b71687aa19	SAMN01778524	PRJNA89521	-
SRR1008038	SRA105400	suppressed	2013-10-04T18:41:25Z	-	2013-09-09T18:32:40Z	RUN	-	controlled_access	-	-	-	-	0	-	-	-	-	-	SRR1008037
SRR1008039	SRA105400	suppressed	2013-10-04T18:41:25Z	-	2013-09-09T18:32:40Z	RUN	-	controlled_access	-	-	-	-	0	-	-	-	-	-	SRR1008037
SRR1008040	SRA105400	suppressed	2013-10-04T18:41:25Z	-	2013-09-09T18:32:40Z	RUN	-	controlled_access	-	-	-	-	0	-	-	-	-	-	SRR1008037
SRR1008041	SRA105400	suppressed	2013-10-04T18:41:25Z	-	2013-09-09T18:32:40Z	RUN	-	controlled_access	-	-	-	-	0	-	-	-	-	-	SRR1008037
SRR1008042	SRA105400	suppressed	2013-10-04T18:41:25Z	-	2013-09-09T18:32:40Z	RUN	-	controlled_access	-	-	-	-	0	-	-	-	-	-	SRR1008037
SRR1008043	SRA105400	suppressed	2013-10-04T18:41:25Z	-	2013-09-09T18:32:40Z	RUN	-	controlled_access	-	-	-	-	0	-	-	-	-	-	SRR1008037
SRZ053044	SRA105400	suppressed	2014-06-02T04:42:21Z	-	2013-09-09T18:32:40Z	ANALYSIS	-	controlled_access	-	-	-	-	0	-	-	-	-	-	SRR1008037
SRX398158	SRA122278	live	2013-12-23T17:16:08Z	2013-12-23T16:36:11Z	2013-12-23T15:24:05Z	EXPERIMENT	BCM	controlled_access	PPTPWT.TARGET-50-PALLCK-01A-01D-1_1AMP_1	-	SRS190219	SRP012006	-	-	-	ab77c88bb2bada8b550571253c5152f8	SAMN00261187	PRJNA89521	-
SRR1057367	SRA122278	live	2013-12-23T17:34:07Z	2013-12-23T17:34:07Z	2013-12-23T15:24:05Z	RUN	BCM	controlled_access	130817_SN738_0416_BC298AACXX_8_ID09	SRX398158	SRS190219	SRP012006	1	58687230	11854820460	5d9121cd8b63bd162a9482ee21e4d504	SAMN00261187	PRJNA89521	-
SRX398159	SRA122279	live	2013-12-23T17:15:07Z	2013-12-23T16:37:02Z	2013-12-23T15:24:07Z	EXPERIMENT	BCM	controlled_access	PPTPWT.TARGET-50-PALLCK-10A-01D-1_1AMP_1	-	SRS190220	SRP012006	-	-	-	2f3be0c4a95a34bffd2bd97f1ade1014	SAMN00261188	PRJNA89521	-
SRR1057368	SRA122279	live	2013-12-23T17:35:06Z	2013-12-23T17:35:06Z	2013-12-23T15:24:07Z	RUN	BCM	controlled_access	130817_SN738_0416_BC298AACXX_8_ID10	SRX398159	SRS190220	SRP012006	1	60866291	12294990782	767246990f8759d1c07c311f49341c48	SAMN00261188	PRJNA89521	-
SRX091354	SRA044959	suppressed	2013-07-19T19:57:37Z	-	2011-08-16T01:13:07Z	EXPERIMENT	BI	controlled_access	119013.WR22709.Catch-35632.206EUABXX100830.P	-	SRS255464	SRP012002	-	-	-	906f9c59305b92ffb8caa6076aa41967	SAMN00691509	PRJNA89523	-
SRR330134	SRA044959	suppressed	2013-02-15T20:27:32Z	-	2011-08-16T01:14:28Z	RUN	BI	controlled_access	206EUABXX100830.3.C310.6258_1111-N.1.bam	SRX091354	SRS255464	SRP012002	0	-	-	93261274df966d1b6573c14a69456aa4	SAMN00691509	PRJNA89523	-
SRR1006570	SRA058595	live	2014-04-15T18:49:20Z	2013-10-21T05:54:05Z	2013-03-28T04:07:55Z	RUN	CompleteGenomics	controlled_access	GS59264-FS3_L01	SRX185425	SRS301138	SRP012000	1	4062119247	284348347290	5579ac9bbb0deeaf92f2ead961c29006	SAMN00811952	PRJNA89525	-
SRR1006571	SRA058595	suppressed	2013-10-05T13:59:09Z	-	2013-03-28T04:07:55Z	RUN	-	controlled_access	-	-	-	-	0	-	-	-	-	-	SRR1006570
SRR1006572	SRA058595	suppressed	2013-10-05T13:59:09Z	-	2013-03-28T04:07:55Z	RUN	-	controlled_access	-	-	-	-	0	-	-	-	-	-	SRR1006570
SRR1006573	SRA058595	suppressed	2013-10-05T13:59:09Z	-	2013-03-28T04:07:55Z	RUN	-	controlled_access	-	-	-	-	0	-	-	-	-	-	SRR1006570
SRR1006574	SRA058595	suppressed	2013-10-05T13:59:09Z	-	2013-03-28T04:07:55Z	RUN	-	controlled_access	-	-	-	-	0	-	-	-	-	-	SRR1006570
SRR1006575	SRA058595	suppressed	2013-10-05T13:59:09Z	-	2013-03-28T04:07:55Z	RUN	-	controlled_access	-	-	-	-	0	-	-	-	-	-	SRR1006570
SRR1006576	SRA058595	suppressed	2013-10-05T13:59:09Z	-	2013-03-28T04:07:55Z	RUN	-	controlled_access	-	-	-	-	0	-	-	-	-	-	SRR1006570
SRR1006577	SRA058595	suppressed	2013-10-05T13:59:09Z	-	2013-03-28T04:07:55Z	RUN	-	controlled_access	-	-	-	-	0	-	-	-	-	-	SRR1006570
SRZ029438	SRA058595	suppressed	2014-06-02T04:42:21Z	-	2012-09-07T21:30:22Z	ANALYSIS	-	controlled_access	-	-	-	-	0	-	-	-	-	-	SRR1006570
SRR564202	SRA058595	live	2013-01-31T12:32:06Z	2012-09-11T13:48:25Z	2012-09-07T21:30:22Z	RUN	CompleteGenomics	controlled_access	GS51159-FS3_L01	SRX185425	SRS301138	SRP012000	1	4036175662	282532296340	72e4fdd5f0d3eaa4c585c0117865c494	SAMN00811952	PRJNA89525	-
SRR564203	SRA058595	suppressed	2012-09-26T18:32:27Z	-	2012-09-07T21:30:22Z	RUN	-	controlled_access	-	-	-	-	0	-	-	-	-	-	SRR564202
SRR564204	SRA058595	suppressed	2012-09-26T18:32:27Z	-	2012-09-07T21:30:22Z	RUN	-	controlled_access	-	-	-	-	0	-	-	-	-	-	SRR564202
SRR564205	SRA058595	suppressed	2012-09-26T18:32:27Z	-	2012-09-07T21:30:22Z	RUN	-	controlled_access	-	-	-	-	0	-	-	-	-	-	SRR564202
SRR564206	SRA058595	suppressed	2012-09-26T18:32:27Z	-	2012-09-07T21:30:22Z	RUN	-	controlled_access	-	-	-	-	0	-	-	-	-	-	SRR564202
SRR564207	SRA058595	suppressed	2012-09-26T18:32:27Z	-	2012-09-07T21:30:22Z	RUN	-	controlled_access	-	-	-	-	0	-	-	-	-	-	SRR564202
SRR564208	SRA058595	suppressed	2012-09-26T18:32:27Z	-	2012-09-07T21:30:22Z	RUN	-	controlled_access	-	-	-	-	0	-	-	-	-	-	SRR564202
SRR564209	SRA058595	suppressed	2012-09-26T18:32:27Z	-	2012-09-07T21:30:22Z	RUN	-	controlled_access	-	-	-	-	0	-	-	-	-	-	SRR564202
SRX185425	SRA058595	live	2012-09-26T18:33:28Z	2012-09-11T13:48:24Z	2012-09-07T21:30:22Z	EXPERIMENT	CompleteGenomics	controlled_access	GS00829-DNA_D03	-	SRS301138	SRP012000	-	-	-	662d9a07d611423415712f056064eb3e	SAMN00811952	PRJNA89525	-
