GS00286-DNA_A01.bam	a8f96b1b29db781cbcc57182ee43469f
GS00286-DNA_D01.bam	a759455f293ef75bbb7b6c297d8230eb
GS00286-DNA_E01.bam	3e03e99a640b612dd25681ea2f280cba
GS00286-DNA_F01.bam	e3abe6c2a4da670a002f11a918d7ed9a
GS00286-DNA_H01.bam	9f41c156af11ea351f63de9cc826e5f2
GS00332-DNA_A01.bam	5f5f7440e8085e743efb85120efbfe5e
GS00332-DNA_A02.bam	17a00a6736061df7a5f897583b9b75e1
GS00332-DNA_A03.bam	34a0b14a3df4178dd4c02f4996e65107
GS00332-DNA_B01.bam	8acbac988248bfcafb0f17fb4e97c92b
GS00332-DNA_B02.bam	878998d8b80bd199280d1fd2dd5b602b
GS00332-DNA_B03.bam	564c2e18f357e413d28fcf00825a8094
GS00332-DNA_C01.bam	a07c4ccfb59e2f00f9098d51cb949f4a
GS00332-DNA_C02.bam	98785a44a5887e72e769d44ad8c1d2d7
GS00332-DNA_C03.bam	4848e6958b86836915e2e2bc7c147b4e
GS00332-DNA_D01.bam	34e4f4ccbf23e7b568e0084a80f1d4c3
GS00332-DNA_D02.bam	e28e78d8279d416284533bf3965b16f6
GS00332-DNA_D03.bam	d3d292fefafb36fcc28432ce745eedf8
GS00332-DNA_E01.bam	c65afc23b4eb880236fd345efa63049b
GS00332-DNA_E02.bam	3bc88dae2a2d261f095093c172b1a075
GS00332-DNA_F01.bam	bbdba87d38b76cdc14ee6ccf3914ac5d
GS00332-DNA_F02.bam	8e35e167ff33bc22db2b7d45a25afa48
GS00332-DNA_G01.bam	832f82d1ef64cd6c659819175c188fc7
GS00332-DNA_G02.bam	098e6b344d088a8814cb77e7de53985f
GS00332-DNA_H01.bam	0f2f8e4ad0842e5c31f0fc325d203eb0
GS00332-DNA_H02.bam	56e6961a00cdf5e59afc7773ded8e117
GS00360-DNA_D01.bam	fed61eb3607a922116665b06452e7ef7
GS00396-DNA_A01.bam	2dfcef603e2c43be3ab36ad88dd88c19
GS00396-DNA_A02.bam	0ca73730f61f5ee5cfbd7f56057c3a80
GS00396-DNA_A03.bam	9af5b40956a9debad6b05e548c06cde7
GS00396-DNA_B01.bam	2363801ba8160d8441f149f10a36a092
GS00396-DNA_B02.bam	07871f2a2368e077de244dafc66b1881
GS00396-DNA_B03.bam	ed0c3fb78b5932b591ea849c23fad219
GS00396-DNA_C01.bam	cd456ec7470a326dce7d6de8e7367c9e
GS00396-DNA_C02.bam	f494019a4a63f8953795704417e4b5b5
GS00396-DNA_C03.bam	caf1826df0313cfab8e82c94d83de8c9
GS00396-DNA_D01.bam	738b08b478298ef3891f45cf308290e4
GS00396-DNA_D02.bam	74011ca375bf447b6aa239c70ed889d0
GS00396-DNA_D03.bam	981e71a70654fd7ad490ed70cf981742
GS00396-DNA_E01.bam	3861202dd2d69ad73b0243e892861201
GS00396-DNA_E02.bam	c34b35cf33735a2792a3ea2ccf4ab5ba
GS00396-DNA_F01.bam	d9e49c4ffa13f29cc0fe5dd9c775ef17
GS00396-DNA_F02.bam	bc5410b17616ac74329edc406cdb6cd2
GS00396-DNA_G01.bam	167f1bd477d3056b3c9c34236e1a2320
GS00396-DNA_G02.bam	9c7f8ad1e105804724b7964cd674e7e4
GS00396-DNA_H01.bam	682c6c8fa0ffa436abf9fbd77ee660a6
GS00429-DNA_A02.bam	0c8739cdfa632e5a4af93fee55ddb170
GS00429-DNA_A03.bam	d7c03e8c692a019188c4b9285ab8803f
GS00429-DNA_B02.bam	47592f399c018ef6a94833f2eff78fa4
GS00429-DNA_B04.bam	cd1d1793fb337574ebe015c9d09ad311
GS00429-DNA_C02.bam	b03ccc6b797b055799d7eb5af1285d5a
GS00429-DNA_C03.bam	fa861f350ac839fc49fa117ae100a39e
GS00429-DNA_C04.bam	f975b0bda0ea81bedb142ab4672b78a3
GS00429-DNA_D02.bam	08345829eb1fab748a5dd96f2133a22f
GS00429-DNA_D03.bam	969399c935f1ee100e8c1047372f6f32
GS00429-DNA_E02.bam	54035b4790c280c4251e92fffb0b403b
GS00429-DNA_E03.bam	f659754e300c7ba1690c2289beb89dc9
GS00429-DNA_F02.bam	5c2d58578eadc1f49768203489886cbb
GS00429-DNA_F03.bam	2187e06612a9848e4fc64b63fee65bfa
GS00429-DNA_G01.bam	d746ece9f18d08acb364c53ae80a3c9a
GS00429-DNA_G02.bam	18cdd40f31c5e95f1d68ffb3f25a6133
GS00429-DNA_G03.bam	799ef2672fe30f1cf5aaadfd361131de
GS00429-DNA_H02.bam	989cd02df09bb5295510cd62164bf897
GS00429-DNA_H03.bam	6eeb5100a3fb17e17ad6c894602e497b
GS00463-DNA_A01.bam	9940b76abfa2bdd0829b0eadb13c874e
GS00463-DNA_B01.bam	3d42e216a627d979e4ce471cb9aca764
GS00463-DNA_D01.bam	e74e6a7df0f27ed0620f62c47d688aaf
GS00694-DNA_A01.bam	698d1a8bd93461cc65a7ff7f09176d90
GS00694-DNA_B01.bam	eccc6ddc860bd91d06e5b17c2de88fe6
GS00694-DNA_E01.bam	f2a0cbc343de127dced9fc986432d792
GS00694-DNA_F01.bam	1e96e7e1e99c747079a040b209fcd1e8
GS00698-DNA_A01.bam	e6986559f04c7407355aa6a45636c5a6
GS00822-DNA_A01.bam	be333bb58853ec80aa482b6db3cdfee9
GS00822-DNA_A04.bam	be8a28cb0a4efcef24e81b89a98ed840
GS00822-DNA_A05.bam	cfacadb47a5ab26084bddf1cf99403a2
GS00822-DNA_A06.bam	eb719421504e4304adcb23c5e9347afb
GS00822-DNA_A07.bam	63a774901e9db1dca9d5dae7dd5b666c
GS00822-DNA_A09.bam	6012031580d0d271f9ac2979bdc86a67
GS00822-DNA_A10.bam	5b51fffbff25ac4f3d9d58f7271f0d11
GS00822-DNA_A11.bam	9b0ab314d871e3a165c84553c77daf59
GS00822-DNA_B03.bam	4c83fe4f2b813ded402a6f60a5af0d8e
GS00822-DNA_B04.bam	37da91e71060d580a9a76c43e2b32c4b
GS00822-DNA_B06.bam	9d02f1a3f4a645702c05aa76be8cff3c
GS00822-DNA_B07.bam	408b12659e68a2b621436cb41cd9b4c1
GS00822-DNA_B08.bam	de4e78e905f72f1db2b1f893e6eabc2e
GS00822-DNA_B09.bam	d16dda050b36611b1d046193a8457b8e
GS00822-DNA_B10.bam	1176287a6cc6e6465abea80b5a0c5e9a
GS00822-DNA_C02.bam	a1ab3b49b0b701a7b505ecb8ad18e06d
GS00822-DNA_C03.bam	09c522590e1b7bc4c2af005f8abbf33a
GS00822-DNA_C04.bam	5b0ced091c642f0466303e351a8f75bc
GS00822-DNA_C07.bam	fe2cb6229aeff18a45e848f88456bc46
GS00822-DNA_C08.bam	5d10b7ad02d3567ecb57101c129212fb
GS00822-DNA_C09.bam	6c368c44d6701a67bdd37178bdc9361d
GS00822-DNA_C10.bam	534c8b4c8028e5982cf9a2a88181e6b5
GS00822-DNA_C11.bam	2137a63a2254b461a8c9593cc574d56f
GS00822-DNA_D01.bam	d236fbbf5e06b54cf6a89685d7f5bcac
GS00822-DNA_D02.bam	086f604d87e5be21b5ac1a92176b8b4d
GS00822-DNA_D04.bam	c6dd8dd1f480490690edfb395ff411c5
GS00822-DNA_D06.bam	c7c77d58d7a3cef4c0278ab44284bb3b
GS00822-DNA_D09.bam	ea4011fd3dd2799409e9776b3a739393
GS00822-DNA_D10.bam	0f0a695c72cebc3d964001c98284d3e5
GS00822-DNA_E01.bam	ce07d6ea7848f53a18b64599f4b1bed6
GS00822-DNA_E03.bam	cc3257d2d10b8a20d2ce6093a83650af
GS00822-DNA_E05.bam	ea2575a704acbd52fe32b718f1394324
GS00822-DNA_E06.bam	967c75278865493b7fcfb055aab78a6a
GS00822-DNA_E07.bam	1210bd28cf7795ab91e3ba0d56b6e444
GS00822-DNA_E08.bam	39899b8fc6955a56b9817ee88610c71f
GS00822-DNA_E09.bam	0b344cf40146b43942c02111dbcc19e8
GS00822-DNA_E10.bam	370e2e87b2715df7d7a527b4584f095d
GS00822-DNA_E11.bam	dd007d4aa813381a471f021e8c6ff1c1
GS00822-DNA_F01.bam	e004b3466ffb72af234c6ed4feabf0d6
GS00822-DNA_F04.bam	7781ba221c32e00da4357077f4def50e
GS00822-DNA_F06.bam	fb3a611edf6c02a132d227df4bdeeb0d
GS00822-DNA_F07.bam	83a3aa00b1b150a3bccc943a22bb166e
GS00822-DNA_F08.bam	713df1a2d274bd1d3ef735ed0e0e622e
GS00822-DNA_F09.bam	b83f1546cf0d082c05c73f50a3badd1d
GS00822-DNA_F10.bam	c4d877615f771385753420543e8e14ce
GS00822-DNA_F11.bam	440d83736cd7decb5dc78929fa733aeb
GS00822-DNA_G01.bam	6d8050bdbe152937e003958adaa54fbe
GS00822-DNA_G02.bam	44b079598ca23cd1dbe5afc9ed37d6d7
GS00822-DNA_G04.bam	df80b713632ab4da9186fca008ceb303
GS00822-DNA_G05.bam	ec55935f043dce75d7d1e292dec5a753
GS00822-DNA_G06.bam	5d73f90a91f890964632a6f4889efa8e
GS00822-DNA_G08.bam	f41204259190ea83ac922ba5b4655f06
GS00822-DNA_G09.bam	95205b8d232093b0ca914c58c1425c64
GS00822-DNA_G11.bam	03ec7853064e661edc69adc7613c80ee
GS00822-DNA_H01.bam	722f34feda6806cfa8dbd2637d1076f0
GS00822-DNA_H02.bam	a081d5a8c7fa28020f86902717ff23ba
GS00822-DNA_H04.bam	cf0f8e6ba188299a27c1a36d1326bcac
GS00822-DNA_H06.bam	1fbf4399a96ce6ff6285586c8ccc6e3a
GS00822-DNA_H09.bam	1bdd0759c75f9ebf81aec92b6708a778
GS00822-DNA_H10.bam	efedad9e208c75c38b326cf3903721c8
GS00823-DNA_A01.bam	d74f2c93482262442282763356f9beb1
GS00823-DNA_A02.bam	df3ef246b05501729a8aba1829d9933a
GS00823-DNA_A03.bam	9514e9955a73227611df0c0b1eb78bd5
GS00823-DNA_A05.bam	5b804dc81ee8f42e31852ef6b2767699
GS00823-DNA_A06.bam	cc3be6e5d16b9eeccf9555dca845fb91
GS00823-DNA_A07.bam	f587d4f46b806d39067ff8a075f1bda8
GS00823-DNA_A08.bam	d129e1cdf44a501ba18ffe99c17e237c
GS00823-DNA_A10.bam	0eeea969f2e4e60c16394aa03f2ef2a8
GS00823-DNA_A11.bam	5aeb7d3d67772a5becd5ef3473d41ea8
GS00823-DNA_B02.bam	9d473442e78dc30c75e392f9aec0ca86
GS00823-DNA_B03.bam	d55d642a8a5535b2293ee9d756a75a5f
GS00823-DNA_B04.bam	97d8431cd4550a9c936ea0b8c1a438d6
GS00823-DNA_B05.bam	96d90e68d99bcd3e51717a372689ac40
GS00823-DNA_B06.bam	f9b57a81485f3852e62ef0874f9995bc
GS00823-DNA_B07.bam	9a73dc3afed1168fdbe77859340e73be
GS00823-DNA_B08.bam	2cba3757eba248666715eb2c7b9351c6
GS00823-DNA_B10.bam	2d1d3f4f91404b4cf4845b4be8e6cfda
GS00823-DNA_B11.bam	7a54e33f4d46e193ff5fb0e812d39509
GS00823-DNA_C01.bam	b0410b7fc84a4b5d1d266dcd5224acb8
GS00823-DNA_C02.bam	7556f65c1105f9f7b6f44391b40aa818
GS00823-DNA_C03.bam	ea7ca72c325a924f5269d81b9df9a5ad
GS00823-DNA_C04.bam	33b3ce3ecceabbe400e60ac1277d3f9e
GS00823-DNA_C05.bam	c197c17a5900d134acfdd3f034a0657a
GS00823-DNA_C07.bam	1c877da145ada7a9e069ff08e722fc5c
GS00823-DNA_C08.bam	967abde2b81af6c31b847326d9200fb0
GS00823-DNA_C09.bam	624d366586a9630802fbcff7e17ec5c6
GS00823-DNA_C10.bam	ad99aa81cf031d7fbcc782e1868ac1f1
GS00823-DNA_D01.bam	55b63bebcc609c370be981b3e85d75c9
GS00823-DNA_D03.bam	b83255724841ba848c914760fe5bf437
GS00823-DNA_D05.bam	f961063c63c706ebba3abca2d2648606
GS00823-DNA_D10.bam	cedc4a73a236e648d1c177041df52168
GS00823-DNA_E03.bam	c78718127f6f143122390b93a6e95d52
GS00823-DNA_E04.bam	cec6173f25481e2463799e197a6b973e
GS00823-DNA_E05.bam	e1809f16960b36b4f7fd408175769869
GS00823-DNA_E08.bam	68261b3ec68f879fc8b91eb934702df5
GS00823-DNA_E09.bam	92970bdf2196466a0521006253f9d153
GS00823-DNA_E10.bam	83740d3f844d3b5b4ba3d37052a1b1ab
GS00823-DNA_E11.bam	b46fb7fab9aae99256dca8e615e06152
GS00823-DNA_F01.bam	cc92734abf1f8de2af99b7736103c3a3
GS00823-DNA_F03.bam	8652d31f180f5c6242f6623452aa8a84
GS00823-DNA_F04.bam	d2550e4d88773a656f302e0d71825a24
GS00823-DNA_F06.bam	48ab34ecd84f409ed7475881d6838025
GS00823-DNA_F08.bam	8779e2f50e1db1b2c2bf6a433503f30f
GS00823-DNA_F09.bam	13e2fc5c4743ea8383cb17d18c16a8a4
GS00823-DNA_F10.bam	7892abb74b721c7fc1ca2a21f863d753
GS00823-DNA_F11.bam	d9b9d81b117dd5f12a3375e8c2e431a6
GS00823-DNA_G01.bam	c2360e64db6a3d6d845b57c9867e5033
GS00823-DNA_G05.bam	4fe406c5a00d49923fbcba144300df6e
GS00823-DNA_G06.bam	b9d7ac6eaca4ca9549d4a21ec18e4f90
GS00823-DNA_G07.bam	193f34619838bb7d1d7b80d4a53d963a
GS00823-DNA_G08.bam	5c159419b351181556a05ca260ad82b8
GS00823-DNA_G09.bam	309c345bd24708c50f440bf9cda32e12
GS00823-DNA_G10.bam	0ec9dbd0f7ebc4599ebbf2617184dd78
GS00823-DNA_H01.bam	10280f63af58e6ea509c3589901f8879
GS00823-DNA_H02.bam	10f2e6cf0129d45e3a72fe6d6b9b6083
GS00823-DNA_H03.bam	50bc4ef10a4ea4aae083a393a2f20b37
GS00823-DNA_H04.bam	211c55afda55175cd0d7582810aaab17
GS00823-DNA_H05.bam	831cabd75a323731b365ed6b02ac01a0
GS00823-DNA_H06.bam	f8ca169a540f6cf87963e422340eb667
GS00823-DNA_H09.bam	cf828e02bab2b008f8e76b1fae221423
GS00823-DNA_H11.bam	a46898bfe0b4b0d3c5a388d8bac84d59
GS00824-DNA_A01.bam	3ada7a9fc821614f03d1fcfdecf5038b
GS00824-DNA_A03.bam	32783165456a38e70fe0ec80d6f84f01
GS00824-DNA_A04.bam	0216e693e5a52a565fbb5e4606ef0090
GS00824-DNA_A07.bam	ef8c23c314554cae8803b632acfcdee9
GS00824-DNA_A09.bam	81d35823cbea15cc8fa6e8dcfb2017ec
GS00824-DNA_A10.bam	407f212d6652f5bcfe505bce6f3711aa
GS00824-DNA_B02.bam	34cfc75dc718a64a3271e3797926e32a
GS00824-DNA_B03.bam	3617b4a8344880becbe441ce3f828e37
GS00824-DNA_B05.bam	657e0f326bc7db2a43650f6fc6968956
GS00824-DNA_B06.bam	44098ce978347afd3b605c703b9585b9
GS00824-DNA_B07.bam	6866ec3260c70028c0d5e0adb353fad9
GS00824-DNA_B08.bam	f4333e10a35a6f3ea7da0a5446c2e6a1
GS00824-DNA_B10.bam	838c17a212c0952b55a9169b0b3dd2f2
GS00824-DNA_C01.bam	967586a167f67a10b431b20ac516d818
GS00824-DNA_C02.bam	976211e2dc66eeb9c223ddb67eb49c75
GS00824-DNA_C03.bam	2d92e539f331fe0529613fde76b04ebc
GS00824-DNA_C06.bam	e50a216958dd6cc9db9d41c0777475a4
GS00824-DNA_C07.bam	581cc93aa72bec4d8060c982f2b0dee2
GS00824-DNA_C08.bam	8de18d8ee5708b2b066311ad8cf785ef
GS00824-DNA_C09.bam	ab23996999eec8afcf7d4a6c46426969
GS00824-DNA_C10.bam	ab9d71db5355175326a3f83d7b1a309b
GS00824-DNA_C11.bam	99e6adcd8885985046cd58abef8e8725
GS00824-DNA_D02.bam	41ddf7f78459fb5b39e52a4f033e215c
GS00824-DNA_D04.bam	37f182ca1633963e4c2f55752c05ac58
GS00824-DNA_D06.bam	5e032fb3c1d9d540b606c7754e9478b9
GS00824-DNA_D09.bam	8dce65de8d733c0056f9be88a073cda3
GS00824-DNA_E03.bam	9df015ae2659fd4cd5c6a76592d4f497
GS00824-DNA_E06.bam	4e320ee6995983428b4d6561d38e87a0
GS00824-DNA_E07.bam	da41575c15e3e56a469d490f450b8907
GS00824-DNA_E10.bam	5448212e55fee5c838c776bfdb29b8bb
GS00824-DNA_E11.bam	81506149a1d00a79291dec49e997748c
GS00824-DNA_F03.bam	3cf9505ca3c538c3dd9803c9f78a74b9
GS00824-DNA_F04.bam	bb133d367b5ded6b5b15fdbfcf192f3e
GS00824-DNA_F05.bam	59ddf5d703a6e1603c77415e6b8db1a0
GS00824-DNA_F08.bam	c248eaf5dd24a572ba79a2d351ea9ed1
GS00824-DNA_F09.bam	d1ff5e23e2269de59bf8483000087e30
GS00824-DNA_G01.bam	517877cc183c6dbabd85864c11c0a395
GS00824-DNA_G03.bam	38996337bb96f25e8976333a51a954d9
GS00824-DNA_G04.bam	3c40f3433f79ab8caec8af0503f4a549
GS00824-DNA_G05.bam	937de6c3736b9c90f5d7ca5a11a48322
GS00824-DNA_G06.bam	248caa2ad4bf83f654e3ddba9196150d
GS00824-DNA_G08.bam	59bcbe3e8d491b9d4e1df55552fd2309
GS00824-DNA_G09.bam	746268fcf1a8a855d88f9ddecacd24d2
GS00824-DNA_G11.bam	26b5641fa014f08cc26d79d5d6af82d9
GS00824-DNA_H02.bam	2679db2d4fa044421ffed098f9de109a
GS00824-DNA_H03.bam	a18ba7376f7ea9efdeb59939e9f63a56
GS00824-DNA_H04.bam	70a6d85d70f86f3f1fef73402f4fbdee
GS00824-DNA_H05.bam	99448dbd3fb920b383251fc1e091926c
GS00824-DNA_H08.bam	c02835fcba661228bbbe700d961dd1ee
GS00824-DNA_H09.bam	c5ff2aa6db1c9a2aa2a85c883c054b9d
GS00826-DNA_A01.bam	503c738118b004b91b83bf41e782971c
GS00826-DNA_A02.bam	fd19638a276928f37c3421e102afcf80
GS00826-DNA_A03.bam	57fd49e51b4f3fc731235e5eca2b165c
GS00826-DNA_A04.bam	cc4ee36d8b9052f3479667bde10b87b5
GS00826-DNA_A05.bam	330cbc1dd25cb48d9d4e0263aaab57a1
GS00826-DNA_A06.bam	3bc28df6e03ce051943708acfffeae44
GS00826-DNA_A07.bam	82f18e72e9cb001673b21e80bca5107c
GS00826-DNA_A08.bam	7cf2083d53e04e6a037c6057a5da182f
GS00826-DNA_A09.bam	5020d357ec0dc6f2f30f7fdc149c7ea8
GS00826-DNA_B01.bam	140350a945fdb72acbcb6733acd36691
GS00826-DNA_B03.bam	d15e26bb656c97dff304a151e1e342b5
GS00826-DNA_B04.bam	407ab247ea5606413b528f7e4cc90764
GS00826-DNA_B05.bam	f4da4dadbb7b89623c88545e81a12040
GS00826-DNA_B06.bam	948a4a637dd9df37f5b9f1765c0d51ff
GS00826-DNA_B08.bam	a830bd9a3c7ef1528f4abc75eeeb021d
GS00826-DNA_B09.bam	49584ca4a8d61771e536424e48b7bee6
GS00826-DNA_B10.bam	02172bc8a2eed4ca4b65252605247c34
GS00826-DNA_B11.bam	3560c7aee8b5c273604e232e64057fcd
GS00826-DNA_C03.bam	1a8ce88179053b09b8080d3bcbc5151b
GS00826-DNA_C04.bam	86e9e8a2c4a5f04f714b74ea46130da7
GS00826-DNA_C05.bam	2f106969d4378afd788e7dc1dd12936e
GS00826-DNA_C09.bam	40b5843013cf2757a578dbc20651ebfb
GS00826-DNA_D01.bam	f9589ceff2adc9e0424007027b4376e2
GS00826-DNA_D02.bam	941f506d8eae703ef32fe78bc23af2ff
GS00826-DNA_D03.bam	e0e9fc2585905eee60aab3c593323e2e
GS00826-DNA_D04.bam	7a1c241cd8be368e1a34432f80fda0ac
GS00826-DNA_D06.bam	1444376fc97361e8ad804933e09ab247
GS00826-DNA_D08.bam	d767f0bfee28f10d931dcd9d7d7ccad6
GS00826-DNA_D09.bam	1b92eec98a1368ac43b0b1f893af5fb3
GS00826-DNA_D10.bam	142cd7da65f8cbd89817e018a6cc5e7b
GS00826-DNA_D11.bam	c48a94d2a9ca1ac77d9614c828208d84
GS00826-DNA_E01.bam	7034efac353d35327770ec3e36b7dac9
GS00826-DNA_E03.bam	f045d9d3919c76f80eb3df7ad17b1b9c
GS00826-DNA_E04.bam	a33fbe069ae16f15b1f12470abb21e2b
GS00826-DNA_E08.bam	8f5da58a553b53a237582b70643be9db
GS00826-DNA_E09.bam	f437b2b1b136d31b6ae3f76e562e1557
GS00826-DNA_E10.bam	e39d43d9f35319d0d883aa8f2f4321bd
GS00826-DNA_F01.bam	f79091211b41d8d6510f212a88ed48bd
GS00826-DNA_F02.bam	dff1f0ac3dcb9816d49f6d846351c317
GS00826-DNA_F03.bam	45f0b7e7ed174075a1c2a97646ecffe7
GS00826-DNA_F04.bam	b27de269f26b20086b18d034bb187d91
GS00826-DNA_F08.bam	2bbe369d33b9e0b115cf3ebcee1268d2
GS00826-DNA_F09.bam	6b3964e5886b847646fa462001554a48
GS00826-DNA_F10.bam	f36be680100222b366e54a0e015fe8bb
GS00826-DNA_F11.bam	d904e40e2975d9e2e3f45ebedd977b1d
GS00826-DNA_G03.bam	deb148f4431cb4dbed2d554a6b95df0d
GS00826-DNA_G04.bam	d4270bc0c9461af70cc4e39ad529ba16
GS00826-DNA_G06.bam	cac70956780e7417f556f0e3f3501ae4
GS00826-DNA_G07.bam	21f08ab7eef79ee0c8cee4900c25ab29
GS00826-DNA_G09.bam	b95110461434210247a8f8f85fa6859c
GS00826-DNA_G10.bam	04dcaa626b19b1b090963b82d4c09fdc
GS00826-DNA_H01.bam	a5c2d3abf0ac9452bc693c1743e488e6
GS00826-DNA_H02.bam	4686beee418e3e8806a830d6b0da2b54
GS00826-DNA_H03.bam	643c5473b6ddd297b150513683acd8f6
GS00826-DNA_H05.bam	cc03adfbea75363a0d702df5eea2284e
GS00826-DNA_H06.bam	136b409869468b5e780db762c7676765
GS00826-DNA_H07.bam	da79f18a724f13c857743e88e05334d9
GS00826-DNA_H09.bam	2b1cef4aa0a22369e94a4c15ab71468d
GS00826-DNA_H10.bam	b0eb5d4ce9649fa06a84130e23928dd7
GS00827-DNA_A02.bam	890a83803447c44f36f571a31dd6bc1c
GS00827-DNA_A06.bam	49ec41a8013dd3f59eaf6fe4fe7a3e0d
GS00827-DNA_B06.bam	d1913196c3c392eea3a9df7905f29393
GS00827-DNA_C02.bam	f12fead52970a3586f35c6b232e4d66c
GS00827-DNA_C06.bam	1f336c0204afbffaacfd660b774b7164
GS00827-DNA_C07.bam	4a1f755d514b50288fd2bd3eb3489ed5
GS00827-DNA_D06.bam	0828d348f65c15984b4ad5d726590c2d
GS00827-DNA_E03.bam	362a75c70d678bd7dc6d100353b61d52
GS00827-DNA_F06.bam	120d816841c2d24b76d81df560bfb978
GS00827-DNA_G01.bam	1e12c616344981d5a804b7aa8812469d
GS00827-DNA_G02.bam	8fb7a1f639936402952340b1de3258cf
GS00827-DNA_H01.bam	18af253d1724c575ece9c246abcc853d
GS00827-DNA_H02.bam	92a65d0ac908f89a525cecd65c55803c
GS00827-DNA_H05.bam	41a1b7a49944f68864aea7bcec89740a
GS00827-DNA_H07.bam	a376d10fd85f27af4fd66307bdee4fd3
GS00828-DNA_A01.bam	80ac392e039c2454e89e673e7b2b5387
GS00828-DNA_A04.bam	da0b2c029ef75ffa584a5cf1ea623dae
GS00828-DNA_A05.bam	91fdefae4a75db8eaf539f0c7c504721
GS00828-DNA_A06.bam	55270d70d96dcd2426c4541412bc5ebb
GS00828-DNA_A07.bam	a1a101fe7383f43d29dd70d75cc3ba70
GS00828-DNA_A08.bam	6a35cb9bf290ebcf3384044e390c954c
GS00828-DNA_B02.bam	842cf1bd824d976b4ff85ef4f95b1148
GS00828-DNA_B03.bam	9ce5a69f3141f52b0a0d9d214fa2ba7b
GS00828-DNA_B04.bam	9bca96741009078a11d17e93225484a1
GS00828-DNA_B05.bam	4435fc0273da3d991b8ea83d9d7d1815
GS00828-DNA_B06.bam	1ebdd8d9881686d62280deb79c501444
GS00828-DNA_B07.bam	9f31970d7c5cbfb24e24f6d5658f1f90
GS00828-DNA_B08.bam	83bd53d10b5648c6ef0417343ed1d088
GS00828-DNA_B09.bam	3f5fd567c2937a427fc2f7f6325f3a32
GS00828-DNA_C01.bam	7d1f2b0e8abd4c279beadfe8a13d802c
GS00828-DNA_C02.bam	4dded2bace8b62f01d65affc600bbf64
GS00828-DNA_C03.bam	a02a6484e5df56e22abaa856f37079ff
GS00828-DNA_C05.bam	1db77a78fb813ecfbb58f9b689bddde2
GS00828-DNA_C06.bam	643b095e7d67932f660e6b2b216ffdce
GS00828-DNA_D01.bam	bbc1396f56ff5e4aa344aba88d871261
GS00828-DNA_D02.bam	a7fa0537300f24c5d559354d91590d90
GS00828-DNA_D03.bam	fb09848393610b68a68886ff98cfa283
GS00828-DNA_D04.bam	9741c0c2456bb425fe4f2652e86c7804
GS00828-DNA_D06.bam	65acbf9f0244512a0a52b1485e402dd0
GS00828-DNA_D07.bam	87e5dc25ea1d57b178adba00df758218
GS00828-DNA_D09.bam	293c1d5974c51cab327a65e3684a4ce7
GS00828-DNA_E02.bam	d3eff755ff2819671abac7679e973c85
GS00828-DNA_E03.bam	e8fdea46f59407549619cc7020fbc6f4
GS00828-DNA_E05.bam	8b175d86d24b91a92ebba29d3c057204
GS00828-DNA_E07.bam	0dd8e65f147815a5db7459815f98accf
GS00828-DNA_E08.bam	6891e764c0adb7edae3b4535bfb382d5
GS00828-DNA_E09.bam	1a9fe54a9671661645fa064d7fa946b7
GS00828-DNA_F01.bam	a1cd411f73f9087a63215e79d16dec8a
GS00828-DNA_F02.bam	39c21ff4323a7ef3e01d3a8e50bd8c72
GS00828-DNA_F03.bam	b3ba62ebb3fa5ccf2afe115bd4d89487
GS00828-DNA_F04.bam	a270027ce4132afd4c85c04f6c932255
GS00828-DNA_F06.bam	69e7c4b3109f404f96d310403d10eb7b
GS00828-DNA_F07.bam	e35f3b6176d9db6a86dc5b78558968f1
GS00828-DNA_F08.bam	9baa50d5f93df353283a66a69f1c0c05
GS00828-DNA_F09.bam	89747164ea5ced5ac07b05c6ea7fba93
GS00828-DNA_G02.bam	0608f8cfe608a18cb79290a4db95590e
GS00828-DNA_G03.bam	4417b9758afa44f9107ace70dd5a366d
GS00828-DNA_G04.bam	c613c2b2460b4004dee8702a9361c4de
GS00828-DNA_G05.bam	629f41278269e47bf69bdf1ef0063810
GS00828-DNA_G06.bam	57987695c5dec6ac731bdab85191cd33
GS00828-DNA_G07.bam	f97feef3977ba2e1e321f65d18362c49
GS00828-DNA_G08.bam	f9afeded435941662d24ca3d3108df1b
GS00828-DNA_G09.bam	22eda4a5b376ae4844483c643f192118
GS00828-DNA_H01.bam	df5f9b183b1d82ea4035e527e0e9a68d
GS00828-DNA_H02.bam	2e0bd8b62d83fe0027329b2f4faec24b
GS00828-DNA_H03.bam	e7156c682d33a16a62cbdee91f630264
GS00828-DNA_H04.bam	c6ae63322f532e1baaa91e198e38ae18
GS00828-DNA_H05.bam	69a4766d7eea504dddc79c09591acbc9
GS00828-DNA_H06.bam	86820e5987c044e758c42e3534e3e2e3
GS00828-DNA_H07.bam	b11d25e278baf3617ee0251705f6483b
GS00828-DNA_H08.bam	2317c775e7ce571955841b25f9c72ab1
GS00829-DNA_A01.bam	d0088c4f2f8373c5dcd7da19e770eb35
GS00829-DNA_A04.bam	1cc86efbb8ed7e3098be2d4a22cd4123
GS00829-DNA_A05.bam	f01f07460580f081ce5bf42ad222bc43
GS00829-DNA_A06.bam	017d346eeb8d307669ed18e109fa6b68
GS00829-DNA_A07.bam	6ea8bed63f7d276b01a706205de0eb37
GS00829-DNA_A10.bam	1d6c5a28c221047358caa8fc3d9a6132
GS00829-DNA_A11.bam	eb36668b4b41289549c2523ff688f014
GS00829-DNA_B01.bam	c5336b9cc6aff4abca51eea719aee47e
GS00829-DNA_B04.bam	abb4a842d606e13a908bd193af719b9e
GS00829-DNA_B05.bam	1061739e181888aa5700d7c2572c004b
GS00829-DNA_B06.bam	a3391ec5e50304cad9159fc931039fb2
GS00829-DNA_B07.bam	46eaa6e24d9f71f13e5b3d4409f5a52a
GS00829-DNA_C01.bam	2c6ee7011123d10a0a431d024a8d385e
GS00829-DNA_C03.bam	1211117688aec250a0bc103d2acc947a
GS00829-DNA_C04.bam	8695d51e1a60bf01cf5c4e91eb1296ec
GS00829-DNA_C05.bam	ee91d7f56601f012ee4dda81d9804921
GS00829-DNA_C06.bam	ebbc35dd130dbf8e5404e25bbba2209d
GS00829-DNA_D03.bam	bcd86cd28f946774b724d5668e36542c
GS00829-DNA_D05.bam	486b8540f84a3f1351aaaf763e31b078
GS00829-DNA_D06.bam	1966825b87bbe1ea6c8c570cbf2ebe7c
GS00829-DNA_D07.bam	d8cff68696cd687f502f89138df49330
GS00829-DNA_D08.bam	02307007cb5b800946457970fabedad6
GS00829-DNA_E02.bam	92be012dc5dd9838977c101d095e0ccd
GS00829-DNA_E07.bam	021af0a2b73a891d727bd4ffebeb5692
GS00829-DNA_F04.bam	96d2e9f121fff6b863a25e8cee8c40ab
GS00829-DNA_F05.bam	4c3b05a309367fa1434ef59a587d06ca
GS00829-DNA_F06.bam	306345b9d3003ab93283e1cee178ab64
GS00829-DNA_F09.bam	c5ce0ce78c004bd95ffa6bf3819c76e8
GS00829-DNA_G01.bam	5181bd262ee206858ff20ae2021b89c1
GS00829-DNA_G02.bam	981881ca6108009fd63876c2d0408b10
GS00829-DNA_G04.bam	96e7f1e905edc44b2c9cc274fdfe176e
GS00829-DNA_G05.bam	4a4e8f49677464c3636a4460707248f2
GS00829-DNA_G06.bam	7ba8b9a57e71bafef393c6ef04603fa8
GS00829-DNA_G09.bam	09005e810e667980f5675c1c499130d4
GS00829-DNA_H01.bam	e3a91b3cfd07136337f813b77cd386c5
GS00829-DNA_H04.bam	20a82a96587b20132cf1138bfaff26a2
GS00829-DNA_H05.bam	fd204d0020d0d8c443831c07e6c44e8d
GS00829-DNA_H06.bam	a09b9e777391bbf6ed70869984c5b1eb
GS00829-DNA_H08.bam	b068bbc2d99e05eb7bc81364463fabea
GS00829-DNA_H10.bam	5f9893d8aaf4143bb315266d85122d8e
GS00830-DNA_A02.bam	9377e3da07f16f76a7614aceaaccc6a2
GS00830-DNA_A04.bam	75b4ab89ddad0c4f482c92edbeb188b9
GS00830-DNA_A06.bam	772f9b70523228929992bc0259a99c2a
GS00830-DNA_A07.bam	7233b84e7f7d3ac267452319d872fedc
GS00830-DNA_A08.bam	ad1eb97e44da33b3534cccc623af4c1a
GS00830-DNA_A09.bam	33119b736cb73d19fda5eb5c27b14f09
GS00830-DNA_A10.bam	a572ce3a0daa9a63fcb192cd1feb4c96
GS00830-DNA_A11.bam	11eaf5b31dee2de81652b735a7875eab
GS00830-DNA_B01.bam	c3c9921ee7c8891478e13406d3ab5a6e
GS00830-DNA_B02.bam	c60621876701a047bd6e0f5d4b283b90
GS00830-DNA_B03.bam	4d215a15b30c962e2374863cdb214e3e
GS00830-DNA_B04.bam	76dc407c91bfcdb6b4183cb0f4e95b12
GS00830-DNA_B07.bam	043e4834c99b32a05473073ba8768698
GS00830-DNA_B08.bam	c0526324d2ed43744887a994c3445881
GS00830-DNA_B09.bam	eeeb24e2d576d09961b16672a1f61961
GS00830-DNA_B10.bam	94e364db809fd918e5901a829fa3e7ba
GS00830-DNA_C01.bam	859880b91423a7ccd481f48815ba99de
GS00830-DNA_C02.bam	04b29cb1fa33654373b6294533a5e31b
GS00830-DNA_C03.bam	5b99cd20ba185b56bef66b0971cf636b
GS00830-DNA_C04.bam	f6d5452d3c640f97c7c090807b931dfc
GS00830-DNA_C05.bam	167e1c5f9d3a5d7562730fb7ce8c0dc2
GS00830-DNA_C06.bam	4209b6044a3039f17e59a4468a35ca4f
GS00830-DNA_C07.bam	fb1d5f6a72349c43d0a1e642c8f1d577
GS00830-DNA_C08.bam	d9e93c1c85e6684fbcf2b172ba658258
GS00830-DNA_C09.bam	868f2026d19751f4e8e37f76226f330e
GS00830-DNA_D01.bam	5041b0cccf26fef12dce1fce20406dba
GS00830-DNA_D02.bam	b7c966a18cf175b9f0dff2fb53491891
GS00830-DNA_D03.bam	a1828c5aea2ba9b3d9588fc7ed63eb38
GS00830-DNA_D04.bam	8d94723e96547f83aa04db5fa0dc245e
GS00830-DNA_D06.bam	203003fc791d3a0b98b4c6966ac632a1
GS00830-DNA_D07.bam	7c76fb67029cd1e22363fd679fa44a59
GS00830-DNA_D08.bam	e612d909c68a5dd99999fd341fbf7287
GS00830-DNA_D09.bam	fd9109a6a2da42b792f06119f52630f9
GS00830-DNA_D10.bam	83d6a5c277b7d371f5bffd511ad8bd53
GS00830-DNA_E01.bam	596479d0a2968d699ec71970cf0ed9ae
GS00830-DNA_E02.bam	7b2442f48091fafa7a2bc6eb5afe0f86
GS00830-DNA_E03.bam	3b96c5ea6241afb00072437867d6deba
GS00830-DNA_E05.bam	ff212fb7e74ff8f47477a1b63867a552
GS00830-DNA_E07.bam	9e1c03ea2d06d49431761527829d5ab8
GS00830-DNA_E08.bam	1f7ecbee9bbb71061f5e9d716f9308d2
GS00830-DNA_F01.bam	a69c19e64e78a1acb5663c3c2af89cfa
GS00830-DNA_F02.bam	525a2692ad8de74b03bbcc21d508cee3
GS00830-DNA_F03.bam	5fccbe50a2dc1224a29e98f03a7ec167
GS00830-DNA_F04.bam	c7e6fb683cb9fa1f6754c61ebb744403
GS00830-DNA_F05.bam	2e2ce0e1259296e7030ed5771a21aaf2
GS00830-DNA_F06.bam	4831f308b46446f181151002d2e4428b
GS00830-DNA_F07.bam	b0200154eb033306e9d464c65046ca56
GS00830-DNA_F08.bam	c0b7aed624b9f5e0a8132f33ae95f132
GS00830-DNA_F09.bam	125fe66bb270e5d2fb0f0bab94960da7
GS00830-DNA_F10.bam	70cded8e9aae4e225a91d3fa810a27a1
GS00830-DNA_G02.bam	0fe02ee6ca9dc701c6fb6d2474909dba
GS00830-DNA_G03.bam	cc1755b3b7ef2fc7bb1cd5104eca7710
GS00830-DNA_G04.bam	f67036bc2f8ee2215f58638258170fb2
GS00830-DNA_G05.bam	aa19fa7fc44e3be3ec51d1423e7305af
GS00830-DNA_G06.bam	76c86193d346ba0c3c6db844b9fc49b6
GS00830-DNA_H01.bam	b76534b815895c7baede14fa7bf32daa
GS00830-DNA_H02.bam	b5d2b2e4c2bce48b90f9e4ee097993c7
GS00830-DNA_H03.bam	c0e63397fd1d75ba540e08e830e1bcca
GS00830-DNA_H04.bam	d987687af76a5d651bc5e96d953392a7
GS00830-DNA_H05.bam	3ed40308fae8f14b8ba8a932ade9bd26
GS00830-DNA_H06.bam	53eef39533ae8f35eee37a8e394956e8
GS00830-DNA_H07.bam	465c80d64e59ab47b49a26cb6f3c16e4
GS00830-DNA_H10.bam	ff81207d33c375f258c390db7c634c60
GS00831-DNA_B01.bam	7368b1006f148a960e0326335948f429
GS00831-DNA_C01.bam	59981d1b934ee707c36d7685d00f235e
GS00831-DNA_D01.bam	a8a36a8b982eea71f2bd5ac0b12a6244
GS01673-DNA_A02.bam	f14bc4e4c070133b8bdebb05d6fac292
GS01673-DNA_A03.bam	42e581e9a3220f6ef738f854436203a1
GS01673-DNA_A06.bam	43f8e40d5d44348ac137d5959f0a7cb5
GS01673-DNA_A08.bam	8afcfd33fef27e9066fb16152814a20a
GS01673-DNA_A09.bam	dd89d5afcd53f6d658eee16dafb2573f
GS01673-DNA_A10.bam	f8acf6c1aed99a52ffac4c90cca52bb5
GS01673-DNA_B07.bam	ab880731456aba89bfacfcfc1b55f657
GS01673-DNA_B08.bam	a23e71a58b4a59519925161e947b8121
GS01673-DNA_B09.bam	8685aba113e86599fa81652b9022c8cf
GS01673-DNA_B10.bam	5b2d3e2f16aeef3e1fa956d2fec2588a
GS01673-DNA_B11.bam	18aa15f733df80e8effaea498563a53a
GS01673-DNA_C01.bam	c4b93202c9604611ad6d7b1f8dc28cad
GS01673-DNA_C02.bam	bd638bb6dc49fa066151ea885d16e51c
GS01673-DNA_C07.bam	efd21e344057d72d80b8207f8796a5a7
GS01673-DNA_C08.bam	90c33e375d5933c853a5493ad3f5abae
GS01673-DNA_C09.bam	c45bdffcd74da6ac72874f28ce064a1a
GS01673-DNA_C10.bam	0d304684b0e6c0b17d06513a873bc9b3
GS01673-DNA_D02.bam	f01dead4937c6cf6d1781cd4e37a36ac
GS01673-DNA_D05.bam	e3fe5b1f2e7e6b76f97a69822ea139ed
GS01673-DNA_D07.bam	8654be5476aebf569534248e7a25d2e1
GS01673-DNA_D08.bam	ec689543851efbb3853f3574c05a4684
GS01673-DNA_D09.bam	ffdb0ca61f608f34c2dd7a7fa49b9816
GS01673-DNA_E04.bam	ca0f17b96608093284ad2f717bb65733
GS01673-DNA_E05.bam	6cac87229624eb9803f551abbeff4843
GS01673-DNA_E07.bam	802c887c7c6aa8d01c1b1e2cf21b294c
GS01673-DNA_E09.bam	2351910e87b688816b0f823f4296b3db
GS01673-DNA_F03.bam	b78f2101668a550fd339122ab6d7884d
GS01673-DNA_F05.bam	b261f999c4fab84a25c4ba6dac6171fe
GS01673-DNA_F07.bam	6613e1a06a449379982d9e5e9ed0b559
GS01673-DNA_F08.bam	0604c6510d8840d1f3be33377a78f10a
GS01673-DNA_F09.bam	6a14b99e646b25a2f70d13257edae624
GS01673-DNA_F10.bam	881eb0da2ae0c3b1f84830703e6dc68f
GS01673-DNA_F11.bam	1423591fe15087ce7f97743fa07e36e0
GS01673-DNA_G03.bam	bdbe61862f7e85832d61f8cad0ba2296
GS01673-DNA_G04.bam	2ed0df95086522d33c7897f8d1599207
GS01673-DNA_G05.bam	9a2a75adb03f079063a31494d93ae501
GS01673-DNA_G08.bam	e5f31d4e5c197ab62ea6ce279f7d0e95
GS01673-DNA_G10.bam	8bd9ef2cdb482b3dd5309797bb951820
GS01673-DNA_H01.bam	ae5e5e7d0a1f7816063652350e705f07
GS01673-DNA_H03.bam	d071265e7e1ccd4a84f18b67667effa3
GS01673-DNA_H08.bam	d6bc170eff7e8fcd84a8328e467d073d
GS01673-DNA_H09.bam	f06b373816871f231bbacddb0026a2c9
GS01674-DNA_A01.bam	fd54d528ffeb2bc74a732af027c623cc
GS01674-DNA_A04.bam	361f56096187666784c886eee9ccaeb6
GS01674-DNA_A05.bam	b0e1ae8dce2a93f6b717870ec4777072
GS01674-DNA_A06.bam	ee6ac86423b73b0841cd7c64c18917bd
GS01674-DNA_A08.bam	366fc593f6e953d57a5939a238b64d4d
GS01674-DNA_A09.bam	44ed00e425a556193ac76d95cd6dcaa5
GS01674-DNA_A10.bam	c9f8e968ffc9bcf0a7ab1b032113c73c
GS01674-DNA_B01.bam	46e4b0570a4eccf7f3c70ffb979b93b3
GS01674-DNA_B02.bam	a7436db91460bfda7e146efb6bd4cc64
GS01674-DNA_B04.bam	32ea97f7037f9951c060a9da7032bb63
GS01674-DNA_B07.bam	2dd9b005948010489f31b80e79c6d9f2
GS01674-DNA_B08.bam	2380216ae415fb3f35c0eec0e45f4884
GS01674-DNA_B11.bam	5d3b340cc443d0c003989c9d53d37630
GS01674-DNA_C01.bam	abdac1568e05c04627ba00db8bb08e24
GS01674-DNA_C02.bam	b0abcc46528ad8e6413727f6c5898cd1
GS01674-DNA_C04.bam	fbc200e4d5e5ec711ee1e630d4025647
GS01674-DNA_C05.bam	fc3205e9dc99a6e5a323974423d07601
GS01674-DNA_C06.bam	dc6298ba552a7bad9a6995b99bc3a4ea
GS01674-DNA_C07.bam	691f445b23fef0b238797f3c5408c807
GS01674-DNA_C08.bam	12ffefc99b6fe6d98116abef7457ecd9
GS01674-DNA_C09.bam	4ec566568f9ba216d934daae538c1e69
GS01674-DNA_C11.bam	57db73ff8a3ea1ef551f5fb527154277
GS01674-DNA_D01.bam	9fde7f7d766f38add940a63b49afc042
GS01674-DNA_D03.bam	4b92017fbf26ea43bd5b2e6c1f18cb8d
GS01674-DNA_D05.bam	3ebbe01e9f44553f5e2b5296e6db2c12
GS01674-DNA_D08.bam	25fb8186774800c97c815e8e1d42e101
GS01674-DNA_D10.bam	4150f92e6af596836188cca4156a9b8c
GS01674-DNA_D11.bam	2bb369e598a06756fda6f93df79e0309
GS01674-DNA_E01.bam	66d001f31f4e4c6b639a8d3bbb9301c8
GS01674-DNA_E02.bam	f13a8af492f43f8d6978a61afff34625
GS01674-DNA_E07.bam	c4b29eff022e0b876825025ed8f4ce6e
GS01674-DNA_E08.bam	bd6c84e58facf8859053433820ea0dae
GS01674-DNA_E10.bam	70bc6de6df389e3b529073d75daa2b73
GS01674-DNA_E11.bam	85e39d09ee6b6d1ddcd7f889b4ec1564
GS01674-DNA_F01.bam	6b13d3afc2e015a4f70cd45d71bca7c1
GS01674-DNA_F02.bam	2f1c743a43abb16cfbbe760fc21c0d48
GS01674-DNA_F04.bam	1cee96e80e733aa9d3dc7736ab098c26
GS01674-DNA_F05.bam	4f4517e32fac3cb1e704b49a0b90beab
GS01674-DNA_F06.bam	2db10acf25274af0b3b0930c78ece959
GS01674-DNA_F08.bam	ba4f68c7a485157ce224c35ab3ac6224
GS01674-DNA_F09.bam	e2238988af5256145466167e3d600f1f
GS01674-DNA_F10.bam	9d5379d2fad790375807831a701fa144
GS01674-DNA_F11.bam	b685804814c1f25a3cf7e55ad25b4708
GS01674-DNA_G02.bam	69fd9725cc0c0e96509f6f766db3fbfb
GS01674-DNA_G05.bam	daf07b4ad910491fd094bcf45b5168ff
GS01674-DNA_G06.bam	548abc38d2071a84971bdf7c7d6b9c3b
GS01674-DNA_G07.bam	5e0314f67acbe76a18251cc746d079fc
GS01674-DNA_G08.bam	18ee121f5c045b6168f4d329962c1996
GS01674-DNA_G09.bam	a69ff83589adbcced2061dc3a86ff4d8
GS01674-DNA_G11.bam	57ce4716a65b6e4ce7cc32f2537a43d1
GS01674-DNA_H06.bam	ba0d18df9a289c400ad7d1cf01e31f7f
GS01674-DNA_H07.bam	1c13adc3b3c15a3f109f468c0e49ccfc
GS01674-DNA_H08.bam	55376ca4042edabd7e32dda89cc1a09f
GS01674-DNA_H09.bam	ff54f5ed2416f3238f5939310f45fbb7
GS01674-DNA_H10.bam	d5d820db1ec8ec6f5c1e36bcf85c91a3
GS01676-DNA_A02.bam	da5a14113859ab1d1189195d5339d7b4
GS01676-DNA_A03.bam	0974a8265f73d71229a8d1bc6c935e12
GS01676-DNA_B02.bam	9ef9732a64b90e4b20538d29f0302e71
GS01676-DNA_B03.bam	b3f9c9e53f80430c5bb200573373b81c
GS01676-DNA_C02.bam	b949800372692ed00321379b964cca0c
GS01676-DNA_C03.bam	d282d089b259584a1831a8ef97b894f1
GS01676-DNA_D02.bam	1ba7064774779a733b6487f48f31937a
GS01676-DNA_D03.bam	f16102cf17739065afc36056c03a02fd
GS01676-DNA_E01.bam	897f54cd367c2c15e994838bd522ca36
GS01676-DNA_F01.bam	9a4e11fed06417c752c8d7788d7295b4
GS01676-DNA_F02.bam	f755be40b9092f4e8cd4274aa5eca30f
GS01676-DNA_G01.bam	5fa50c3e9749f94885900d612c926de8
GS01676-DNA_G02.bam	b59c7ba063b9d3cb5a34dcc031e4413c
GS01676-DNA_H01.bam	eaddb64b58a7c5286b479c0c10228bda
GS01676-DNA_H02.bam	3751602b86fbf3ebec85d2e019d3edf8
GS01677-DNA_A01.bam	eb181e122dd63a4cabbf74ce2cadd938
GS01677-DNA_C01.bam	0037f8e001b542f735e1eafedbf555ab
GS01678-DNA_B01.bam	f0f752e332297f5e22de2d749b607c11
GS01678-DNA_G01.bam	ad4f82060b3075f5f9b414edd6de4d2f
GS01678-DNA_H01.bam	4245cdbc55c531ed02c70e22390845d8
GS01679-DNA_A01.bam	9da2b511860df912c62df4d46821a76e
GS01679-DNA_B01.bam	422fe59d17c6d0aa953d87a93c363429
GS01679-DNA_C02.bam	fee605e2247f5d36ce97878f45f03691
GS01679-DNA_D01.bam	e53c4ff345d3be8133c49d380e357788
GS01679-DNA_E01.bam	651c7217217ae73193fa5a0177fee01b
GS01679-DNA_F01.bam	fc85c39eb30ff861adf75ea3916bd90f
GS01679-DNA_G01.bam	9b4ab9b64c2a6d47b5efc34c7d3aad06
GS01681-DNA_B03.bam	c7f55301814239f5eb427381e69204be
GS01681-DNA_B05.bam	bed66016342c455a18aca450843bee5a
GS01681-DNA_B06.bam	40d4dfa3603f2ac6a92f62e17429005c
GS01681-DNA_B08.bam	09ddd009108f2170f04357564fd9fa73
GS01681-DNA_D01.bam	e5f4c35422d0aa6ef854e89cbd8c2b5e
GS01681-DNA_D02.bam	b442a74ff39499336b402925b2151a8e
GS01681-DNA_D03.bam	900a1702dd4d6539b27cefb76a146eb1
GS01681-DNA_D05.bam	c7ddedbe746bf115b84afb9e4a1580a5
GS01681-DNA_E01.bam	74c154672206b83ca525a308366d2286
GS01681-DNA_E04.bam	b9a650dec59ac638b836f2e16dd80f4c
GS01681-DNA_E07.bam	e699bfdebd6e921a80903b98f2a7fea5
GS01681-DNA_F01.bam	753042ecc2c9ca418f7ea0be5af09ec7
GS01681-DNA_F05.bam	26d46e643438527dc0d3bcfd34225184
GS01681-DNA_G03.bam	72d94c77d49a271af41babb4d2d6beeb
GS01681-DNA_G07.bam	e09abcdc45662426584d9a7a6b63691a
GS01681-DNA_H03.bam	789a46010392b80cc3a8c44140883478
GS01681-DNA_H06.bam	8f82145fee34a13df1b4efc42bfdce3f
GS01682-DNA_A01.bam	940ced41d948d8f46905a91ed8c9ad93
GS01682-DNA_B03.bam	57e544f021e4fa36f4b35562873da157
GS01682-DNA_C01.bam	80513dd89ccd8619b3b450cdda161fb6
GS01682-DNA_C03.bam	42e2ea5b3f8a77f034c6e4f6c4ea351f
GS01682-DNA_C04.bam	e848d007746b95cc8178cfbf0df3c3da
GS01682-DNA_C05.bam	1fd451dfe236110ce6cfbb5105e9ee7c
GS01682-DNA_F01.bam	7592402318d3d22ddb05a20222c6782b
GS01682-DNA_F02.bam	fd83f684b2ce1e2287265f59a12a0368
GS01682-DNA_H05.bam	6a81faf41c21670c9b5f597c83da1a04
GS01685-DNA_A01.bam	e388d1141bc135c9db2e77dd7f894684
GS01685-DNA_C01.bam	1e43325a06ddc9964579c04930046f90
