GS01681-DNA_D02.bam	bf173f0f1e51565480bd5446932df18c
GS01681-DNA_B05.bam	1f7ae79ca8c50c263409438c87272f9f
GS01679-DNA_F01.bam	1d70d1757b98b538d38f0813f708d48c
GS01679-DNA_A01.bam	299788ea2b7db19a92d2c55bd04c3941
GS01678-DNA_G01.bam	579718cf5a427ae9ef16cee085280ced
GS01676-DNA_H02.bam	6fe22fdf27f603d100a500f116bea041
GS01674-DNA_A10.bam	febd81c8d3468ab6249a73bfb5a39baa
GS01674-DNA_B01.bam	610bb839f6f8b38d590dc55cdc637d37
GS01674-DNA_B02.bam	fe4fd9c95140a12988aa95b4b1fe6a01
GS01674-DNA_B07.bam	3401b56d3ba560132caef38a647e0b29
GS01674-DNA_B08.bam	a8453f21d55ba22c5488517aabbd538f
GS01674-DNA_D03.bam	20ff687c6021c9903545d53431e5c6c9
GS01674-DNA_E01.bam	37a8035600a9b9e8cf4d30d803a30919
GS01674-DNA_E02.bam	6b88d1c7213cd52b9097de0ebdc379a9
GS01674-DNA_F09.bam	c28695a0d27853f9d6c6af55f901ddb5
GS01674-DNA_G02.bam	3c316c7acf1ce91f3ae70723f2ce7615
GS01674-DNA_G06.bam	0e59cb5a3edcebcf326cd11c74328654
GS01674-DNA_G11.bam	6c8d72c147c4ee2602946e05c71e0c42
GS01674-DNA_H06.bam	cb2ac4e0e553fda018104de00af6c21a
GS01676-DNA_C02.bam	2d7c703fbaaf4933d40753b20e7b3b9d
GS01676-DNA_C03.bam	a7255bf1d4a847176fcba125dcc0ba67
GS01676-DNA_D02.bam	ba11033f0814e814d3fe76273b738ca9
GS01676-DNA_E01.bam	d0fe4e8dceff7e1d036c20e5bd8165af
GS01676-DNA_F01.bam	1049f9dc8311b1ef711781136df82a40
GS01674-DNA_A04.bam	80682b48231d991c07abbbd70736eafa
GS01673-DNA_G05.bam	0152d94a36b222d7373b539963e3411a
GS00824-DNA_C11.bam	bdcaab520918d78a580e6d5122ac2004
GS00824-DNA_C10.bam	ba7e026ee3054bdcace97d0caec6f2e0
GS00824-DNA_C07.bam	8207bdcad539b743ef18c6ce3162927a
GS01673-DNA_F03.bam	993907b3de4b7b0d4b22a412c1460e4d
GS00824-DNA_C02.bam	0b3d370be690d6cf23a7491e41338bba
GS00824-DNA_C01.bam	695c01e3314d528687a2c8cef8368ba6
GS01673-DNA_D09.bam	b047e6b7cedcea1718529e1fc71e390f
GS01673-DNA_D07.bam	547212d36b42cc1864f77e46c5189d03
GS01673-DNA_C09.bam	6206be245966aae82d3ee6006245d8d3
GS01673-DNA_C02.bam	ffb520fe7a594ba6447f4bff0db096b0
GS01673-DNA_B10.bam	ea8fff186dcfd4adf1fb42a1111931e0
GS00824-DNA_B02.bam	062db04e23bad9f16aef647179bf1df8
GS00429-DNA_E03.bam	8be803ef8df86fa5f8713819fd37a7ad
GS00822-DNA_A07.bam	4dfa78fdcc4928282d77d5db9aa0baed
GS00824-DNA_A07.bam	cf4bea2dc76b833a2c609944adc001ea
GS00822-DNA_C07.bam	e3ed909461eba51dcd7b1eda0bdf4d93
GS00822-DNA_C09.bam	244337a00580dcac19a711da227761ae
GS00822-DNA_C11.bam	5605660115adad703057e4272d045325
GS00396-DNA_F02.bam	03d6d8719ffbc71dcf783f29aa9413b7
GS00824-DNA_D06.bam	f181c0e27556b68e27f84d2f44d65807
GS00823-DNA_B10.bam	5a2ec69049f0966ddf4e5ee81db17d4f
GS00823-DNA_A02.bam	a02fe48c92442b99d0cfd52e793e9e34
GS00823-DNA_A03.bam	ccae5d74fd8f24ced1f6a9cd47a31195
GS00823-DNA_B03.bam	26448b5a355e973f454d74393b8823ab
GS00822-DNA_F11.bam	e85c68fcbbd3382a1e1a54531509e03c
GS00824-DNA_E10.bam	d9575176f01be6f07fb72e174e72d181
GS00823-DNA_H09.bam	f41eabe5a3764cbf700aa0aa4108081d
GS00824-DNA_F04.bam	3995d118a6dafd5c693a5b55f3fbad05
GS00824-DNA_G05.bam	e7028aae7d1ea9f4c20efca394ea349f
GS00824-DNA_G06.bam	1c50d78657cfb64fd26a02c988bb3ca8
GS00823-DNA_H01.bam	3aa93fdbdaa2f9d78da6e452577479d7
GS00823-DNA_E04.bam	c5941de7d5ea45fde222b289e1950bd9
GS00823-DNA_E08.bam	1c7be9bd00742af242978f8a0fd3f6df
GS00823-DNA_E11.bam	92053a97cf11d959a9799096bc3fbcc6
GS00823-DNA_F03.bam	b772f1fa6d7b629440f157dfc1e81f0d
GS00823-DNA_G10.bam	63558688292b71639f82c038cbf38872
GS00823-DNA_B02.bam	07af28e2b44b51dc2636cf6f90c2e8e3
GS00823-DNA_C08.bam	eed62ae60425bfcde59ac714fe0008e6
GS00823-DNA_C09.bam	7d54ba10590fd6bebd983bd8b5e41fa4
GS00823-DNA_D05.bam	f8f3322efe5de30e638be2edbe1c7b34
GS00823-DNA_G06.bam	42e3b653750b4b713c4f59d5fa8a773d
GS00824-DNA_H08.bam	5d20c8ab23a40a66ddbec10bc18bad89
GS00823-DNA_A08.bam	56f43d1bccda08f0993faf7082f26099
GS00824-DNA_H09.bam	ed50a909deb78d9cb77cb4603ef65420
GS00822-DNA_H09.bam	d44dbc1f016f2d14edef148189f98cee
GS00822-DNA_H01.bam	dd2fb52395cebb8d3e4d149e245e6278
GS00822-DNA_H04.bam	f5807594483673ce831f4ea0cc398fd7
GS00822-DNA_F07.bam	59caec16d0454edb0e17a7a68a1633af
GS00822-DNA_G01.bam	2a2020a3235e3f6a87250c6405fa6cd3
GS00823-DNA_G05.bam	6d89713eb8b1427d5d8f9c3d94531564
GS00822-DNA_D09.bam	4a72a952833d42d13332b114e1aeff55
GS00822-DNA_D10.bam	0b2c1bd0828a08ab0abb7e0bc97b7bd7
GS00822-DNA_D04.bam	a75f8cb00f0e73ab61791aaebe365525
GS00823-DNA_G01.bam	0861598bf83745432343abd71f7edad1
GS00831-DNA_D01.bam	da9c0636fea62d260fe92cb83406886a
GS01673-DNA_A03.bam	60f3b068aa65db2581f39eaec9e901ff
GS00826-DNA_B06.bam	1e5893ba698d01a4b38442e4552fbd1c
GS00830-DNA_G03.bam	d5f526e4543c23294ac2e9fec538b5e3
GS00830-DNA_G05.bam	0b0182135715fbb1f5935ae1142a7f8b
GS00830-DNA_G06.bam	c826f5caf591e76479b0b883b9832d51
GS00830-DNA_H04.bam	0698e011a8043e4589228ed7a3433c36
GS00830-DNA_H06.bam	e457f7b81d922d111556a0ea7479be42
GS00830-DNA_H07.bam	da8f8080920207fe43ad4de41e703d8b
GS00826-DNA_B11.bam	348c9321d4a7880883c59c2ead617287
GS00823-DNA_F08.bam	17b8182b4654fbad8336f583225a7137
GS00826-DNA_C03.bam	6f461efc05d06f13c7190cdce00195df
GS00830-DNA_F08.bam	5f522159a6588ed45f55276cc79f43f4
GS00826-DNA_C09.bam	07fd14081c13dffc60951d60d40c33b7
GS00830-DNA_E03.bam	62181a64f9a77f5827ec5eb940968859
GS00826-DNA_D01.bam	cc82c58411edfd23cff309af5890118f
GS00830-DNA_D08.bam	c4a4d3d3c0d1842d1691d40289911fe9
GS00830-DNA_D10.bam	82e63c455428f11d3ea11290b2edaf4e
GS00823-DNA_F06.bam	9adf6681e72cfc24d00925f886573b97
GS00826-DNA_D03.bam	d0975749e8157ff8afd3a342359581dc
GS00830-DNA_D07.bam	c650e6d396183cb6984839fb9bd6c606
GS00830-DNA_B09.bam	015568da8b5eb3cef9d6c97529256c01
GS00826-DNA_D09.bam	e4f290c51162a99e4d729078d7907f4c
GS00822-DNA_C10.bam	f1933a962b8998363ead2eaec9a95683
GS00822-DNA_C04.bam	9dc169841e775f1ce626b7cce9152f4e
GS00822-DNA_C02.bam	ca1520cb80b701b0b458b276f9f8c5d7
GS00830-DNA_A09.bam	9a8f1b251b3d95f28434838200253fe9
GS00829-DNA_H08.bam	9b4fb423ccf841f2205c188790418cab
GS00822-DNA_A10.bam	a81944c512597b2e9ef8712927803b74
GS00829-DNA_H01.bam	1fb0abdfe78ff2552d9add8e9979525a
GS00822-DNA_A04.bam	2cedc8056f47accb017307c506c5f487
GS00826-DNA_E10.bam	caefa5dc06547a32da6cf1e5d149f1b0
GS00829-DNA_F04.bam	c6a7c90b7e5f740d27ead86fa32809e8
GS00829-DNA_F09.bam	c6f4b418504bb878a295b9f4f8f93021
GS00829-DNA_G01.bam	acba2b2a0e44039160427461562dcd5b
GS00829-DNA_G04.bam	195e8515b7655936819b11eca115a4d0
GS00694-DNA_F01.bam	dd596cd11ad18eb187eea954f23bfbfb
GS00829-DNA_E07.bam	21b584e48f163b5de5547d05949cd9b6
GS00829-DNA_E02.bam	ad0a70296687d65e949e6c78e20cf752
GS00829-DNA_C06.bam	d832827e3b6000042d60ab67c9adec17
GS00826-DNA_G03.bam	5fcabbe61075f3b3bd7a9d86f27e3b8d
GS00463-DNA_D01.bam	9a81cfe35abb8691db46ac6140242e0b
GS00829-DNA_B06.bam	4d695b80e8f5b516279a281d0deffef1
GS00829-DNA_B07.bam	cd96416e8d4fb5132f094e05b61654cb
GS00826-DNA_H01.bam	c4a2372f0c612dcb84eba58de8c6452f
GS00429-DNA_H03.bam	481c95870d441ed62d26d4de8bd966e8
GS00829-DNA_A11.bam	87d0ec33075bd6f854c101866c8c0119
GS00829-DNA_B01.bam	0ea56ceb937ddc09bd1c2d59595dc498
GS00828-DNA_H06.bam	1322bbfe05239d0f517a9a37ef61e536
GS00826-DNA_H09.bam	2cccbdb3d0385fc41960deb1abcbe872
GS00826-DNA_H10.bam	5f7a78864d7e602563e3c6cc1b982f99
GS00429-DNA_G03.bam	c6088cee243fdc41336c29e4f45b661b
GS00827-DNA_A06.bam	00a0545fc328f8f11218375f8c69326c
GS00828-DNA_H01.bam	595915f8d273aee4a9697a0923cd7f29
GS00828-DNA_G09.bam	4742f4f44ab8ef4252b833ef100451da
GS00429-DNA_F02.bam	f31f0e2f0565b947c025552a5701c6b4
GS00828-DNA_G05.bam	b6944153b0c2164d074f77f00fdc5cc0
GS00429-DNA_C04.bam	51ddbdbdbd2e1c9002e0d9658f57a0b0
GS00827-DNA_D06.bam	bc23e34c8e18716144fa2a01ab91266c
GS00828-DNA_F02.bam	992a78cb6f9a1390aa305161e69bc714
GS00828-DNA_F07.bam	ca0d0f0e62830023e5527809e3575f73
GS00828-DNA_D09.bam	fc7a495286d81b373702a87e7d919545
GS00828-DNA_C03.bam	f03df66710161899952124eaf2b43a80
GS00332-DNA_G01.bam	b550300ba6cfc793e0a3bc5f274c51f2
GS00332-DNA_E02.bam	70cbdbe68579a89002ac0d61342aba2f
GS00332-DNA_C02.bam	e44f608531942af65457cfc4274c485a
GS00828-DNA_A05.bam	acaab1c0e5cd3dd22c24ab5e1eeca60f
GS00828-DNA_A06.bam	4f1c0804a616903fa2a2e497cea95f15
GS00332-DNA_B03.bam	c06699b5cbf32bd4f771224a8a47bd18
GS00828-DNA_A07.bam	7dce1d00c5538f710525b8eece16d1a6
GS01682-DNA_F01.bam	581137507ecb576cc7f88b42c428e08c
GS01682-DNA_C01.bam	df271ecee1a40b67a19bab39002a03b9
GS00286-DNA_D01.bam	7985dff7b2854a14d42a61fd03d97294
GS01681-DNA_E07.bam	f76811f6a7be4b859538bc4f4f3d28b0
GS01681-DNA_F05.bam	fdcb6bb6806e6e26015a3c992d926321
GS01681-DNA_B06.bam	7246955ec3ccc11a3264028475b36f5d
GS01679-DNA_D01.bam	598d3bdbdacecc502af644ac13339810
GS01678-DNA_H01.bam	b6bebf0663f412fde075f2e9bd83071c
GS01676-DNA_G02.bam	33b4f41ec72b59c86aeb572ff8fe2af4
GS01676-DNA_G01.bam	c9fe639c990b30bc36a45179efd482dd
GS01674-DNA_B04.bam	aa7db0b588bd53f4054fe90f639449b5
GS01674-DNA_C01.bam	0a9265797ba1a8246c3e89a8bc3b77c5
GS01674-DNA_C02.bam	811427bb0c33379b88c2335caa82b7b4
GS01674-DNA_C04.bam	98a4d9f28794b787d3b8a42c0dceafa1
GS01674-DNA_C08.bam	5d32b43035fad5f0ad2ffd190ac39edc
GS01674-DNA_C09.bam	301a5aab885f3151e011eb501b93acc6
GS01674-DNA_D05.bam	29e02560c9a2b6245fa6382c4ef42efb
GS01674-DNA_D08.bam	a2f06fabc1c4e304e36e9a43211e336e
GS01674-DNA_D10.bam	4f3fefe1b82e593397a5ba48c6e94dd0
GS01674-DNA_D11.bam	fc4ea9b086b4f334a44b64db0892a7d3
GS01674-DNA_E08.bam	0669b2c614d50789899f6874305bc52d
GS01674-DNA_E11.bam	fa3cbba129766e1eab5f9709599b21f1
GS01674-DNA_F01.bam	ccf7ca219917f05851c5befbe27e1c5b
GS01674-DNA_G07.bam	4eeb22007e488c8eeba15281477cba2f
GS01674-DNA_G09.bam	9b5284141a25561943f8c2a88405b554
GS01674-DNA_H08.bam	9e5080e490d9a58fb2a498e9e6d376de
GS01674-DNA_H09.bam	ded341026fc003b8a308cabcee5b3ef1
GS01674-DNA_H10.bam	9899e7e8a4a314bc4e89c18fd05270fa
GS01676-DNA_A03.bam	0addc0ec430a611d9af402162c4ee14e
GS01674-DNA_A06.bam	450ec4d4a7b43a750216e2fb0fd577e7
GS01673-DNA_G10.bam	a81d5c9c61c63a445791ee661a70ca44
GS01673-DNA_F09.bam	a3234cceda7a64a60bf117368d9eddd5
GS01673-DNA_E09.bam	97751e8fc8d550b159e941ce586c7859
GS01673-DNA_E04.bam	603b5084a21086eb95c78d5c494ecc81
GS01673-DNA_D08.bam	513020f768899f54dc687375be75ab71
GS01673-DNA_D02.bam	c696a402c497e4110294301cbb0bc238
GS00824-DNA_B07.bam	f5758bb7abf21679e3b9c8dab2b0824c
GS01673-DNA_F11.bam	5a7706803f2fe256f3894d0a0aa1f4eb
GS00824-DNA_B05.bam	6c504ee3aa0a055a68f7d0536df16aff
GS01673-DNA_C01.bam	5d55af8331c0be94f6bced92de17ccb6
GS00332-DNA_B01.bam	dca2b7e8a7aeb806524ec923910c05bf
GS00332-DNA_D02.bam	ebacff81aeff4ee6fc4b3868a99a5c37
GS00429-DNA_A02.bam	853c423b083dffce80355f8c01b01cf1
GS00429-DNA_C03.bam	aaee56fc8c9d8f882a84af08c41bd8ad
GS00824-DNA_A09.bam	b1547f8d669284baa6f61326d04fc4a1
GS00822-DNA_A01.bam	f362af075456d7ef659fcc46fdda2df9
GS00822-DNA_B03.bam	2b47e0edf08b4a174e0c102d8cd6ba26
GS00396-DNA_G02.bam	62119ed0936aa8f808ee4b34305c1776
GS00824-DNA_D09.bam	403f511296a94a8fdb65cb3d542bc1dd
GS00824-DNA_A03.bam	f389614ed94d60b344b0c592833381f7
GS00824-DNA_E03.bam	a95c0498b473e0ca9df865cc552e5e98
GS00823-DNA_H11.bam	0cdf8b4237c96a2c961f1b3cbefd2fd0
GS00824-DNA_E07.bam	3fdd98c805fbbf14dea83b5e3c098343
GS00823-DNA_C03.bam	7d05652bfbda4f6028d492b18d997c3a
GS00823-DNA_C10.bam	ba19b0a2279da0abce917873ff37d560
GS00823-DNA_A05.bam	a4acbafccdbe2c818a4ccb5bfc074891
GS00823-DNA_A10.bam	7da9018290b7d264cb849b2410c4769c
GS00822-DNA_E11.bam	bb2b7eb81254b2d3cc8c0f514fc0d300
GS00824-DNA_F03.bam	07b92a048ac03b55f420c792eb811d7a
GS00824-DNA_F09.bam	723dafc52cb1586ad777119310ea9909
GS00823-DNA_H05.bam	2677e339d4b7ab645c84684d632efd63
GS00823-DNA_H04.bam	db9fee90d502385b75c31e9682da2937
GS00823-DNA_H03.bam	a8bd8ccc6ad8e30636a17b56d444c46e
GS00823-DNA_H02.bam	9bb61a95ed4dbd16a70526c356447755
GS00824-DNA_G09.bam	0f45237cecb225b2dbc62266cc75a3ca
GS00823-DNA_G08.bam	58774db4253e9fa2ecb8bb3155cca129
GS00824-DNA_H04.bam	63eb201fd1900a308b1f2d00a363560b
GS00822-DNA_H10.bam	f1e95748b6286ed70de02955aa8f46e9
GS00823-DNA_C05.bam	c7763dc5d2a8cf015cc649b8706d5c4e
GS00823-DNA_D01.bam	eaa044acab825817a5f3b99028e62881
GS00822-DNA_G04.bam	29b11019bdd5516faa8e9752c8a414d2
GS00822-DNA_G06.bam	cd25216791a96208f73d9c85cd11b23d
GS00822-DNA_G08.bam	bf6fc6f4098c26895c8b6f5750c35046
GS00822-DNA_D01.bam	ab881d2c9c3f15cab0c9130822f0dcfd
GS00822-DNA_F01.bam	7aa8419455a29d7c06dc5d6ec0a936d6
GS00822-DNA_F06.bam	cb3846f945f35ab6ad092e3353f14f31
GS00286-DNA_A01.bam	3ccdcaa0177ac01574f55fec8e45f88f
GS00828-DNA_E07.bam	ded61cc1f09fff2096eb9f827550c47c
GS00828-DNA_E03.bam	db6c319d1c4ce5e6e08076c414d476cd
GS00828-DNA_D02.bam	beba00ec27c8735ba3e9d35316f93694
GS00826-DNA_B10.bam	a7d2566114c79bdfd56f12c105109dfb
GS00830-DNA_H01.bam	3253eac075197a0eb75d43ac0aa862de
GS00823-DNA_F09.bam	121396783dd002f811b72de71c7529c3
GS00830-DNA_F04.bam	f5f556ea79c5543e13660f363a561634
GS00830-DNA_F09.bam	f3bdd8a57e2770ba3cad58748e71ca51
GS00830-DNA_G02.bam	ca5aa5a52cf4ee652508aa4120f1652a
GS00826-DNA_C04.bam	702d3a2068323366fdff10f9da83aa02
GS00830-DNA_E08.bam	a84f5cbadc95b726ed61db579b3adfe4
GS00830-DNA_D04.bam	86b9bef68368bf0f3e01e00e38f6b04f
GS00830-DNA_D03.bam	900e57b40f325a2e4b8dfb71286cb53d
GS00826-DNA_D08.bam	026340916296294228a176dd9f0a75f1
GS00830-DNA_C06.bam	0aeff3f3b53fabca6ef3d696b59ad667
GS00698-DNA_A01.bam	8f03442cf3ec27320da7bfe68cd4a245
GS00829-DNA_H05.bam	4e085551927a7b7d1b92dbc540e42757
GS00826-DNA_F02.bam	bc0138dea9d8477b5f044e8b51431782
GS00826-DNA_F03.bam	164dadc2099382aa09d81db398be6bbf
GS00826-DNA_F04.bam	ba025f2e4572efecbf3bca5d3a50a167
GS00829-DNA_G09.bam	f40cf69ff81df0b158292c502fe80597
GS00829-DNA_G02.bam	e18c66c4ff339fd4df898684bb900731
GS00826-DNA_F08.bam	ca67910c8c6048f1077dec056a673b23
GS00826-DNA_F10.bam	0e59af179b107cd57dc0d6b1e7b3628c
GS00694-DNA_B01.bam	e3f1c715d8841d01f789ea866e8fac44
GS00829-DNA_D07.bam	f29e9e5bbbb5eca2212f383d44012b86
GS00829-DNA_D08.bam	82424064028fc530e6efcda0eebc1424
GS00826-DNA_G04.bam	9e177b7d447c2817cfdcf5c555bafa84
GS00829-DNA_D05.bam	a78914de19c49a6cb2bd02e431c9ad0c
GS00829-DNA_C03.bam	cd4ba80e7fa7fa90870bd47298362039
GS00826-DNA_G10.bam	505df3bb2651ee9740bfb1184303bb29
GS00829-DNA_B04.bam	24e0dc7f3061c65c84fe7db69d35c153
GS00829-DNA_A06.bam	1f8f9c504d00bea3788b7bf173342d04
GS00826-DNA_H02.bam	3831c3842221a511ee0c8b547b680383
GS00829-DNA_A04.bam	617623a063f9ff912d95ac527c01bf17
GS00429-DNA_H02.bam	70187fd0220b31bf7c1c0e5f0fd664ff
GS00828-DNA_H07.bam	9dfe90ed59630a7fa1afc5184218f801
GS00828-DNA_H02.bam	b9569a89e29f39d1ce266910edae9b2d
GS00828-DNA_G02.bam	a03e40b28caaa470f92c44e6bae8f3fe
GS00828-DNA_F08.bam	d98c4976408e4d6983b84ad6553a3ee0
GS00828-DNA_F06.bam	968696acf1eea195273d43059fc7ef15
GS00827-DNA_C02.bam	731b362d55544bf66385d0662802880d
GS00827-DNA_C06.bam	3e1a0fbec06ac917460ece8bbb6a3da3
GS00828-DNA_F04.bam	6e1b995cab2c5638227ef040a95d0fef
GS00827-DNA_C07.bam	956097af94c7f4c0c939272a80cc043b
GS01673-DNA_A06.bam	c5284c3cba09c97477ebc93fa40f1043
GS00396-DNA_D03.bam	0904191bd072092dffd3f5c13817d07f
GS00828-DNA_D06.bam	874ed209c63f10613d31f10611566708
GS00396-DNA_D02.bam	5fe7c21b50a7c3037c6190c96179a7c4
GS00828-DNA_D04.bam	9a6cf6b61be8aff2bbdb7aeb117a3a78
GS00827-DNA_H01.bam	5e0500839a120bf83f07d71d7971fc5a
GS00396-DNA_D01.bam	1f5847719f065b6b99ad9d9ebfc6177f
GS00828-DNA_B03.bam	ead85338a3a9278d9f6d82ca10dbc3c7
GS00828-DNA_B07.bam	38af297b3cc6147ff359c6e68e21df63
GS00828-DNA_C05.bam	60d179eb3695e2853317f8355a193857
GS00332-DNA_D03.bam	ac871715aeefb1246a3d37caa3e77f24
GS00828-DNA_A04.bam	fd1f4dd32b7197d5919cca587393d0d7
GS01682-DNA_C04.bam	913b2ad37fbe7cb2367439a507357647
GS00332-DNA_A03.bam	858a55970b301f6878b368765c7f1b19
GS01682-DNA_A01.bam	b9ef74a94d3c37a37d51e794c1713d0d
GS00828-DNA_A08.bam	dd0ec6c1fd2db2997f53215e009f99dc
GS01681-DNA_H03.bam	7fc37fb72cfbd8791020e7b292b1e39f
GS00332-DNA_A01.bam	cd97a97a4ff5ace2bdf9a5ff72bcb3ca
GS00286-DNA_E01.bam	a491dfe8955f26470953142a47b9e08f
GS00286-DNA_H01.bam	2c64121ab5b948ffaa53ca965bf7774f
GS01676-DNA_B02.bam	62aafe42cd362f71b16d7913fc6e20b0
GS01674-DNA_F10.bam	7c66c30a68afd800955be811dde215e1
GS01674-DNA_F06.bam	2d19a53058c3bf574e74b9aa4eec2179
GS01674-DNA_E10.bam	607257f96ba296af52b46b2fa3446506
GS01673-DNA_H09.bam	31c961f3b64982eb0af1681f781554a4
GS01673-DNA_F05.bam	1f6fbc3065a17ae7950cd1966b58879a
GS01673-DNA_F07.bam	64c284c8dadfbbf7fb4de4bf3d5db4ea
GS01674-DNA_D01.bam	e8e834dd554f6d02acb6923b2c7736c5
GS01673-DNA_B09.bam	1471365991f86af5aafc031b6d22ac6e
GS01674-DNA_C07.bam	ef0c62073ca309d113661ede6c596966
GS01674-DNA_C06.bam	0c407447348df952dbe5363fbbad7bb2
GS00396-DNA_B03.bam	2e1306a4459e17bc1842334bb4bcbbba
GS01674-DNA_B11.bam	1f46385f35f0461f02e543b0fc652d2a
GS01674-DNA_A05.bam	158ec1682d4fbbc52a71238b4460101b
GS01673-DNA_F08.bam	6c2dde7d64fe64ab7b194acc6922c90b
GS01673-DNA_E07.bam	937ba996a9fc6b0fc4e0acefb2604761
GS00824-DNA_D04.bam	380df03c7fd717fc2d9b93669d33f354
GS01673-DNA_C10.bam	54d8414fe902b3e095c7c6f5f0dedd47
GS01673-DNA_H08.bam	9cc1864ebcd65a7c623a30116083c147
GS00823-DNA_E10.bam	41a116e239f5eda3c1ec83164c750c73
GS01673-DNA_H03.bam	048c81b19e78fccd78754a8c1d36fa92
GS00823-DNA_D03.bam	415bc6f6a4940e9e6bcf4d967465d269
GS00823-DNA_D10.bam	ffa48ca9ea039cb975d67b4329093d05
GS01673-DNA_G08.bam	1f6690246108e24d01f3cc70fb573ecb
GS00823-DNA_A01.bam	493edc7892df692ba6a6e901113a33ab
GS00823-DNA_A06.bam	c10f1b6e720b85c345da371fd5e138f1
GS00823-DNA_A07.bam	a44bf542cd356369b6ff21a17fbc185b
GS00823-DNA_B04.bam	7d7f335bb32097bbf8b5a27b0f736fa7
GS00823-DNA_B06.bam	42ef113c49316d403915fe28de9f5b65
GS00823-DNA_B07.bam	75b4b1e0c2e85af7427e7cf2bbacda9c
GS00396-DNA_A03.bam	cd16d3f4c0c17ee8b6d78c6f4504be5d
GS00824-DNA_C08.bam	985458f659da7ac45602531b50fe57ea
GS01673-DNA_B08.bam	ad2502573893695139d3345f7fecc91d
GS00332-DNA_C03.bam	2f111b8e2b517ce6a5d64028214027ec
GS00429-DNA_B02.bam	ba95dd23adfe3c654ba400860feb5cc5
GS00429-DNA_C02.bam	9e3541d1488f1937c31346a46c118b45
GS00429-DNA_D03.bam	6459eddcd8f24ed2d7fe13cc0f5e962d
GS00429-DNA_G02.bam	d031a72f6cb7580db14d3ef814318bda
GS00822-DNA_A06.bam	e41dd87d0eae83c08fded11a4e6ed44c
GS00822-DNA_A09.bam	841af6b9e450e11947ff5637d67fb626
GS00822-DNA_A11.bam	ef71c63c492fba2207a177f70840e346
GS00822-DNA_C03.bam	1b792cd8df631b3bbf76e85835c51aff
GS00396-DNA_C03.bam	fb479b7a70e8ca67f7a8cedef889d962
GS00396-DNA_E02.bam	25b61f805322dbe0cf61b53deb185a3f
GS00824-DNA_B10.bam	7922ee5e734fe98a56b24c2d11968d97
GS01673-DNA_A10.bam	ea9852e60d3aaf74c9cdc52b1654968d
GS00824-DNA_B08.bam	97e7b241d813bdd366a9c57b2ac2e20f
GS00824-DNA_B03.bam	6672a27e64f63582ca5130360bf0e114
GS00823-DNA_F01.bam	2fbf937375ecb372d4f174775d6fc98e
GS00824-DNA_E06.bam	c1b990e719e4c09383e29f1f9b63dc51
GS00823-DNA_C02.bam	3e40f755400df7dc10d1ed496283fa94
GS00822-DNA_H02.bam	f5c3e00e2374212d085ef9206c915751
GS00823-DNA_A11.bam	6fc74a2789179e2db0668e2c8707d462
GS00823-DNA_B05.bam	94486537f07cd4dfb4629b43894d8977
GS00822-DNA_G09.bam	bb2ed7275f7dd7b863389ad323ff1bae
GS00822-DNA_F08.bam	7f227c988ec5be0f8bf4964b698b179e
GS00822-DNA_E03.bam	3aa07ad9e06be8816336ec681e1af528
GS00822-DNA_E06.bam	c4c53035cc8e2a57038fbfec6b51aaee
GS00822-DNA_E08.bam	db96ec391ca3d058edf4ec14ea0ec230
GS00822-DNA_F04.bam	7649dd09561a564e28b2b79fcaae00b9
GS00824-DNA_A10.bam	ab7385700b3c6b60798d4685f8eb96b0
GS00822-DNA_B07.bam	16ce7e503bc11bac25f935378901a44b
GS00828-DNA_F01.bam	b9cee713cf521028b2a85ae0fc7e9431
GS00828-DNA_D01.bam	72bee18509b5b5d64e568e961c30fe50
GS00828-DNA_C02.bam	159867108c3b1de842b2484a05c0e9bf
GS00824-DNA_G01.bam	cddc7e7a40a9250526541026325cd2b9
GS00828-DNA_C01.bam	06213c0036f09b455bf24465326255b7
GS00828-DNA_B08.bam	85b3ed5c1d0ae55b1f8575b37be64055
GS01673-DNA_A02.bam	ca4ebec00dd1ee98c30a24853c9a7680
GS00824-DNA_A04.bam	2dd6411631f1c62bb6b731b86e12c62b
GS00824-DNA_G08.bam	dd52e5659f448ce12eb81055d7ef28fb
GS00824-DNA_G11.bam	4f47ca5379adc0f8f86848265e5b469a
GS00830-DNA_H03.bam	c5234a9962593fb212e0d2800991bc57
GS00824-DNA_A01.bam	4fe940120d53c6f5fa4eb19a0b84ba1c
GS00824-DNA_H05.bam	dcc507dd93f216bfa1264c3dca574caf
GS00830-DNA_F10.bam	49a6999fa63da2d500a576c5dcb05c75
GS00826-DNA_A01.bam	5fd938535a44c5d491ac21a3ddaaf6a9
GS00823-DNA_H06.bam	be913812e897b16a575f12af4483cd35
GS00826-DNA_A02.bam	e6f7348a6838e02cf4a3b0f15cdf4e1b
GS00830-DNA_F02.bam	44ec535252326d6d54f75882d93ca856
GS00830-DNA_F06.bam	6823fa27bcbebd3008c72b8405bf03ac
GS00826-DNA_A04.bam	518983fb59c84562bb30cc1614813b9f
GS00830-DNA_E07.bam	202e551c70330d31d6a5684da6dd57bf
GS00826-DNA_A06.bam	35d8f5d695bfbdf38842e96026d0ce0c
GS00826-DNA_A07.bam	f7fd71629a378c1a443f45b462939b94
GS00830-DNA_E05.bam	d8194bc8f86b5a6dac416c56e05c4f60
GS00830-DNA_D01.bam	8d3fda26136d95806834e7fb9fbbc831
GS00830-DNA_D02.bam	9186fdf2559d34b8636daa4df4bbedae
GS00823-DNA_G09.bam	ba2b2c7e267b713ed42f209b95890d34
GS00830-DNA_C07.bam	52dc8b211d2e73529b82b5c43b8e03dd
GS00830-DNA_C08.bam	6f8d20f5086b9891d276b4004eb33b10
GS00830-DNA_C05.bam	adea04dc1ef2a70eb3f304efa32a0293
GS00830-DNA_C03.bam	5a3b6dbadde4e5af8da53f19314ee851
GS00830-DNA_B10.bam	c61d92fed8ca949c017ed7cdfb386ed1
GS00826-DNA_C05.bam	ac8ac25f91dcd9ba610c1efa0d8de094
GS00830-DNA_B07.bam	21f3eec2928b5f0c92551648afb2dc57
GS00830-DNA_B02.bam	0afaf0e19fa9321c62e91eee74681ed5
GS00830-DNA_B03.bam	4955080bce84e00775b145e772a310af
GS00830-DNA_A06.bam	04967137aa002b972b686cf03a02f099
GS00830-DNA_A08.bam	a2e54f41d02e23ce7e0423e5f2a75dbc
GS00830-DNA_A04.bam	2d71b34eec1e43c74ecebf6f0ab14f1c
GS00826-DNA_D02.bam	c52c6a8e94bdc0a5c3332e262a3c04ce
GS00826-DNA_D04.bam	20822ade9da02b130f4dcc12cca814cf
GS00829-DNA_H10.bam	8f957ed49c63f80f1decada1b262fd09
GS00829-DNA_H04.bam	d3e8ca9c8a08bfa2ccb62016f3066bdc
GS00829-DNA_H06.bam	c22e5da7346b2435e298dcf4d4b599f1
GS00826-DNA_D10.bam	ff9e60a257a548476fc85ecf54d9b40e
GS00826-DNA_D11.bam	22a44c31013808b451f747eec9b6280c
GS00826-DNA_E01.bam	597b6f82e9f68555f4c000f1913348b0
GS00826-DNA_E04.bam	166b44220d3bdf652addc9924953e688
GS00823-DNA_F10.bam	202d9e87ebaca5e4bebe60f7056bf301
GS00829-DNA_D03.bam	9c532d56493341e7876cfb032ebec91c
GS00826-DNA_E08.bam	d68bca125b2ae915894c4aadc067be14
GS00829-DNA_C05.bam	62a85b5814e1bb751e123843b4ce091e
GS00829-DNA_C01.bam	18d7577a3f6b11f618ddda3a04c85b52
GS00829-DNA_A01.bam	7006ee7e3451596a0928cd7dddc779ba
GS00829-DNA_A07.bam	20c28323680daf93c46933d92fad65ac
GS00828-DNA_H08.bam	7c6bd6e8f0cec8acf22ea79dd38040f6
GS00826-DNA_F09.bam	0265dfbcee08a66ffe942359aca9c4fe
GS00828-DNA_H03.bam	a244da2a6ef4c64871f7eb4e494d04d6
GS00828-DNA_H05.bam	5e8e3e152851b21660922f6c5a233222
GS00826-DNA_F11.bam	20e25775bbec2531436104b1f02641bb
GS00828-DNA_G06.bam	5d4bbfa0513a7cd0b7aab2c3b9bc2b64
GS00828-DNA_G07.bam	03e3980f60297e8f1910f84d45557da2
GS00828-DNA_G03.bam	952d44b09d8c0e98584d1c48ffc21f61
GS00826-DNA_G06.bam	d1b18b305bcfe7c392684cb12a45e73d
GS00694-DNA_A01.bam	50c4efc87665751da8893a06339dcba9
GS00826-DNA_G07.bam	08eadc17f015c642cfbc1ba89ba7bb01
GS00828-DNA_F09.bam	6985bb13c61fd8c532af1c3a8872e401
GS00826-DNA_G09.bam	d323c16814e4e547d2873e1ba10859f6
GS00828-DNA_E09.bam	4fe45c86c3953ebd546bd362a4c0426a
GS00429-DNA_F03.bam	58d22a101d5bc567218dfb9627605951
GS00429-DNA_D02.bam	b5e1ab57c2ee08f7c6fa22cc2904274a
GS00828-DNA_C06.bam	2a000b6af2d7bee32d69ba2b409c5ceb
GS00429-DNA_B04.bam	5ebbf4187e03d66d467a19e26d2cfc07
GS00828-DNA_B09.bam	bad5ebdf4a3353d9a38965d5808b93c7
GS00429-DNA_A03.bam	54a1b158d3c15bd45a0afe96406494a5
GS00828-DNA_B04.bam	b740aca50a452b8fc655767bb2ac6388
GS01682-DNA_H05.bam	17a46089f26cb2c16dd726d16965cde5
GS00827-DNA_A02.bam	4cb2ef1bb5eadcea0e55cf5f523b555b
GS00396-DNA_E01.bam	624ff9ddec79831613ec9f9949a9cb9c
GS00827-DNA_B06.bam	93eccabc940bcea152d654878b578079
GS01682-DNA_C05.bam	b3ebab06c83b891ca2d6651ceffcb2d1
GS01682-DNA_C03.bam	f0a95910a6f63ddd2c8efaba2d443b80
GS01681-DNA_F01.bam	a375b825e7055ad0f3c3fcad5cfcd662
GS01681-DNA_E04.bam	a9eb9e72a0dfdbf9064c330007a642db
GS00396-DNA_B01.bam	219ca88cd785ddac320604cf924fa482
GS01681-DNA_E01.bam	d1d88dbc902abb6d96516165a1c7113d
GS00827-DNA_G02.bam	8a32467ed120eb1ff2faeca77d197f52
GS01681-DNA_D05.bam	5a4f274d2f6e89f16e75ebad70c0b136
GS00396-DNA_A01.bam	b3ca6000dff498a2ef751fa841f13a52
GS01681-DNA_D01.bam	c86d2fb03217a4ac3e68372b64bb7c9a
GS00827-DNA_H05.bam	a6801620397a5f857996120e846e0db7
GS00332-DNA_H02.bam	6388796239eec440cb9b0dc28c329438
GS00827-DNA_H07.bam	63a0950c74aef86683368b7d90c3d5f2
GS00332-DNA_G02.bam	3495fb2c68b7cdfa140467a3487d624d
GS01677-DNA_A01.bam	da4878b80b3273430425c052580bf409
GS01677-DNA_C01.bam	6248a6e8003f22435aea37e3de5f6efa
GS00332-DNA_B02.bam	1581f6e84ed5ce734e81ec31d7a62111
GS01676-DNA_D03.bam	43bf5befbeb01dd0bbb5451a1b263dac
GS01676-DNA_B03.bam	ea9f38e15f88c067558ee614aba647e4
GS01676-DNA_A02.bam	d28ec59068bba141c1f02a24792e5690
GS01674-DNA_H07.bam	ecd055fdb5387f2b86438f69fe5fe037
GS01674-DNA_G08.bam	93e99f6581d4d4db98bd8e362f77ae01
GS01674-DNA_G05.bam	88364060f1600f362ffffb686e8cad12
GS01674-DNA_F11.bam	6579d3aa189cfe9e7879345beb732bc4
GS01674-DNA_F08.bam	8b5b16cd00c4a6f33cdf6d0495f0f78d
GS01674-DNA_F04.bam	add7b68ed37fc4b1dffb850f63cd4bb1
GS01674-DNA_F05.bam	0a648cd6edf050ff8829c9e0678a3d3c
GS01674-DNA_F02.bam	8a426fdd93b69d47cf7bd8a7ffc5a07f
GS01674-DNA_A01.bam	7eb9c5743edfe5ee3f7aa3f0555f35b7
GS01674-DNA_E07.bam	ec2879c3f1d3877c6e3a956939f82b1f
GS01673-DNA_E05.bam	769f32923bfdf2b79a5b9b80ea96682d
GS01673-DNA_C07.bam	de313e364329a065fc60c4017e26554e
GS01674-DNA_C11.bam	04e9e610a35690299f6032078777c49c
GS01673-DNA_B07.bam	ced80a3c0d327bc1456c6c7d4262cfe2
GS01673-DNA_F10.bam	3c16cabce06f01b21c79f046b53cc587
GS01674-DNA_C05.bam	c2a8e032da8b89d81d53401c905f9e98
GS00396-DNA_A02.bam	cf2d34c056bdd8613b384e12c7585dc2
GS01674-DNA_A09.bam	0a1cddab69573f1bc1637fdd220b5670
GS01674-DNA_A08.bam	89f89ecbf824cc03d4366e4b30ed4b3d
GS01673-DNA_D05.bam	b29d5927bf02ed514ecfd8a9e1041a32
GS01673-DNA_C08.bam	58a00c728097ddd1a2f6c454cae328cf
GS00824-DNA_D02.bam	8a88be75df55c0db9eea8ebf70e7be92
GS01673-DNA_B11.bam	f87f5d78f4fcd5ed47d54d122d7bb842
GS01673-DNA_H01.bam	97ccafa9ce3d1677c8dd1c50270e54e6
GS00823-DNA_E03.bam	d9eaf1ece03f5d2ff643b94314cf5fdd
GS01673-DNA_G03.bam	a808d1366c8e6e4fc52ac749c052b452
GS01673-DNA_G04.bam	c63ed7a070f04f49eb9d266a8070c599
GS00823-DNA_C04.bam	0703cfbe09b9268e66037df9b342fa69
GS00823-DNA_C07.bam	d7fdbe122d18eb201adf2fa12ca108c7
GS00824-DNA_C09.bam	2bd216c7df98335965a68d6d083ae5dd
GS00823-DNA_C01.bam	eba8a4c1bcc0388618406bb1419ea327
GS00822-DNA_G11.bam	5dbf5f0945d81b967138a4a4d23fb7cd
GS00332-DNA_A02.bam	dbd5da373325ecdd52d2ba86e17a43f7
GS00332-DNA_D01.bam	c648e8c674223c5f0847c95784d24e7f
GS00332-DNA_F02.bam	cd594794f83f95d63511fe7eb6eac449
GS00360-DNA_D01.bam	364bddf9bfb1627531f10d1d0da69345
GS00824-DNA_C06.bam	cd36dafdee0b3818d4e0961f5c1d1ec7
GS00824-DNA_C03.bam	014ef77b56deb172cd22e3e5684a5ba0
GS01673-DNA_A09.bam	99822a9e7ffc0e797e70a7ddb1ace6c7
GS00822-DNA_B08.bam	1cbc1e70e0765fbc9c54ecffb0be5a05
GS00822-DNA_C08.bam	928e98f0e637bda1bcde3d9932e2b932
GS00822-DNA_D06.bam	64980df4482a67ba1d10fd1ff896f319
GS00396-DNA_F01.bam	f01bc81076209796d428bb1f6504c796
GS00824-DNA_B06.bam	cdaee0d35c7feb066459f147f06f1124
GS00823-DNA_B11.bam	0b9ba9f0c26bd6a02dbf49eb9a3c4eb7
GS00823-DNA_B08.bam	4df250726602a99e24cd2db4401a54fd
GS00822-DNA_F09.bam	b5d7b7e7bc39f24658653cf70e3d99da
GS00822-DNA_F10.bam	375393b488cf8952846d357ff2a806c0
GS00822-DNA_G02.bam	4e163fdc323a21e06ca8f7647c66dbcd
GS00822-DNA_G05.bam	a1dbaff76e9fc2e0edd7cae92dbca231
GS00822-DNA_H06.bam	8763255f46767802b7d3ccbed233fd37
GS00822-DNA_E10.bam	1aec37647d41b32c45f919f867243281
GS00822-DNA_E05.bam	a8d1aa294eb2b531f0b050a82743179a
GS00822-DNA_E07.bam	345c1fdc726fba19f24c444345c47090
GS00822-DNA_E09.bam	b95085c09b6d871efdb4bf05e898a82a
GS00822-DNA_E01.bam	169480ef4f870e4a0a47290f3c62a414
GS00824-DNA_E11.bam	3a5c86a2944314b2776442dd6ca7f19f
GS00828-DNA_E05.bam	7323a98f44563170278817fa68ff9000
GS00824-DNA_F05.bam	c2078f1ab9f5b021c37396d03406e045
GS00828-DNA_E02.bam	5f4e1e331e87ca3f3447e0e046ce21d0
GS00828-DNA_D07.bam	5ffe3d3ef371f5777630265b613e0659
GS00824-DNA_F08.bam	c70784c2a17388e30d4e2fce3f38a8d6
GS00828-DNA_B06.bam	3a1cc3f587b4d48e3597c18f094b71fd
GS00824-DNA_G03.bam	c1b2d70791e12c672f371ae14eaef0c9
GS00824-DNA_G04.bam	e2066cde98bdfa93d8dad87fb74b5de2
GS00831-DNA_B01.bam	4d8c40da75c0c913896d1d8518c2a8b6
GS00831-DNA_C01.bam	9a1cdadb41eae44129636ddd05324748
GS00824-DNA_H02.bam	95d04947d6e7f4c1d8ba8380419d1d84
GS00830-DNA_H10.bam	985ac8a03d3ccc73f5b7a744cdfd4dc2
GS00824-DNA_H03.bam	743c4d4437444cc3bfe89ba219c94db2
GS00830-DNA_H02.bam	b73373da50f74cddd002cb27bc3db9ab
GS00830-DNA_H05.bam	579a4245181ae1d2a18565932b3fe438
GS00830-DNA_G04.bam	1c48d4b0ca1f40aecccce82f3ea2b456
GS00826-DNA_A03.bam	a69dac6a3136fa477b3489e16d1c2033
GS00830-DNA_F07.bam	167efd1b749fc45018530065437487e4
GS00826-DNA_A05.bam	93beffd5f0e0027431d15fb707a1ea34
GS00830-DNA_F05.bam	43e916d5553e5d49bdb6d2a16b8f0698
GS00830-DNA_F03.bam	2930bb2f6a8ee58f63765b87da70793f
GS00826-DNA_A08.bam	9ff86e66ead7390adb7091bb445deea3
GS00826-DNA_A09.bam	0491721fd021d823716d7fa7351dd909
GS00830-DNA_F01.bam	4ac005e8e0a90e4adabd34edceefb832
GS00826-DNA_B01.bam	9909c39ee767ffd60abca4ca0ce63d99
GS00826-DNA_B03.bam	b9a65239f390115e88a249ccbc81f886
GS00826-DNA_B04.bam	cab7ebaf7310a97c51b96adf12fba9c0
GS00826-DNA_B05.bam	9ef34845e5b634c8aeb92894a2b66891
GS00830-DNA_E02.bam	29a9808a1d45eaf6c54e4419f1a4c151
GS00830-DNA_D09.bam	d1454e1f2c522c83d78078d20ec1e930
GS00830-DNA_E01.bam	613e3db2cd79049fa1336200f058487f
GS00826-DNA_B08.bam	8bee9c0735e919f8667650994b955045
GS00830-DNA_D06.bam	6afbdde0b506a4a13ab061be48b3d651
GS00826-DNA_B09.bam	bff09faf42cc1306f9c3568041186e02
GS00830-DNA_C09.bam	cb5ecd4eebccc1b81d92b187b9b8eea1
GS00823-DNA_G07.bam	ff23552a09cd85656ad9eed2c200e3a9
GS00830-DNA_C01.bam	8d2ba08b29bcb5d624cdc2abe7248cff
GS00830-DNA_C02.bam	12fda462fcbebaca8e0e77c45c9a4c5a
GS00830-DNA_C04.bam	4e597d47fa3a918f4e5f72473acf197d
GS00830-DNA_B08.bam	1ee51b3f5434841c79d406719a8c34c5
GS00830-DNA_B04.bam	f339c6005b9a7b744f5af76b5605c20f
GS00830-DNA_A07.bam	c34f7d289d3944115ddd0996adaa880e
GS00830-DNA_A10.bam	8b5bbbc105dada9ef2e3833061fe1947
GS00830-DNA_A11.bam	14ae02aeb03fb8653a37a879dc8f050c
GS00830-DNA_B01.bam	ba99d610126e374dce9f914742511403
GS00830-DNA_A02.bam	27fed1f935edb9c8006899e278ae2050
GS00826-DNA_D06.bam	e0394ad6f62037769ca965fc9ff4e87b
GS00829-DNA_G05.bam	384d5d968242110d55fc0d980c1908c7
GS00829-DNA_G06.bam	bacbb7e8956d2b4dd7581772ebc3e521
GS00829-DNA_F05.bam	ebbc4b1dce56843edec1b7f633e86942
GS00829-DNA_F06.bam	97f2f4da1a433bc55fac350834dd25cf
GS00823-DNA_F11.bam	541af639d9898333e3f8e2112aec5f89
GS00829-DNA_D06.bam	82526796860e077879b8230e5108e839
GS00826-DNA_E09.bam	e6f54873bb77af8847552698d0641242
GS00829-DNA_C04.bam	999f68d4ac4036c3f4f853226b537f9b
GS00826-DNA_F01.bam	8a407304e8aa33b25ef2429c288ad4ec
GS00829-DNA_B05.bam	58a120efe04d2fb9433429d9112837b9
GS00823-DNA_F04.bam	6fa4dc132ad28f7d87242065e13da7be
GS00822-DNA_B04.bam	55a65c4f147c049f6dea7cbeacc27ea1
GS00829-DNA_A10.bam	269fdaec563a50341a8519294446bfdc
GS00694-DNA_E01.bam	666fcb01354604b367866f5372759883
GS00829-DNA_A05.bam	cb04c272f38450e4b21a009c59625a25
GS00828-DNA_H04.bam	b10bf6363ff25229c78f455a272a0446
GS00828-DNA_G08.bam	e7a00c08979221a2dcaa1c1d6d088d6a
GS00828-DNA_G04.bam	7f3a5e946126d9237ba8e570b93dc7f0
GS00463-DNA_B01.bam	b88bac27371dc71043b31e7f54b93dfa
GS00463-DNA_A01.bam	44c8244b7f190685f8beb88dcbda4d59
GS00828-DNA_E08.bam	56d62a0dc19fe9ca930e443d4570ff48
GS00826-DNA_H03.bam	2513394618aa163d9436b8073f36eb15
GS00828-DNA_D03.bam	5e6f33facf32f9519a9ec8349647cc6d
GS00826-DNA_H05.bam	c48b60d33667ee409b8f07f58e65c702
GS00826-DNA_H06.bam	e716b20dd110dfdb2a8b2be420bf43c7
GS00826-DNA_H07.bam	08e7a23ff2a95aebbe3c21f22c36e473
GS00396-DNA_H01.bam	5293e14c9b23bd552a7efbf1214fb6ac
GS00828-DNA_B05.bam	01a561b90011361bae8ab9504fca385d
GS01685-DNA_C01.bam	52dfcb14faa7ce7d9a9248aa4ceae756
GS01682-DNA_F02.bam	136f20ab7bb2eb3ccfafebd3199d191e
GS01685-DNA_A01.bam	a22157ae33b6b5925405d5eff747225d
GS00396-DNA_C02.bam	e398ce64ec27f40d527eac72942d6875
GS01682-DNA_B03.bam	d2fca5c7d07d0d8f6a96ae30c10df724
GS00396-DNA_B02.bam	c9c8531a1e20fc5f7995d60ace1c3481
GS01681-DNA_H06.bam	0d1e8118cebe1d76a9e0217d6f3ca082
GS00827-DNA_E03.bam	be36f50986060895d7dff5b2f8778016
GS01681-DNA_G07.bam	9fe7b9f9b322ffaf4e67dc88393610a7
GS00827-DNA_F06.bam	6c63ec2c10747390fa4f8475d4fcb532
GS01681-DNA_G03.bam	2a0a4ab51af4f870fa0a42625df15e3e
GS00827-DNA_G01.bam	5eca9c6daaca7e5324dc8db51e9c3002
GS00827-DNA_H02.bam	2ac3d29d4f6cad10a51f869d3527725c
GS01681-DNA_D03.bam	64bdfcbaedf241ee6c3230f5c2ecb78b
GS01681-DNA_B08.bam	7ee09d4f5ae3ab7173762af225a90244
GS00332-DNA_H01.bam	a0be4f4570b95daf211ff718f1610b40
GS00828-DNA_A01.bam	a8a904eb48a4b1ff659cbb73ed2bc399
GS01681-DNA_B03.bam	181da9e3bdcfb641c30ebef91a525c79
GS00332-DNA_F01.bam	43a2ec604c7f98ca8274c7a5d7023ad4
GS01679-DNA_G01.bam	3ccaaaff2143b27b6d56f3878b6cf9a4
GS01673-DNA_A08.bam	1f84ee92cc7ea9b090ff73b75b819628
GS01679-DNA_E01.bam	2a646926a9a9f20231fad44b461f7df9
GS00332-DNA_C01.bam	4eb9b2f1b1fde654fbf39f78f30b2e80
GS01679-DNA_B01.bam	ac292e854c05ff505b5c1ec04064506e
GS01679-DNA_C02.bam	741086d89f6903baf28f693b0ff4ae0e
GS01676-DNA_F02.bam	f3f99f2e83a5be47e0ac784b49c0db52
GS01676-DNA_H01.bam	533e4501d1a00446c5be1cb35fe04cf8
GS01678-DNA_B01.bam	c4daec0e141ae29800e380b83a78d125
GS00429-DNA_A04.bam	44c84ea6f1977ef56161057ee233d53d
GS00429-DNA_C01.bam	1a9bc22d94dd9760c2ff226e05523686
GS00463-DNA_C01.bam	442d3f3e542386f87d8c5b845b6e1aaa
GS00463-DNA_E01.bam	793c69a5d3ddbea1e19f30de78ea21a3
GS00463-DNA_F01.bam	c61f501551afb8fac966462ebeab36ec
GS00694-DNA_C01.bam	063189b942a01f554246ed0edf8a0ac4
GS00694-DNA_D01.bam	6281406b9c9cb5abd298b0c967c65a50
GS00822-DNA_A02.bam	35a76ca9a8e00c14a297a73949d92a41
GS00822-DNA_A03.bam	c2bb54d518f4b5a2a3cf22e7afeb3148
GS00822-DNA_B02.bam	1e4ae541faa470d4ef70fcf89ddaa036
GS00822-DNA_C01.bam	40182cd1ea9fb24f8d94346b955063ea
GS00822-DNA_C06.bam	dc9790b085dc9f14bdc5400aeee3d054
GS00822-DNA_D07.bam	2bd8999c3daad728fd580c4e6f6638a1
GS00822-DNA_D11.bam	cab13c8a8114f94dfdf86a1cfd44e8b8
GS00822-DNA_E02.bam	c26c2eb7a2c73bb153082c079f0df6b8
GS00822-DNA_E04.bam	47756c9b21a4a8d9f604cc1aa07a784f
GS00822-DNA_F02.bam	2d85f3558b70e96625ffd73e10aa490d
GS00822-DNA_F05.bam	bdf1703e5815b526f7d91738e8519eb3
GS00822-DNA_G10.bam	656d4be63ad5ecdc45f5d9686c275ac4
GS00823-DNA_A04.bam	acb6f2714874b2e063fb118904e3904b
GS00823-DNA_D04.bam	f014b4dca4d140ef9a31cc2f17b22493
GS00823-DNA_E01.bam	6255d51fcfc899ed9405a42a192707ec
GS00823-DNA_E02.bam	730ac57aea615efdf89ef464f4ef87a9
GS00823-DNA_F05.bam	7c521c6de9c7e082d4dca210f2b5052a
GS00823-DNA_G02.bam	8f63e271b34ada63374f19ad270a7a52
GS00823-DNA_G03.bam	9472bf971bdf421c38d2e9dcf16e4d31
GS00823-DNA_G04.bam	02dced503f9ff66e36849bea7b652e5f
GS00823-DNA_G11.bam	d6c3c58b212d1a9e08e202caa5ae83c7
GS00823-DNA_H10.bam	e3f85827ef695cf5d8e52075d0d22705
GS00824-DNA_A05.bam	f781248924fa12a219981ab61d6d3003
GS00824-DNA_A06.bam	693145125b558f4295f72be8181f7fb3
GS00824-DNA_B01.bam	a313fb1e27b31fb29a9eb3e4c55ec48c
GS00824-DNA_B04.bam	edfc72ccd906da98dc13a14853fb57f3
GS00824-DNA_B09.bam	ceebead5170fe6d1b794f985fc12ac9d
GS00824-DNA_C05.bam	7a6bc1ce68d3f20074dfb7c5538f78ee
GS00824-DNA_D07.bam	7273645bbd36533c3174564742a97692
GS00824-DNA_D08.bam	403197d1cab8d3f04578e3b2dc37b616
GS00824-DNA_D10.bam	8c3708214e59528f8eecb699bdf5f658
GS00824-DNA_E04.bam	9bf4c7df7e892b8f9271d1757c1d4762
GS00824-DNA_E05.bam	608ee0858b0fae356f589bd433559ca3
GS00824-DNA_E08.bam	e2cb6ac2418fb962a9f60fccd0443a98
GS00824-DNA_E09.bam	2fbd6c49c45029c217f70d73514caddc
GS00824-DNA_F06.bam	bbed962be3c7338986901104fbc4cf0e
GS00824-DNA_F10.bam	293801af4b563892657c31d98a1b98e1
GS00824-DNA_F11.bam	8636da100d4969a464950c4069f23ba6
GS00824-DNA_H11.bam	b929629530c52e3e18ee85df09338957
GS00825-DNA_A01.bam	f9981bf4c7abc87639c47f56849e8565
GS00826-DNA_A10.bam	d987a786106cd067acd0609cb7a80875
GS00826-DNA_A11.bam	4a471d30152061f343549c848e967f55
GS00826-DNA_B07.bam	3ace4e00c6aa22010ae304c8277fddbe
GS00826-DNA_C01.bam	2865662396cd98465c3c91210e3be4db
GS00826-DNA_C06.bam	aff63e86567eaa67ce509a2a72269cdf
GS00826-DNA_C07.bam	2d8b4e5e6f437e95cab193d1e669b9b3
GS00826-DNA_C08.bam	076b9ed39dca3a404eb31bf790778f2a
GS00826-DNA_C10.bam	5f337f1496170ee5ffa62732be0dfe29
GS00826-DNA_C11.bam	a095f6a7984292d0cea363d8c662e80d
GS00826-DNA_D05.bam	50733ddb7d29a841aad96fbf10f95f1f
GS00826-DNA_D07.bam	7576bb94020b71b4a7a6c474351a4356
GS00826-DNA_E02.bam	eb0a1b529fa03b0d1217373dbce592eb
GS00826-DNA_E06.bam	919f521852df582f8b090d0b6d0283eb
GS00826-DNA_E07.bam	081551c1adf8a54c1300311285c74e8a
GS00826-DNA_E11.bam	c5dc3654cab2cc7f91d14b22641f25f5
GS00826-DNA_F06.bam	810d20c6f770b641577b68dc1026644b
GS00826-DNA_F07.bam	73948714be886ba6463ee97827cbdd35
GS00826-DNA_G01.bam	98884c67fdc2a45a6c14b183ac27b035
GS00826-DNA_G08.bam	be32d3e0be3c141e1b976fbe1a48cd18
GS00826-DNA_G11.bam	ad125c958e86ee64bb57d9d929d9fa5c
GS00826-DNA_H04.bam	3d0ca44242a781f347b88fb32e7a73de
GS00826-DNA_H08.bam	70c7d3f17beafe41cf3fa0aa9d381d0e
GS00827-DNA_B07.bam	98b97e08bb76043c2d470db55faceb91
GS00827-DNA_E01.bam	ea3e10ab35aa80f962c55ea80b4b1aad
GS00827-DNA_F01.bam	7062bb02ccd694981f6e6696c8456ef3
GS00828-DNA_A03.bam	a3166b4cdd221e9c6f93dbfe3bff023d
GS00828-DNA_B01.bam	7dfef9c00acccba7a4bf11450e2eec86
GS00828-DNA_C08.bam	2f94e92f42ce2af972be36eeae47ba3f
GS00828-DNA_C09.bam	2bc0a954dda1bd6d3923dff7b3afa74f
GS00828-DNA_D08.bam	5ae6b8624aa897a0ee31503825ed689b
GS00828-DNA_E01.bam	7ef2032c60a6d98c1802153ddbc59dc8
GS00828-DNA_E06.bam	e8e471c3d26a4f60c572d7333b3887a3
GS00828-DNA_F05.bam	bbfa8283db5c9482fbca1caed7dbd236
GS00828-DNA_G01.bam	af967f936e7caad4ba968065b507bcd3
GS00828-DNA_H09.bam	18a679c9c48c4d878d6416d4ecbdd370
GS00829-DNA_A02.bam	54322281b5ea47fcee27df06967a7a4f
GS00829-DNA_A09.bam	6a7f9f3939387bbd94dd2f3f972d0e08
GS00829-DNA_B08.bam	0df4f5cb33fd76ab6490ec8942997e0b
GS00829-DNA_B11.bam	02e8a35eec1cdd6ee55b70026b2a96e8
GS00829-DNA_C07.bam	2eba78a792cfc99a8b73f84f6d844e69
GS00829-DNA_C08.bam	cc80fd4984c6ecafcff7bc7613a32679
GS00829-DNA_D04.bam	dabd830ea16bd543fc0d26c3a8014e44
GS00829-DNA_E04.bam	05f3bcbafcc6104c00dd3f797d644c23
GS00829-DNA_E05.bam	3e6b033a4a7eab969a2d04f980a68e43
GS00829-DNA_E06.bam	b5177934b9e11019cae8672aad946237
GS00829-DNA_E11.bam	877bb83411c929300b2eee84cd5cbf82
GS00829-DNA_F02.bam	3d884e96706dc7369076d24e3b0d4a93
GS00829-DNA_F07.bam	5677870e7a5465ab2868b8e870fb5978
GS00829-DNA_H09.bam	d897327043eccf332edcaa71ad06038f
GS00830-DNA_A01.bam	459a4f1248804ce6fc0a72b774ed7aa2
GS00830-DNA_A03.bam	7a257e506ffdbdded37cc511c032b491
GS00830-DNA_B06.bam	a7305dd252aa1601beafe6ec19b9d1a6
GS00830-DNA_B11.bam	d7d2efed663a0227050ec3b5ec5d9561
GS00830-DNA_C10.bam	f26333dc06b97fc9c6dd4b7659ffe9da
GS00830-DNA_D05.bam	86175d2656232873f712658d0549896e
GS00830-DNA_E04.bam	3ced86b605167594da18c2686af86c6c
GS00830-DNA_E06.bam	fc7c5acdd2532847db86bc55a1f3c285
GS00830-DNA_E09.bam	225b271f235c0e29bda1c8a12cec18b6
GS00830-DNA_E10.bam	bbb9fec5f7b135ea9c1cc1ae22d41aed
GS00830-DNA_G01.bam	a09260d98e9e88db0f57fa3d540d9d6f
GS00830-DNA_G09.bam	5e2b8f25cd2b30ab94020e3db8d95124
GS00830-DNA_G10.bam	3a2694eff1c3c8ee4c2a050601cb57bb
GS00830-DNA_H09.bam	abeb57fa0824373157810c04cff2374b
GS00831-DNA_E01.bam	55139fa87246ca7ba68153fd7ae2ec67
GS00831-DNA_G01.bam	6662431e1e576d32b598eff0458b9f5e
GS01673-DNA_A01.bam	0b7743a8d239c7336357797e5f9ab728
GS01673-DNA_A04.bam	2131028dd3b02ec5cac0aee6029e25e7
GS01673-DNA_A11.bam	d066282d6845e91182ac68abf1dd1a90
GS01673-DNA_B02.bam	b7d0fa8a372316a376f9ec40ec8f0f01
GS01673-DNA_C04.bam	37ea2a28b3a051759ba20a46e3f09585
GS01673-DNA_D04.bam	dd92672d8e130ae634256d339b6fb196
GS01673-DNA_E08.bam	27893102b09942d4b420c2aa6490bd3c
GS01673-DNA_F04.bam	c207d65cf7eb682107ccb3170c61fe1d
GS01673-DNA_G01.bam	4a869960944426cee3139e710d2e96ba
GS01673-DNA_G07.bam	9ef69a28745c2ed446e4423ff4cca23f
GS01673-DNA_G09.bam	30b402c1792d059fe699540dec94653d
GS01673-DNA_H05.bam	31effba6363d6e52601bdf0e4fcc1743
GS01673-DNA_H07.bam	96f522c29301b3197381b50234e59859
GS01673-DNA_H10.bam	3e6f47056d431fae2fb5d6ede64723b5
GS01674-DNA_A07.bam	a5c0dd97ade54a50a83a80a2355a0e74
GS01674-DNA_A11.bam	d899fe3c7c499fb25b997f5ba89b617b
GS01674-DNA_B05.bam	a55d8f50a92b91abe656c385fce2a3f9
GS01674-DNA_B09.bam	6b66335bf91a3e8d0ffcc6c408f33ad0
GS01674-DNA_C03.bam	aa9154ae9186e108bd053348f5c2523c
GS01674-DNA_E05.bam	40ae617d4f5b94d689328713d32df265
GS01674-DNA_F03.bam	34d4c688f3840262570dc48991ac1ebe
GS01674-DNA_F07.bam	2a1c2398cb5e6f5c832ae73ee055003d
GS01674-DNA_G03.bam	1aef9c4a39fd13d99168ee0572d29838
GS01674-DNA_G04.bam	abee1e6a8a4d43decf772bd3b4ae2fd6
GS01674-DNA_G10.bam	b64a2e2446712cfc61d125dc8e2186dc
GS01676-DNA_E02.bam	dfc2eee3f6bb7c436093ea062343386b
GS01677-DNA_B01.bam	24a56e17d55086c972a3dace8902ca01
GS01678-DNA_F01.bam	970f7e620bf16977ef8fd84fe58b5089
GS01679-DNA_A02.bam	3b4f03e6646620bda3c4637b2179d0b5
GS01679-DNA_B02.bam	2548b91c25b52268e874cc38bf1ffa2e
GS01679-DNA_H01.bam	384d5982b2ca24eaef605549ef13a5aa
GS01681-DNA_B01.bam	c85f806fd850eec9ff61d8d5cc84afb5
GS01681-DNA_B07.bam	105352965f4298a1f4b1486fa65cd729
GS01681-DNA_C05.bam	32f03437f528062279a77afbb8549ff1
GS01681-DNA_C08.bam	759078145f5e9eaf88eaa753e5f100bf
GS01681-DNA_D04.bam	0fbda9b998a285e38d6f0f0850389418
GS01681-DNA_D08.bam	2c7a1b50b33354896dad853318ad4508
GS01681-DNA_F04.bam	056cc0c43b14d47b26e69f7249d3492a
GS01681-DNA_F07.bam	ba910053e7a6bd5bed3b8e426e6fa21b
GS01681-DNA_H01.bam	c5a6384bda8553686cc4dc05f8749874
GS01681-DNA_H04.bam	4496234211de28f1908140383d82b54a
GS01682-DNA_B02.bam	7c4eed2b48c9bff1045fafa43b98f24a
GS01682-DNA_G05.bam	570358f7999353dabc1dc90ec0fea263
GS01685-DNA_D01.bam	ea52f2c724d8bbeec3f2749d714c6812
GS00826-DNA_E03.bam	f045d9d3919c76f80eb3df7ad17b1b9c
