runAcc	exprAcc	sampleAcc	runSubmissionAcc	sraStatus	sraInfo	study	center	sampleBarcode	metadataState	metadataDesc	metadataGitId	downloadedState	downloadedDesc	cghubState	cghubDesc	analysisId	allRunAccs	allExprAccs	downloadedDir
SRR1006570	SRX185425	SRS301138	SRA058595	live	multiLiveExpr	TARGET (AML)	CompleteGenomics	TARGET-20-PASJGZ-14A-01D	error	noMetadata		ok	chromSplitBam	ok	notLoaded		SRR1006570,SRR1006571,SRR1006572,SRR1006573,SRR1006574,SRR1006575,SRR1006576,SRR1006577	SRX185425	master2/AML/TARGET-20-PASJGZ/normal_sample/TARGET-20-PASJGZ-14A-01D/SRX185425
SRR1057367	SRX398158	SRS190219	SRA122278	live		TARGET (WT)	BCM	TARGET-50-PALLCK-01A-01D	error	noMetadata		ok	singleBam	ok	notLoaded		SRR1057367	SRX398158	master2/WT/TARGET-50-PALLCK/tumor_sample/TARGET-50-PALLCK-01A-01D/SRX398158
SRR1057368	SRX398159	SRS190220	SRA122279	live		TARGET (WT)	BCM	TARGET-50-PALLCK-10A-01D	error	noMetadata		ok	singleBam	ok	notLoaded		SRR1057368	SRX398159	master2/WT/TARGET-50-PALLCK/normal_sample/TARGET-50-PALLCK-10A-01D/SRX398159
SRR529541	SRX171646	SRS270713	SRA058595	live		TARGET (AML)	CompleteGenomics	TARGET-20-PARDDY-14A-01D	error	noMetadata		error	partialChromSplitBam	ok	notLoaded		SRR529541,SRR529542,SRR529543,SRR529544,SRR529545,SRR529546,SRR529547	SRX171646	master/phs000218/AML/TARGET-20-PARDDY/unknown_sample_type/TARGET-20-PARDDY-14A-01D/SRX171646/SRR529541_processed
SRR851896	SRX278599	SRS160216	SRA043856	live		TARGET (ALL II)	BCM	TARGET-10-PAPLDL-04A-01D	error	noMetadata		ok	singleBam	ok	notLoaded		SRR327362,SRR563774,SRR851896	SRX089145,SRX278599	master/ALL_Expansion_Phase_2/TARGET-10-PAPLDL/tumor_sample/TARGET-10-PAPLDL-04A-01D/SRX278599
SRR851897	SRX278600	SRS160217	SRA043901	live		TARGET (ALL II)	BCM	TARGET-10-PAPLDL-10A-01D	error	noMetadata		ok	singleBam	ok	notLoaded		SRR327406,SRR563772,SRR851897	SRX089189,SRX278600	master/ALL_Expansion_Phase_2/TARGET-10-PAPLDL/normal_sample/TARGET-10-PAPLDL-10A-01D/SRX278600
