Submission	RunAccession	Filename	md5	SampleBarcode	GSC	ValidationStatus
004ad72b-213e-596d-a70b-64fde4b9ba08	SRR563992	TARGET-10-PASFXA-04A-01D_hg19_Illumina.bam	11adbc7ed0a17915f69d8dbe2397cda3	TARGET-10-PASFXA-04A-01D	BCM	OK
00843b44-de69-553e-b2b2-76a60db4fd96	SRR563589	TARGET-10-PARPRW-10A-01D_hg19_Illumina.bam	e92db2b0acc66568d8c57c90b292858c	TARGET-10-PARPRW-10A-01D	BCM	OK
00a0ed87-e85d-5cd0-893c-af57feec072f	SRR563876	TARGET-20-PANSBH-04A-01D_hg19_Illumina.bam	0487e851f2520506a703ec49cd17bac4	TARGET-20-PANSBH-04A-01D	BCM	OK
00b0437d-e40e-58ab-b23b-1dbaad74962d	SRR563878	TARGET-20-PARUNX-14A-01D_hg19_Illumina.bam	99d45ef1b2f5ce01af94921d3a0928f2	TARGET-20-PARUNX-14A-01D	BCM	OK
012d5773-6fe7-560a-a059-b555fdd5b066	SRR564090	TARGET-20-PARVUA-04A-01D_hg19_Illumina.bam	57075504f705775507b18dfd775d26d1	TARGET-20-PARVUA-04A-01D	BCM	OK
015d9987-4088-5eba-a805-983cb43d9d44	SRR566179	TARGET-50-PAJNGH-10A-01D_hg19_Illumina.bam	449e8e74b90af947f40fdb99d06eac57	TARGET-50-PAJNGH-10A-01D	BCM	OK
01859f98-a5c7-5457-bed9-772fd2358735	SRR1067878	TARGET-64-PPT015-60A-02D_Illumina.bam	f13c757f98f11f4c0fe5f319b324c085	TARGET-64-PPT015-60A-02D	BCM	OK
01baf73b-3ae0-5cfd-a309-894d0b4546a6	SRR1057341	TARGET-50-PAJLKR-01A-01D_Illumina.bam	77ccf4a2605b592fd09963d1599e0e58	TARGET-50-PAJLKR-01A-01D	BCM	OK
03b1da13-8bb0-5b1e-8b46-31b5fd00e878	SRR564085	TARGET-20-PATELT-10A-01D_hg19_Illumina.bam	aa4f31d5c9dc1b11a79aadf1c465af05	TARGET-20-PATELT-10A-01D	BCM	OK
03c18952-accf-516c-9423-7674d8256ea8	SRR1067786	TARGET-10-PPT097-60A-01D_Illumina.bam	532506b27c4c2cec34d72c4f15fbe648	TARGET-10-PPT097-60A-01D	BCM	OK
05d3ea34-5d52-577e-b9b9-ec9052477df4	SRR1067788	TARGET-10-PPT099-60A-01D_Illumina.bam	dbc9805b88b11732c25bc5c36c2e792b	TARGET-10-PPT099-60A-01D	BCM	OK
062c496b-1273-56e9-9eca-8d8342013697	SRR563777	TARGET-10-PASLZM-04A-01D_hg19_Illumina.bam	75cda9ce2d78f690bba3f5eca4cc8002	TARGET-10-PASLZM-04A-01D	BCM	OK
0682694a-f0aa-5157-9a1d-0b6971b0b160	SRR563771	TARGET-10-PAPLDL-03A-01D_hg19_Illumina.bam	1beff03ac9ab7b8b53b8d864e46358ce	TARGET-10-PAPLDL-03A-01D	BCM	OK
07596853-e3aa-5963-834a-9e86c85c4a8b	SRR1067795	TARGET-10-PPT106-60A-01D_Illumina.bam	78f945440b790c5900921703a406fd53	TARGET-10-PPT106-60A-01D	BCM	OK
0826858e-a708-5916-a70f-0526f4a2cbcd	SRR1067805	TARGET-30-PPT059-50A-01D_Illumina.bam	6ed87108bd4da294d8ba34e8b9b47e3a	TARGET-30-PPT059-50A-01D	BCM	OK
0838da33-6b94-5c45-97fc-5f8e44701ee5	SRR563982	TARGET-20-PANSBH-09A-01D_hg19_Illumina.bam	b9219c1b4f2ee38d3d4e035f32799742	TARGET-20-PANSBH-09A-01D	BCM	OK
098903b2-a4be-5357-a781-1d08c4f8ea41	SRR564045	TARGET-10-PAPNNX-04A-01D_hg19_Illumina.bam	4eaeebbe532426af81d22c17bb3aba29	TARGET-10-PAPNNX-04A-01D	BCM	OK
098fe074-23a4-5853-822c-cc66d363bce3	SRR1067842	TARGET-41-PPT038-61A-01D_Illumina.bam	a6d04668231276ccf11971f5cd35f8d6	TARGET-41-PPT038-61A-01D	BCM	OK
0b412328-3f31-500f-8667-d86a2d4b4df6	SRR1057350	TARGET-50-PAJMIZ-10A-01D_Illumina.bam	bd7bfa71d25998e680b88b36acf18fa1	TARGET-50-PAJMIZ-10A-01D	BCM	OK
0c04ff77-6e79-5c67-842a-abf0c5205734	SRR1067835	TARGET-40-PPT081-60A-01D_Illumina.bam	e56c7e0089563b0b213b855abdb7dc9b	TARGET-40-PPT081-60A-01D	BCM	OK
0c8ce00d-5bba-5924-be9e-65b78d4a08a6	SRR1057361	TARGET-50-PAKULH-01A-02D_Illumina.bam	4c1365cc6d3f4722742e6093b47d1f60	TARGET-50-PAKULH-01A-02D	BCM	OK
0cf167c2-49ee-58aa-9c60-07271da2cc85	SRR563639	TARGET-20-PARGVC-04A-01D_hg19_Illumina.bam	84ecf95b4c5e97d7e0fe038f749b8f51	TARGET-20-PARGVC-04A-01D	BCM	OK
0d7645aa-468b-51f0-9fb7-e0faa98419ea	SRR563989	TARGET-20-PATELT-09A-01D_hg19_Illumina.bam	272e4472da81ef71da0209ad9be2a62f	TARGET-20-PATELT-09A-01D	BCM	OK
0dee5acf-1eb5-56b2-951e-16dbf09d74c1	SRR1057345	TARGET-50-PAJLWT-01A-01D_Illumina.bam	8387e970e892e098b067f71f155194dd	TARGET-50-PAJLWT-01A-01D	BCM	OK
0e424057-4aae-500a-8e2f-c49a7cba5359	SRR564043	TARGET-10-PANTSM-03A-01D_hg19_Illumina.bam	597dec66d4068fb47d13ee25f44a70e7	TARGET-10-PANTSM-03A-01D	BCM	OK
0fa651a3-58d5-5747-b390-913f6392caed	SRR566154	TARGET-50-CAAAAR-01A-01D_hg19_Illumina.bam	8043f7e5dc1d16a4aaaffc4a3c806df1	TARGET-50-CAAAAR-01A-01D	BCM	OK
101d46ed-9327-596b-872b-bb038d6f49c4	SRR564074	TARGET-10-PASFXA-03A-01D_hg19_Illumina.bam	f5c29cfffea21146dcb5d3a4e584c7ed	TARGET-10-PASFXA-03A-01D	BCM	OK
11d841ff-4371-5e10-bc1e-949cf18d7b41	SRR563877	TARGET-20-PANTWV-09A-01D_hg19_Illumina.bam	e257f88dbfa8a5531d70f43bd1689cc9	TARGET-20-PANTWV-09A-01D	BCM	OK
136db446-7883-59ce-9854-86bf33f9900f	SRR1067846	TARGET-41-PPT041-61A-01D_Illumina.bam	b8deb6b1dc04a22d95a8634519af69ad	TARGET-41-PPT041-61A-01D	BCM	OK
14e35af8-747b-5356-b5e4-d317ffc784dc	SRR1067895	TARGET-80-PPT052-60A-01D_Illumina.bam	438b8db03c205cc4dc28fa6da0d58b12	TARGET-80-PPT052-60A-01D	BCM	OK
15b640fb-4483-508d-a963-a4a3068109f3	SRR1067817	TARGET-30-PPT117-50A-01D_Illumina.bam	071549571d2dfa32cc10bb3376540646	TARGET-30-PPT117-50A-01D	BCM	OK
167202e9-f0d3-56f1-9c04-3cd0688db27b	SRR563668	TARGET-10-PARFTR-04A-01D_hg19_Illumina.bam	bd8fac28404f702c79ea4cd3f6d0973a	TARGET-10-PARFTR-04A-01D	BCM	OK
169ab7ae-5936-5620-bc1e-95519745de67	SRR1067855	TARGET-52-PPT004-60A-01D_Illumina.bam	fe99915bf1ed96ef5be42c725fe4f8a8	TARGET-52-PPT004-60A-01D	BCM	OK
17308799-e097-5bd0-8cd0-63c5d6910d46	SRR564088	TARGET-10-PAPSPG-03A-01D_hg19_Illumina.bam	c26ceac339b2d024c1538d5522fe62a7	TARGET-10-PAPSPG-03A-01D	BCM	OK
183abd9b-8d81-5705-ae87-fe7fbac214f4	SRR563884	TARGET-20-PATABB-09A-01D_hg19_Illumina.bam	7b9d75b158e2f642207125feb55c8b1d	TARGET-20-PATABB-09A-01D	BCM	OK
185c9731-1617-5880-b1e1-f74817d778c2	SRR564018	TARGET-20-PAKKBK-09A-01D_hg19_Illumina.bam	9d83ee9d55eb3bcf5200f96a5ff5453c	TARGET-20-PAKKBK-09A-01D	BCM	OK
1b94b7f1-933a-597c-9f56-d4a8c41c6923	SRR1066852	TARGET-30-PAMYEF-50.2A-01D_Illumina.bam	a83a06c0822ce7b68fc99353c8b874ef	TARGET-30-PAMYEF-50.2A-01D	BCM	OK
1bd91845-f074-59b4-b8a3-233151881a2d	SRR1067818	TARGET-30-PPT118-50A-01D_Illumina.bam	421927f156d439ec0584820ed4e98b4d	TARGET-30-PPT118-50A-01D	BCM	OK
1c788b61-e5d3-5090-afbd-ced43e025e95	SRR566213	TARGET-50-PALFME-11A-01D_hg19_Illumina.bam	6c88516cc8e83082cb2ba34f27ae8754	TARGET-50-PALFME-11A-01D	BCM	OK
1d2babcb-e1a1-5e91-921d-6916dc6ff232	SRR1066842	TARGET-30-NAABZL-50.2A-01D_Illumina.bam	04b262dfd144f87a4a76dd1ebe16c6e0	TARGET-30-NAABZL-50.2A-01D	BCM	OK
1dbdfa8b-2509-5dda-a7df-f8ff47fa65e7	SRR1057337	TARGET-50-PAEAFB-01A-01D_Illumina.bam	9bed3e3784ad937f468c411a2e55bfbc	TARGET-50-PAEAFB-01A-01D	BCM	OK
1e002d81-1c83-5eca-82da-345c320647d3	SRR563943	TARGET-10-PARAKF-03A-01D_hg19_Illumina.bam	89f9c6099ad426b82973b1033bff180b	TARGET-10-PARAKF-03A-01D	BCM	OK
1e879fb6-2747-5a64-82af-683bbd624105	SRR1067955	TARGET-80-PPT045-50A-01D_Illumina.bam	ba337d65ea84d1e30105a39491851dc8	TARGET-80-PPT045-50A-01D	BCM	OK
20750464-89f5-5b79-816f-490da191c12c	SRR1067778	TARGET-10-PPT088-60A-01D_Illumina.bam	76226f08555e5fd5374249563b8f433a	TARGET-10-PPT088-60A-01D	BCM	OK
20fa1fbb-605a-599b-b9fb-88773eb33707	SRR566192	TARGET-50-PAJMSE-10A-01D_hg19_Illumina.bam	df385bfb3a07c74d58915b3bbfc815dc	TARGET-50-PAJMSE-10A-01D	BCM	OK
215ae26a-ab4c-5607-b34a-db8c63942724	SRR1066835	TARGET-30-NAABZK-13A-01D_Illumina.bam	e6ecd34954fc0052b6d1b6e32f1c0cfa	TARGET-30-NAABZK-13A-01D	BCM	OK
21c1c38a-980e-56b7-9981-7785c9102e16	SRR1067834	TARGET-40-PPT080-60A-01D_Illumina.bam	be390c6e83315737b1a952650ec3af92	TARGET-40-PPT080-60A-01D	BCM	OK
2227b2f2-2471-5dd2-8e16-201fa609f448	SRR563774	TARGET-10-PAPLDL-10A-01D_hg19_Illumina.bam	c35548240c7c5401fc7db2db348546e9	TARGET-10-PAPLDL-04A-01D	BCM	OK
22be71fe-b3d9-5176-b15d-0baa5f1ad327	SRR566200	TARGET-20-PASRTP-04A-01D_hg19_Illumina.bam	0766843373994c16585b493e2406e300	TARGET-20-PASRTP-04A-01D	BCM	OK
23852606-b53c-53ee-8a07-8fbad8dbc94c	SRR1067853	TARGET-52-PPT002-60A-01D_Illumina.bam	8a8ab89b43aa02fd8a92afa5cbe5a8d5	TARGET-52-PPT002-60A-01D	BCM	OK
253042a7-a2a1-5719-9513-bb459c0ec5bd	SRR1057363	TARGET-50-PAKYLT-01A-01D_Illumina.bam	f41ae8740b83fca735b0bc6186ec9760	TARGET-50-PAKYLT-01A-01D	BCM	OK
26b26ddc-4b80-5fc1-b848-d61043085dd6	SRR563776	TARGET-10-PAPZNK-03A-01D_hg19_Illumina.bam	a39477547542fb484fb2dddde889ee44	TARGET-10-PAPZNK-03A-01D	BCM	OK
28200fa7-3042-5657-82ff-5bf54bd27414	SRR564020	TARGET-20-PASRTP-09A-01D_hg19_Illumina.bam	bef20dd9fb968ce63fb9e0d26bc1f53b	TARGET-20-PASRTP-09A-01D	BCM	OK
285b43a8-7d61-5a97-94e4-d61b861af07e	SRR566172	TARGET-50-PAJNGH-01A-01D_hg19_Illumina.bam	be431718921f2650234ec5a151a55ebd	TARGET-50-PAJNGH-01A-01D	BCM	OK
288b8346-ca53-512a-95ba-b95cc83f7fbf	SRR1067845	TARGET-41-PPT040-61A-01D_Illumina.bam	270698ad8533e45539c933ea8e692b2c	TARGET-41-PPT040-61A-01D	BCM	OK
295bb800-518d-5e12-92e9-ebbba5285493	SRR1067827	TARGET-40-PPT072-60A-01D_Illumina.bam	b65ef3a7e26a36035e9bdb22fcb6d9fc	TARGET-40-PPT072-60A-01D	BCM	OK
296747f5-fd80-5f36-a461-b73fb69a5dea	SRR1067828	TARGET-40-PPT073-60A-01D_Illumina.bam	ea0e569ff0f9c72afbed5c099d765196	TARGET-40-PPT073-60A-01D	BCM	OK
29f4c7d7-d4c3-5d7a-9e5b-6397433107f8	SRR564075	TARGET-10-PARIAD-10A-01D_hg19_Illumina.bam	6fb73d276b5b0e9c18d4311924eb55b0	TARGET-10-PARIAD-10A-01D	BCM	OK
2a4a3a41-d42a-536f-840b-83f121cca428	SRR1067847	TARGET-41-PPT112-50A-01D_Illumina.bam	2f96d1984a3fa2a76a5c909c0c867c71	TARGET-41-PPT112-50A-01D	BCM	OK
2a5e4a19-5206-5a82-833e-5bf2377adae2	SRR1067819	TARGET-30-PPT119-50A-01D_Illumina.bam	158ef3fd0e5e12065d628613894f0721	TARGET-30-PPT119-50A-01D	BCM	OK
2acd3b5b-2f70-5ff5-85c6-f9cc2a553710	SRR1067875	TARGET-64-PPT009-60A-01D_Illumina.bam	589e5cb8ee3f6a7785e36cc90251678d	TARGET-64-PPT009-60A-01D	BCM	OK
2ba13b24-5c79-5e03-b34f-2bb58be7c754	SRR566155	TARGET-50-CAAAAR-10A-01D_hg19_Illumina.bam	993308eb68534c2c9d579261571191a5	TARGET-50-CAAAAR-10A-01D	BCM	OK
2cdcdbe6-24a1-5067-a2c4-9ca8c932b36d	SRR1057355	TARGET-50-PAJPCM-01A-01D_Illumina.bam	b4597a89700ea8a5bccaaf38a6dc10ee	TARGET-50-PAJPCM-01A-01D	BCM	OK
2ead4f4c-bb04-595c-8111-cb13591983a2	SRR1067833	TARGET-40-PPT079-60A-01D_Illumina.bam	95cc596e1432e977c0fd682fc2c0a9a4	TARGET-40-PPT079-60A-01D	BCM	OK
2ed1ada2-82bc-5742-8564-87b324e13976	SRR566185	TARGET-50-PAJNTJ-02A-01D_hg19_Illumina.bam	9812aee38d0f20e658839f844d047984	TARGET-50-PAJNTJ-02A-01D	BCM	OK
303687e9-93cf-52e6-8c18-6d371e5ad220	SRR1067775	TARGET-10-PPT085-60A-01D_Illumina.bam	34dc7377e58916072dc0d9e2fc7757a5	TARGET-10-PPT085-60A-01D	BCM	OK
31559d51-f4f4-5609-9f38-82aff7548697	SRR1067822	TARGET-40-PPT068-60A-01D_Illumina.bam	b7965a62043c38cc2f664d25ad182da9	TARGET-40-PPT068-60A-01D	BCM	OK
32a41b95-b7ac-52e9-8329-09d1a1ccadd6	SRR563775	TARGET-10-PASLZM-10A-01D_hg19_Illumina.bam	69293c6cb94978f9fa1bd719bbef088c	TARGET-10-PASLZM-10A-01D	BCM	OK
3346e122-42cb-5a6c-ae34-19a83d1ea1f7	SRR566198	TARGET-50-PALGLU-01A-01D_hg19_Illumina.bam	dfb5ca9fbe29e309aa4ffe4c7d079f22	TARGET-50-PALGLU-01A-01D	BCM	OK
345b68b6-12f0-5dda-829f-485ba0ad5e67	SRR566176	TARGET-20-PAMYAS-09A-01D_hg19_Illumina.bam	b74ed4bae83de59aeced83bf88a34033	TARGET-20-PAMYAS-09A-01D	BCM	OK
35a90619-d886-5ba5-b6a1-9987fada8c0f	SRR1067876	TARGET-64-PPT012-60A-01D_Illumina.bam	588c633ba8d53347d25d3b9aaf4d128a	TARGET-64-PPT012-60A-01D	BCM	OK
35dd2221-2b42-5fbb-b880-051ecd4364d1	SRR563640	TARGET-20-PARIEG-09A-01D_hg19_Illumina.bam	7153e646c1380e38c1b4885d1c9ac6f4	TARGET-20-PARIEG-09A-01D	BCM	OK
36de3b1d-3992-564a-8889-f9cb5ba1bea3	SRR1067843	TARGET-41-PPT039-50A-01D_Illumina.bam	d1d8f0da5d1bd007db9d8a264e7159ef	TARGET-41-PPT039-50A-01D	BCM	OK
37e488cb-b5a9-52a1-b1d4-594380f48b77	SRR1067806	TARGET-30-PPT059-61A-01D_Illumina.bam	d2f12a52ca3a05a38a29cfaa180657ff	TARGET-30-PPT059-61A-01D	BCM	OK
382724b0-528a-5e16-a892-34e53edec2a0	SRR566212	TARGET-50-PALFME-02A-01D_hg19_Illumina.bam	d05eba14778bb85721e8ac0e1ffc3a4c	TARGET-50-PALFME-02A-01D	BCM	OK
3a4d8010-2d78-526e-9ecb-0c03bb0069d9	SRR564080	TARGET-20-PANVGP-09A-01D_hg19_Illumina.bam	f8a1e49e7f0ccb8d35b47fa2d415f014	TARGET-20-PANVGP-09A-01D	BCM	OK
3af6e377-7d13-5878-aae8-ea9cc73c0a7a	SRR566175	TARGET-10-PASKAY-10A-01D_hg19_Illumina.bam	b777bfea99b7351ec429b96969cff2b8	TARGET-10-PASKAY-10A-01D	BCM	OK
3aff8239-03aa-5dc1-9b8e-db5f7a9e2660	SRR563942	TARGET-10-PASKAY-04A-01D_hg19_Illumina.bam	ebcc8c7efee201795cdae30e7b1701a1	TARGET-10-PASKAY-04A-01D	BCM	OK
3bbf59cf-a73f-5889-b53c-fa80b6e4f2d6	SRR1057344	TARGET-50-PAJLNJ-11A-01D_Illumina.bam	17425ba90a0028f614d294941738fbf4	TARGET-50-PAJLNJ-11A-01D	BCM	OK
3bea46d6-d3f4-5703-b902-e24ab4fb63ee	SRR1057353	TARGET-50-PAJPAR-01A-01D_Illumina.bam	061b0a5a389e7704d6eb47b744c5e848	TARGET-50-PAJPAR-01A-01D	BCM	OK
3c5d4253-b443-530b-84ca-cd27de1b9430	SRR566556	TARGET-50-PAJNLT-01A-01D_hg19_Illumina.bam	feecd7f412d1840177355a86fbec0546	TARGET-50-PAJNLT-01A-01D	BCM	OK
3cc78ebd-f8e1-5bac-868c-5da0a4e6f529	SRR566169	TARGET-50-PAJNLT-10A-01D_hg19_Illumina.bam	8dc7b3c9619ba6bced1d98c79170ddc4	TARGET-50-PAJNLT-10A-01D	BCM	OK
3cd66c41-bdf8-5132-bcec-0b4857ee218b	SRR566196	TARGET-50-PAJNRH-10A-01D_hg19_Illumina.bam	e48583a9d66aefdfb0cfe5524f92ec14	TARGET-50-PAJNRH-10A-01D	BCM	OK
3e6ff983-84c7-5960-9e95-2c41e9c079ba	SRR563638	TARGET-20-PAKKBK-14A-01D_hg19_Illumina.bam	03c644a18fc17e1a9b85c25a8494f237	TARGET-20-PAKKBK-14A-01D	BCM	OK
3f23803e-1e4f-5016-a5a0-2e4225adb108	SRR566161	TARGET-50-CAAAAP-01A-01D_hg19_Illumina.bam	bf8778a77f6259a3fb59f02d4a96df44	TARGET-50-CAAAAP-01A-01D	BCM	OK
3f3be489-2fb9-59eb-af5c-54b7e934960d	SRR1057351	TARGET-50-PAJNNC-01A-01D_Illumina.bam	51b79985013a3dc2ab7e28ce11f02d4b	TARGET-50-PAJNNC-01A-01D	BCM	OK
41121ca4-f347-5aa5-bda0-439eec53ede0	SRR1067830	TARGET-40-PPT076-60A-01D_Illumina.bam	c19ee2f593b54a7941a0787cd9acb639	TARGET-40-PPT076-60A-01D	BCM	OK
426f3c7e-2c52-5b5c-84c9-b5f4eaef0936	SRR1067789	TARGET-10-PPT100-60A-01D_Illumina.bam	0c6fe95f359110d1406911e239b3eeea	TARGET-10-PPT100-60A-01D	BCM	OK
42e7fbcf-8677-5a2e-bb4b-754daf76d2b1	SRR1066856	TARGET-30-PASXWX-50.2A-01D_Illumina.bam	b2ab77ed3d4a1b15a9524ef3aaa0144e	TARGET-30-PASXWX-50.2A-01D	BCM	OK
43acdef3-8abc-5326-b70c-166b12629235	SRR1067958	TARGET-80-PPT045-60A-01D_Illumina.bam	64b9bdf5d115c6dc9b99724e1aa52d0b	TARGET-80-PPT045-60A-01D	BCM	OK
43fd6436-34fe-50e2-81ba-e7f45792d30e	SRR1067862	TARGET-61-PPT020-61A-01D_Illumina.bam	a6752be736c592441224f69009daaac0	TARGET-61-PPT020-61A-01D	BCM	OK
4473be0d-80e9-5e83-b1b4-d5ba7d5240ab	SRR1067840	TARGET-41-PPT037-61A-01D_Illumina.bam	d76097facb76425a0692a6211ae9b7a7	TARGET-41-PPT037-61A-01D	BCM	OK
45112881-867d-51ad-a58e-76a0527479ce	SRR1067897	TARGET-80-PPT055-60A-01D_Illumina.bam	357282c2b84d901eb1d50e2f777fee87	TARGET-80-PPT055-60A-01D	BCM	OK
46430dd8-1653-5aae-9d56-71cc1c5409af	SRR1057359	TARGET-50-PAKPDF-01A-01D_Illumina.bam	3f443a8ca06d200396e62513a3f3ff25	TARGET-50-PAKPDF-01A-01D	BCM	OK
466f40ef-6dc3-52f0-9b3f-7cb88f2bb4cf	SRR563669	TARGET-20-PASCGC-03A-01D_hg19_Illumina.bam	8dd5d7e92a31263392b7331164e23ca7	TARGET-20-PASCGC-03A-01D	BCM	OK
472b1f10-637f-54fa-82c3-cbcda1fe6515	SRR1067864	TARGET-61-PPT021-61A-01D_Illumina.bam	df21c9e0c7bfb10a524ca21f1fa37c01	TARGET-61-PPT021-61A-01D	BCM	OK
4880cc32-b56c-5091-8f3b-c93f495886ee	SRR1057343	TARGET-50-PAJLNJ-01A-01D_Illumina.bam	97347818d5b2adc1053d629be8079e6c	TARGET-50-PAJLNJ-01A-01D	BCM	OK
4883e208-967b-58e3-817c-a9db1dcffa16	SRR567926	TARGET-50-PAKXXF-10A-01D_hg19_Illumina.bam	56550e5b6f7b6ce304aea7b6fd917be0	TARGET-50-PAKXXF-10A-01D	BCM	OK
49b1bab7-4416-5625-ba3c-d128055cdd7a	SRR1066831	TARGET-30-NAABZJ-01A-01D_Illumina.bam	efc026805052451e56ce246c396157e9	TARGET-30-NAABZJ-01A-01D	BCM	OK
4af7a936-0820-5a07-9698-21f5c8b3e34e	SRR563908	TARGET-20-PAEEYP-09A-01D_hg19_Illumina.bam	5caacbc097c82831a967d5a1e055190a	TARGET-20-PAEEYP-09A-01D	BCM	OK
4e010e31-484c-5415-8bc6-ab069d6dfd75	SRR1067820	TARGET-30-PPT120-50A-01D_Illumina.bam	1198b46b2dac2739ad2bc9eb75736c23	TARGET-30-PPT120-50A-01D	BCM	OK
4e658b8a-601e-5f04-a905-a28910c3f1ac	SRR564082	TARGET-20-PARUCB-14A-01D_hg19_Illumina.bam	38bcfaa88dbea5eec15f876681de6a04	TARGET-20-PARUCB-14A-01D	BCM	OK
4f5b05bd-c06b-515f-ae87-8a7b6a46ab4a	SRR563747	TARGET-20-PANGTF-09A-01D_hg19_Illumina.bam	f3ae23c92ab7890b094e0808f7bd3e4d	TARGET-20-PANGTF-09A-01D	BCM	OK
4fdd54f9-11dc-5022-bbc2-e998248cee15	SRR1057362	TARGET-50-PAKULH-10A-01D_Illumina.bam	aae6424ce5f5a2b7be5e5fe35111ba53	TARGET-50-PAKULH-10A-01D	BCM	OK
50161aac-1243-5e89-90e5-9ec561f33628	SRR566207	TARGET-50-PAJNUP-10A-01D_hg19_Illumina.bam	d5d0a373f29cd99a0afb8b0f79297ccd	TARGET-50-PAJNUP-10A-01D	BCM	OK
511b006a-b1c7-50a6-9784-6593162e5d99	SRR563944	TARGET-10-PARJZZ-04A-01D_hg19_Illumina.bam	5f85840216f2d16f42efae793777ec29	TARGET-10-PARJZZ-04A-01D	BCM	OK
5193ca62-aee1-5c4d-b959-55c988d3da3b	SRR1067811	TARGET-30-PPT062-61A-01D_Illumina.bam	0c8a2f00b17fe36b0393fa875936dee0	TARGET-30-PPT062-61A-01D	BCM	OK
521d5c1b-c1ef-5e65-9ff1-aff04ed42b65	SRR1067837	TARGET-40-PPT084-60A-01D_Illumina.bam	7e8db4f07d8808812fbc0129ea3e000e	TARGET-40-PPT084-60A-01D	BCM	OK
52dad89e-2825-5f02-a134-a75c902feca8	SRR1057335	TARGET-50-CAAAAA-01A-01D_Illumina.bam	9973e0970b093a341f2e3663fc0ea306	TARGET-50-CAAAAA-01A-01D	BCM	OK
5307eeb0-1c5b-5970-8a00-2d7a5989ce64	SRR564139	TARGET-10-PARJZZ-10A-01D_hg19_Illumina.bam	f51592a105552de977962b91a2813a3b	TARGET-10-PARJZZ-10A-01D	BCM	OK
542abf5b-f3de-5cad-893b-1d39a0ffd1e2	SRR563886	TARGET-20-PATABB-14A-01D_hg19_Illumina.bam	9c0e4d03239dfc0cd6ab83e2f80b8549	TARGET-20-PATABB-14A-01D	BCM	OK
54732fe7-a540-549e-a086-54222158e4a7	SRR1067856	TARGET-52-PPT028-60A-01D_Illumina.bam	326f24c8063c94e9483f80704d072904	TARGET-52-PPT028-60A-01D	BCM	OK
54bacf18-79c7-5e4c-95a5-fc10b557c6ab	SRR1066838	TARGET-30-NAABZK-50.3A-01D_Illumina.bam	d8e75515aa6f30fac479ddc57ea14197	TARGET-30-NAABZK-50.3A-01D	BCM	OK
55650764-97a5-514c-8e4f-fd5b3920494f	SRR563635	TARGET-10-PARFTR-10A-01D_hg19_Illumina.bam	09c67188212451b7be4b96104cd2e5a7	TARGET-10-PARFTR-10A-01D	BCM	OK
556831f7-7c15-5221-8063-4b08ce3ebe20	SRR1067799	TARGET-10-PPT122-50A-01D_Illumina.bam	7dad1399760b7badda8bce2ed8a0f150	TARGET-10-PPT122-50A-01D	BCM	OK
55b0836c-333f-55bf-a929-872d5d792d10	SRR566171	TARGET-50-PAJNGH-02A-01D_hg19_Illumina.bam	5ec8b14a542c5dff360924e722b6de95	TARGET-50-PAJNGH-02A-01D	BCM	OK
55c35ab8-b046-55c9-a7f1-d6a9b378d07b	SRR1067803	TARGET-20-PPT127-50A-01D_Illumina.bam	ce90ed0617887f2bd18e355ff96bc6d1	TARGET-20-PPT127-50A-01D	BCM	OK
56029496-e1bb-550b-97c2-dbb392acd508	SRR1067893	TARGET-80-PPT050-60A-01D_Illumina.bam	43dd2046cc66a412f523416ff9988fd3	TARGET-80-PPT050-60A-01D	BCM	OK
567dff3a-ceb0-5d7b-8820-81a905911550	SRR1067792	TARGET-10-PPT103-60A-01D_Illumina.bam	8b4bc8514a1a1c6fb534dce54c887423	TARGET-10-PPT103-60A-01D	BCM	OK
5702aad7-ce17-5bb6-b1ea-f86417f2d4b2	SRR566160	TARGET-50-PAJMKN-10A-01D_hg19_Illumina.bam	2a66dcddc3237d9065ad043b8ba31219	TARGET-50-PAJMKN-10A-01D	BCM	OK
570ea64f-d068-5e65-b649-de717188be62	SRR568026	TARGET-20-PANLIZ-09A-01D_hg19_Illumina.bam	8fcc86f13d371a46647d808729a16679	TARGET-20-PANLIZ-09A-01D	BCM	OK
576192f8-1c43-53c4-b8f0-41545667e6e9	SRR567921	TARGET-50-PAJNVX-10A-01D_hg19_Illumina.bam	a3c104813f653e5deadd3679a3ac80e1	TARGET-50-PAJNVX-10A-01D	BCM	OK
57c8ec50-7be0-5f93-856c-44c8255b3643	SRR564046	TARGET-10-PAPSPN-10A-01D_hg19_Illumina.bam	4e5abf19c6cee6116c871c2194bf3b33	TARGET-10-PAPSPN-10A-01D	BCM	OK
586587d2-c971-564e-861a-6cbac902d4a2	SRR563579	TARGET-10-PANTSM-14A-01D_hg19_Illumina.bam	3aca6cf063575c40151080928299e97d	TARGET-10-PANTSM-14A-01D	BCM	OK
588bd50e-363d-5a37-8dbd-461d5b002545	SRR566165	TARGET-50-PADXAY-10A-01D_hg19_Illumina.bam	6299f6e23c9df83ba115a9a51c6d5e69	TARGET-50-PADXAY-10A-01D	BCM	OK
58add5a9-c0a6-5036-ac48-0abf07a95d52	SRR563911	TARGET-10-PASLZM-03A-01D_hg19_Illumina.bam	0287f67b5744e67506c2a1201d2360e9	TARGET-10-PASLZM-03A-01D	BCM	OK
592df28a-6496-5d85-9c10-20cabfe4c169	SRR566206	TARGET-50-PAJMSE-01A-01D_hg19_Illumina.bam	0affc3c25504e686709589b4b0f1accd	TARGET-50-PAJMSE-01A-01D	BCM	OK
5a30777b-cc4e-52d8-9424-4d7b5852c0da	SRR1067962	TARGET-80-PPT048-60A-01D_Illumina.bam	32cf173d257c7cfe292990fe188ceb96	TARGET-80-PPT048-60A-01D	BCM	OK
5cf2fb18-a2b7-5d33-93a2-0e6efa8594c4	SRR566214	TARGET-50-PAJNVE-01A-01D_hg19_Illumina.bam	a2d33204c911f4374ccd51af86646704	TARGET-50-PAJNVE-01A-01D	BCM	OK
5d27eea0-b1d3-5638-8e03-3053ea63c256	SRR1066841	TARGET-30-NAABZL-50.1A-01D_Illumina.bam	bde636ce0555049f65e7a22d80bb5c70	TARGET-30-NAABZL-50.1A-01D	BCM	OK
5e701b64-d7ed-5c38-a3cb-91cc9ec727e5	SRR1067821	TARGET-40-PPT067-60A-01D_Illumina.bam	764be9b154d4d1fc8f37a0ca40864c1e	TARGET-40-PPT067-60A-01D	BCM	OK
5ed41d47-b8d3-5ca4-8801-0746a1f5adbf	SRR563913	TARGET-10-PARIAD-04A-01D_hg19_Illumina.bam	8daf217cd14f19f1e5fd8897d0961ad0	TARGET-10-PARIAD-04A-01D	BCM	OK
5f60134f-267b-589b-86a5-cc93c491153c	SRR1067796	TARGET-10-PPT107-60A-01D_Illumina.bam	47d0eccd767d6d9b9055783b2c335946	TARGET-10-PPT107-60A-01D	BCM	OK
5feda77a-8fc6-5d23-aa25-3905a9e39fa0	SRR567928	TARGET-50-PAKXXF-01A-01D_hg19_Illumina.bam	42081162cc391c81fdf19fb40ccc346d	TARGET-50-PAKXXF-01A-01D	BCM	OK
602e99ce-8e98-5532-9749-9c2b77401677	SRR566177	TARGET-10-PAKSWW-60A-01D_hg19_Illumina.bam	fdaf0c9f1f6f935ecf33175c481f12fa	TARGET-10-PAKSWW-60A-01D	BCM	OK
603b55c0-bcac-590e-9f98-429a97c1527f	SRR564081	TARGET-20-PARUCB-09A-01D_hg19_Illumina.bam	02182c180076e7003e1a717daa351082	TARGET-20-PARUCB-09A-01D	BCM	OK
6093d239-2402-5e08-91cf-46ab6676bb24	SRR564138	TARGET-10-PAPEFH-04A-01D_hg19_Illumina.bam	a2a6abb17126e6c2ce77a1d688f4f8e1	TARGET-10-PAPEFH-04A-01D	BCM	OK
6159374c-e250-56cb-a400-ccbc9bcc5a57	SRR1067869	TARGET-62-PPT006-60A-01D_Illumina.bam	bae41974dcf9758ef78d954356d44f49	TARGET-62-PPT006-60A-01D	BCM	OK
615d4f85-6060-5de0-b99d-d7cc94663eb6	SRR566173	TARGET-50-PAKKNS-01A-01D_hg19_Illumina.bam	5ac60bf88445c698c83b07a0e83855be	TARGET-50-PAKKNS-01A-01D	BCM	OK
61a0e55e-fd58-52d1-b441-59fa600c83ff	SRR564047	TARGET-10-PASKAY-03A-01D_hg19_Illumina.bam	c6998bcbbbd9cd6c859a76f83c991bdc	TARGET-10-PASKAY-03A-01D	BCM	OK
63ff95bc-1135-581f-9cc2-0c12facbe1f9	SRR567927	TARGET-50-PAJMLZ-10A-01D_hg19_Illumina.bam	1fb232afeca89f0e3c380a1ace86532f	TARGET-50-PAJMLZ-10A-01D	BCM	OK
64ff8d71-d80e-50db-982d-6c34b4dbeac9	SRR1067858	TARGET-60-PPT030-60A-01D_Illumina.bam	476b28e1632331fc700572c983b86b68	TARGET-60-PPT030-60A-01D	BCM	OK
651560a2-42bb-5297-8916-f33cd1df3d5a	SRR1067777	TARGET-10-PPT087-60A-02D_Illumina.bam	e44806f1b555cb438680b9350aba6fe1	TARGET-10-PPT087-60A-02D	BCM	OK
6542b6ef-294c-5419-8d2a-3a68c17c7112	SRR566162	TARGET-50-PADZUB-01A-01D_hg19_Illumina.bam	5f2d9b1cf22a753aead9e40ad33bd198	TARGET-50-PADZUB-01A-01D	BCM	OK
66216fb7-337c-569d-be0b-c036fec8b443	SRR1057357	TARGET-50-PAKFYV-01A-01D_Illumina.bam	bd7853fddf2b092d12316065e9ea04dc	TARGET-50-PAKFYV-01A-01D	BCM	OK
6674c6da-3e68-5ba2-a1c9-1d0426e329ff	SRR1057346	TARGET-50-PAJLWT-10A-01D_Illumina.bam	80930e5ac25cb8b1b424825b007ff472	TARGET-50-PAJLWT-10A-01D	BCM	OK
667da774-6909-57a4-ab39-d4c8f78d3290	SRR1066847	TARGET-30-NAABZN-50.1A-01D_Illumina.bam	3feb4d25e3c61721c166c53cec2235a1	TARGET-30-NAABZN-50.1A-01D	BCM	OK
67ceeff0-07e4-52d1-ad02-502299939d49	SRR566166	TARGET-50-PADZUB-10A-01D_hg19_Illumina.bam	25512746cb6c76efb8aac05ac700e90d	TARGET-50-PADZUB-10A-01D	BCM	OK
6926abed-3a69-54fe-82bf-c3c363c22b01	SRR1057338	TARGET-50-PAEAFB-10A-01D_Illumina.bam	41be40f8509b2eb304e96540c313cb9c	TARGET-50-PAEAFB-10A-01D	BCM	OK
697178d5-f191-5caf-a6b7-c0f4a75c5d63	SRR1057368	TARGET-50-PALLCK-10A-01D_Illumina.bam	c3685b606186c004185b800123749c71	TARGET-50-PALLCK-10A-01D	BCM	OK
6988d4f7-c1cd-515c-8583-add4368d49cb	SRR563983	TARGET-20-PAERAH-04A-01D_hg19_Illumina.bam	0ef76ea4685a08522ccb9b5da42c3ebf	TARGET-20-PAERAH-04A-01D	BCM	OK
69dc1a3a-e08c-52c4-9cbe-7b55128178d5	SRR1067881	TARGET-70-PPT129-50A-01D_Illumina.bam	be2d4a0449005853074fdea38304973e	TARGET-70-PPT129-50A-01D	BCM	OK
69de3b7f-8398-52d0-9067-175d5f25056f	SRR566197	TARGET-50-PAKECR-11A-01D_hg19_Illumina.bam	fd4388165ad8522e75d8dc83b9e2f1bb	TARGET-50-PAKECR-11A-01D	BCM	OK
69e180e5-f1d0-586f-8f08-512cd50de9ce	SRR1067886	TARGET-80-PPT043-50A-01D_Illumina.bam	621129008a8e277fec46b25bf0e7ebb7	TARGET-80-PPT043-50A-01D	BCM	OK
6ad5f039-f46b-5786-b753-73c5cf08c264	SRR1067880	TARGET-65-PPT034-60A-01D_Illumina.bam	66b403ab4cf1b063596b1f73e0c87022	TARGET-65-PPT034-60A-01D	BCM	OK
6b1be4f8-dc82-5b88-b7cd-9f36b49d6cf9	SRR564872	TARGET-10-PARBRK-04A-01D_hg19_Illumina.bam	86024242d1d69c586e95341f60606d55	TARGET-10-PARBRK-04A-01D	BCM	OK
6b6dc396-f3c5-5664-877d-31306db4cd4e	SRR1067877	TARGET-64-PPT013-60A-01D_Illumina.bam	079f7a4fef86482cabe3049bb257c431	TARGET-64-PPT013-60A-01D	BCM	OK
6bb6df84-62d4-5246-8c1a-3309919dbea6	SRR563945	TARGET-10-PARPNM-03A-01D_hg19_Illumina.bam	08c5bbcac63145639c6bf38cb3b3fd68	TARGET-10-PARPNM-03A-01D	BCM	OK
6c354c40-c618-511c-8790-456bdfa09d1e	SRR1057348	TARGET-50-PAJMEP-11A-01D_Illumina.bam	ebc52b272ed0ca04ad5d870f421547f7	TARGET-50-PAJMEP-11A-01D	BCM	OK
6e3152f7-4cf6-5ca8-ab64-177bc0fb04fe	SRR566555	TARGET-50-PAJPDC-02A-01D_hg19_Illumina.bam	42a29db133cfb9d791a5612d684776c3	TARGET-50-PAJPDC-02A-01D	BCM	OK
6e348329-95ac-5586-ae53-15b8e941af8e	SRR564089	TARGET-20-PANVGP-14A-01D_hg19_Illumina.bam	ff7b3a46b663675e2ae50943e1e0cc3b	TARGET-20-PANVGP-14A-01D	BCM	OK
6f02ba00-c4c6-5300-9809-1f5a0be23264	SRR567924	TARGET-50-PAJPDC-10A-01D_hg19_Illumina.bam	04dbecc6178784aa9d3e5893aaff2196	TARGET-50-PAJPDC-10A-01D	BCM	OK
711ef50a-083e-5be3-9ca9-e42796a5f8e0	SRR563914	TARGET-20-PAERAH-09A-01D_hg19_Illumina.bam	9944102002e37a84d9efc1d38e17c544	TARGET-20-PAERAH-09A-01D	BCM	OK
71b6a7b4-ebc1-5d1a-a444-75c6bd78c0a1	SRR563941	TARGET-10-PAPNNX-10A-01D_hg19_Illumina.bam	39a9869252fe1f2b6f713114085b67bb	TARGET-10-PAPNNX-10A-01D	BCM	OK
72293d47-d8e5-56d0-8c4f-1ee01e194d4c	SRR1067793	TARGET-10-PPT104-60A-01D_Illumina.bam	6f9ab2cb10f289417f8a90003738bfd4	TARGET-10-PPT104-60A-01D	BCM	OK
727ce40a-420a-55c9-99e0-348340d94c63	SRR566187	TARGET-50-PAKVET-11A-01D_hg19_Illumina.bam	d9edcba5d4d3fb25406409ef12a72932	TARGET-50-PAKVET-11A-01D	BCM	OK
7310363b-6d85-57ac-9917-63d991356f2b	SRR1067815	TARGET-30-PPT065-61A-01D_Illumina.bam	a348ff4071b7c3b23487e47b7ef32685	TARGET-30-PPT065-61A-01D	BCM	OK
733ce8b7-a04f-5c51-ae6f-0648713d7e2b	SRR566158	TARGET-50-PAJMKN-01A-01D_hg19_Illumina.bam	2f4a29401a88ce9e1b0f45116fad2689	TARGET-50-PAJMKN-01A-01D	BCM	OK
739a5289-849b-592d-9179-d1ba9d6fc6f9	SRR566184	TARGET-50-PAKECR-10A-01D_hg19_Illumina.bam	c1d02fdfdd796384b5535043e1d1d747	TARGET-50-PAKECR-10A-01D	BCM	OK
748e7bdb-6688-573a-9e65-e5b7e4248c0c	SRR1066834	TARGET-30-NAABZJ-50.2A-01D_Illumina.bam	362c15d28dd822490d98309cd270e0a0	TARGET-30-NAABZJ-50.2A-01D	BCM	OK
756ef2a1-ab84-5879-8792-6395c451ffb8	SRR563578	TARGET-10-PAPAGK-10A-01D_hg19_Illumina.bam	057a0bfd3d46b1decc32997a9bc1d9fe	TARGET-10-PAPAGK-10A-01D	BCM	OK
757bc5ff-f11e-5d5c-9bd9-0b02c74f6683	SRR1057364	TARGET-50-PAKYLT-10A-01D_Illumina.bam	2507ec29bd21645fb65f29d41006d83b	TARGET-50-PAKYLT-10A-01D	BCM	OK
761a62e1-3be4-5d36-82e5-7bb2da65731f	SRR566180	TARGET-50-PAKKNS-10A-01D_hg19_Illumina.bam	2a9e30c331989e96d5c097de3dca13f3	TARGET-50-PAKKNS-10A-01D	BCM	OK
762fc6ab-31f1-565e-996e-f78e16317c4b	SRR1057336	TARGET-50-CAAAAA-10A-01D_Illumina.bam	3039f86dbd5984b88b1e4040b261ab98	TARGET-50-CAAAAA-10A-01D	BCM	OK
7630ed12-38d7-5d39-9220-1a5c5a43474c	SRR1067899	TARGET-80-PPT057-60A-01D_Illumina.bam	c403e502a19d9ef63c4d727d4f15d06f	TARGET-80-PPT057-60A-01D	BCM	OK
7731e522-8ef0-5f17-b5a2-327ba988f569	SRR1067787	TARGET-10-PPT098-60A-01D_Illumina.bam	cf49e35edad44ef47fcc91865e97a297	TARGET-10-PPT098-60A-01D	BCM	OK
77d80664-8524-5ed8-af56-d6327347ae29	SRR1067810	TARGET-30-PPT062-50A-01D_Illumina.bam	c09801a4c6e9776695479d8951ababd3	TARGET-30-PPT062-50A-01D	BCM	OK
7882063b-841c-54b4-b0b9-4121bc470354	SRR563778	TARGET-10-PAPZNK-04A-01D_hg19_Illumina.bam	c98fc87c6cdb80d4b4b34b939f100fa9	TARGET-10-PAPZNK-04A-01D	BCM	OK
78ab84b6-3f2f-5774-b8e9-cc69c83a7b71	SRR1066832	TARGET-30-NAABZJ-13A-01D_Illumina.bam	adf3073804a82ea1b7380eb675ae830b	TARGET-30-NAABZJ-13A-01D	BCM	OK
7912e96e-e81d-58a2-8636-aa46c08b7934	SRR1057367	TARGET-50-PALLCK-01A-01D_Illumina.bam	def9e029e7ebd81d0c50294ba1e0b1f0	TARGET-50-PALLCK-01A-01D	BCM	OK
7b397c10-9bd1-543a-adab-abf5e504e2a0	SRR1067825	TARGET-40-PPT070-60A-01D_Illumina.bam	a0e49112a6d2ad8d3f24c91d0f7e8faa	TARGET-40-PPT070-60A-01D	BCM	OK
7c888f07-0f37-525c-addb-c4b8d6b7b9ef	SRR563581	TARGET-10-PAPSPG-04A-01D_hg19_Illumina.bam	cc88737d0dd0a3d5044c582bdd60574d	TARGET-10-PAPSPG-04A-01D	BCM	OK
7de69449-755b-52f9-a299-717da97aa533	SRR1067891	TARGET-80-PPT047-60A-01D_Illumina.bam	98035b1e6bed52075bf5d51fe6a29ccf	TARGET-80-PPT047-60A-01D	BCM	OK
7e7e7aa6-ff9d-5d40-8831-5fe0402ff3d1	SRR1066833	TARGET-30-NAABZJ-50.1A-01D_Illumina.bam	d13ec03e8a9058f6edade065d4fefe1f	TARGET-30-NAABZJ-50.1A-01D	BCM	OK
7fbe7a97-fff8-5218-8b7d-cd0c9772f938	SRR1067898	TARGET-80-PPT056-60A-01D_Illumina.bam	24cfbb420412bef3428eaa6344fc339a	TARGET-80-PPT056-60A-01D	BCM	OK
8064e9e6-62b3-500b-9f3b-8efc949882ae	SRR566159	TARGET-50-PAJMLZ-01A-01D_hg19_Illumina.bam	b6aef95306ea0d2f38cdbd12fcec1014	TARGET-50-PAJMLZ-01A-01D	BCM	OK
81458876-a7a3-5980-b6cf-6133cda114c2	SRR1066850	TARGET-30-PAMYEF-13A-01D_Illumina.bam	f0ba1e09836ca787f8a64f38db7d9fdb	TARGET-30-PAMYEF-13A-01D	BCM	OK
8202e84a-a0da-5f2a-af54-e7d859fce3eb	SRR1067884	TARGET-80-PPT042-50A-01D_Illumina.bam	85d769d9422c7c799a605369abd7ac2f	TARGET-80-PPT042-50A-01D	BCM	OK
83f42d99-7081-5ce3-9bfd-c000835f0b7a	SRR566190	TARGET-50-PAKGZX-01A-01D_hg19_Illumina.bam	fce8032a26bb4839c6009a259ca418da	TARGET-50-PAKGZX-01A-01D	BCM	OK
84493fa9-ff1c-5514-b84d-31f81d597359	SRR566183	TARGET-50-PAJMVC-10A-01D_hg19_Illumina.bam	810568e5ac4fe3885db08a95a9098b2b	TARGET-50-PAJMVC-10A-01D	BCM	OK
84df3fbb-1037-5f0b-aafc-31510ffee928	SRR1067801	TARGET-10-PPT125-50A-01D_Illumina.bam	cc5b958e7f0848aee2bff5db84e5fdc4	TARGET-10-PPT125-50A-01D	BCM	OK
858f989b-ad97-5e7a-a55a-5a29767e1cf7	SRR1066845	TARGET-30-NAABZM-50.2A-01D_Illumina.bam	d09c1ff89d7b9c13904cb954a92350df	TARGET-30-NAABZM-50.2A-01D	BCM	OK
85b3c858-01bb-5f6c-93b8-50c5dfcf8629	SRR1067780	TARGET-10-PPT090-60A-01D_Illumina.bam	74fa7aa686431d02dd3304e602b9d30c	TARGET-10-PPT090-60A-01D	BCM	OK
877c5f8f-444d-538a-97d7-39ee4955d2ba	SRR563874	TARGET-20-PAEEYP-14A-01D_hg19_Illumina.bam	21f7e1ed32233617fbc652a43c8c2180	TARGET-20-PAEEYP-14A-01D	BCM	OK
87bd0020-fca1-5dde-a12f-f7d7514ffcf4	SRR1067868	TARGET-62-PPT005-60A-01D_Illumina.bam	38aa8a855abc8376f4c72ee70e5fb587	TARGET-62-PPT005-60A-01D	BCM	OK
886c4b5e-0d48-56cd-be3b-558bbe9ffcbf	SRR1057366	TARGET-50-PALDTE-10A-01D_Illumina.bam	d2ad7d179023409d516994cda8183505	TARGET-50-PALDTE-10A-01D	BCM	OK
88d7894d-5f76-5837-82b8-76cfa2c8b65d	SRR1067841	TARGET-41-PPT038-50A-01D_Illumina.bam	786ae1a9af478b97deb5ca12b7610943	TARGET-41-PPT038-50A-01D	BCM	OK
88e93f6d-6650-5826-9cca-93e344da50bf	SRR1067894	TARGET-80-PPT051-60A-01D_Illumina.bam	46c7db67b97e87c00abe2a9d62b6d264	TARGET-80-PPT051-60A-01D	BCM	OK
8936d7a4-43b8-53c9-9034-d21e46899a36	SRR566191	TARGET-50-PALGLU-10A-01D_hg19_Illumina.bam	81e5c35cbd7b51ae4df02d6f06fcf605	TARGET-50-PALGLU-10A-01D	BCM	OK
8ae3045f-e977-5323-aea2-6971fb6ad124	SRR1067783	TARGET-10-PPT093-60A-02D_Illumina.bam	6f5a3e8c6b013a5b891673de9fdcad13	TARGET-10-PPT093-60A-02D	BCM	OK
8b9d75c7-f5bf-5278-895b-02b44376d977	SRR1066853	TARGET-30-PAMYEF-60A-01D_Illumina.bam	67beebb078a1bda0d13c80b6c070ac59	TARGET-30-PAMYEF-60A-01D	BCM	OK
8ca3098f-54ec-5ef5-957a-169630ae291e	SRR1066839	TARGET-30-NAABZL-13B-01D_Illumina.bam	8c3cf046e5ed496ab007011d4ed23ced	TARGET-30-NAABZL-13B-01D	BCM	OK
8cf087a7-44b2-5c34-b7a4-2f7cf8e5f0b6	SRR1066840	TARGET-30-NAABZL-15C-01D_Illumina.bam	d98024da6d3256c3877c9906c357da5c	TARGET-30-NAABZL-15C-01D	BCM	OK
8e7f2c97-723a-5205-9dff-d84c54af1891	SRR1067804	TARGET-20-PPT128-50A-01D_Illumina.bam	26640fed39df6d3af9c6d70a9b326356	TARGET-20-PPT128-50A-01D	BCM	OK
8fa98ba4-6ce6-550b-be84-dbae4dca6755	SRR1057356	TARGET-50-PAJPCM-10A-01D_Illumina.bam	253ecc8cb96783b4cadd4f4aab1feb32	TARGET-50-PAJPCM-10A-01D	BCM	OK
8ffca82e-700f-5714-802f-8d8d7690aedf	SRR1067874	TARGET-64-PPT008-60A-01D_Illumina.bam	d9d7275e3293f767fec55aa6ec07f1a9	TARGET-64-PPT008-60A-01D	BCM	OK
90114f6d-d67c-5bcf-9148-ba104a9f5194	SRR1057349	TARGET-50-PAJMIZ-01A-01D_Illumina.bam	3c8ddb1f3a579b56d263abc956cd5da6	TARGET-50-PAJMIZ-01A-01D	BCM	OK
913f52c2-fc9a-5fb6-ba15-f5be81412679	SRR563875	TARGET-20-PAEEYP-04A-01D_hg19_Illumina.bam	681044e4252f35b32c3e194d269ed627	TARGET-20-PAEEYP-04A-01D	BCM	OK
9204ee7b-2148-59d4-a959-210978e21fc3	SRR564049	TARGET-10-PARGHW-03A-01D_hg19_Illumina.bam	fe8d1e11a827bf596ae20f6482949701	TARGET-10-PARGHW-03A-01D	BCM	OK
92118aea-d55d-5769-9d8c-0a35991f2301	SRR567944	TARGET-50-PAJNTJ-01A-01D_hg19_Illumina.bam	44828ddd6ee9ff7cbda25d58a31e1638	TARGET-50-PAJNTJ-01A-01D	BCM	OK
9258bd45-a528-51d9-ba5c-6ff7c590251c	SRR1067888	TARGET-80-PPT044-50A-01D_Illumina.bam	9fe8ca8d50cdf2d9e8026fa4bc110005	TARGET-80-PPT044-50A-01D	BCM	OK
92f8e128-950c-55d3-b1a2-4142d60a956c	SRR566178	TARGET-20-PAMYAS-04A-01D_hg19_Illumina.bam	d9eed9cfe9a720f42cc3013be26f193f	TARGET-20-PAMYAS-04A-01D	BCM	OK
93124f6b-b46e-5902-8393-ff7c97359d80	SRR563636	TARGET-20-PANGTF-04A-01D_hg19_Illumina.bam	5e3b07db4c76f8ec86ced2669b9fd305	TARGET-20-PANGTF-04A-01D	BCM	OK
94576b5a-1607-5bac-ab9a-a73ec01d1e9c	SRR1067800	TARGET-10-PPT124-50A-01D_Illumina.bam	bf2f1c50f476f55bf136385d7e4749a9	TARGET-10-PPT124-50A-01D	BCM	OK
95396681-4e7b-55a3-856f-14a0ed9cab75	SRR566174	TARGET-50-PAKMSV-01A-01D_hg19_Illumina.bam	f923fdb827d5e6a7e9b5a5b297897deb	TARGET-50-PAKMSV-01A-01D	BCM	OK
9630d4a3-8f6f-51fc-98d7-2b0c4c67da50	SRR563986	TARGET-20-PARUCB-04A-01D_hg19_Illumina.bam	7bb1fcce588565e351de929cec27a960	TARGET-20-PARUCB-04A-01D	BCM	OK
96aabd0f-5658-549d-92e3-fca17b4efa5e	SRR1067808	TARGET-30-PPT061-50A-01D_Illumina.bam	d6e6269ba1b5bcf3dac46ac9e254afcc	TARGET-30-PPT061-50A-01D	BCM	OK
973dbc21-77e8-5e5e-a958-c46b59fbb6f1	SRR564044	TARGET-10-PAPJIB-03A-01D_hg19_Illumina.bam	dc1490f549dfc8adb4c5370d35c00c95	TARGET-10-PAPJIB-03A-01D	BCM	OK
98191f96-8f0e-5487-aa7b-90b57c68c3c4	SRR1057360	TARGET-50-PAKPDF-10A-01D_Illumina.bam	7976130a8c569db21f0531a7a97f57fb	TARGET-50-PAKPDF-10A-01D	BCM	OK
994f0f32-0ada-5aaa-ab08-a4b5878d986b	SRR1066851	TARGET-30-PAMYEF-50.1A-01D_Illumina.bam	753861c927beed673a2f16d299c4f270	TARGET-30-PAMYEF-50.1A-01D	BCM	OK
9aa5d8ea-f9f6-5dc1-91e6-c113d431a398	SRR1067823	TARGET-40-PPT069-60A-01D_Illumina.bam	685d9d9c3f2177cd87689d346d8892ab	TARGET-40-PPT069-60A-01D	BCM	OK
9b116516-45ed-5a5c-8e89-4262f58f3b76	SRR563590	TARGET-10-PARPRW-03A-01D_hg19_Illumina.bam	9be18e9f3971c0dae97633fb01869258	TARGET-10-PARPRW-03A-01D	BCM	OK
9b2f3b67-5c0f-5182-841c-ab35512f3a0f	SRR1067873	TARGET-63-PPT031-60A-01D_Illumina.bam	ed087f32394dfd98ab26e0b85ddb02f3	TARGET-63-PPT031-60A-01D	BCM	OK
9b89abac-0249-5b93-83b2-e247b1a6962a	SRR1067807	TARGET-30-PPT060-61A-01D_Illumina.bam	22193a5352399dca3a467c850c5bc806	TARGET-30-PPT060-61A-01D	BCM	OK
9b97271a-aac0-5a66-ba47-adbc3c847d96	SRR564076	TARGET-20-PANLRE-14A-01D_hg19_Illumina.bam	f779b8be6dc9b0c79f025b04826d48c1	TARGET-20-PANLRE-14A-01D	BCM	OK
9bcae9a9-3b74-5223-97d1-ce2ef55f46f8	SRR566170	TARGET-50-PAKGZX-10A-01D_hg19_Illumina.bam	e39684c4d68f159e21eb876f14d8fb63	TARGET-50-PAKGZX-10A-01D	BCM	OK
9d7c13ad-7d7e-5a08-b336-1fcd1b87284d	SRR563644	TARGET-20-PASCGC-04A-01D_hg19_Illumina.bam	e2c55c4e913ea7418135ebef95c488c9	TARGET-20-PASCGC-04A-01D	BCM	OK
9db603c5-5bce-5e7a-8003-d716550cac59	SRR1067850	TARGET-50-PPT025-60A-01D_Illumina.bam	946776ac9f66eab7dd47117e25d5f47c	TARGET-50-PPT025-60A-01D	BCM	OK
9e49193d-61b0-5071-aad2-9b3ea7e5a4ee	SRR1067896	TARGET-80-PPT053-60A-01D_Illumina.bam	d332e163df3f9559c603d68a7d690938	TARGET-80-PPT053-60A-01D	BCM	OK
9edbb026-bbcc-5bc6-a1d8-71e64ccc6382	SRR563990	TARGET-10-PAPNNX-03A-01D_hg19_Illumina.bam	dd15bd0337029922effa7e037876721a	TARGET-10-PAPNNX-03A-01D	BCM	OK
9f4dbf72-dcf7-50b8-997f-0e3bed9bf8a6	SRR1067892	TARGET-80-PPT049-60A-01D_Illumina.bam	3c22275d19855b864bc935e7da748cca	TARGET-80-PPT049-60A-01D	BCM	OK
9f5375dc-c90b-55d8-87b6-e1b7aaddeb2a	SRR1067790	TARGET-10-PPT101-60A-01D_Illumina.bam	df1744692263a29088fc806e6af1b514	TARGET-10-PPT101-60A-01D	BCM	OK
a107b514-fcec-55d0-9d39-95c47d0d154f	SRR1067890	TARGET-80-PPT046-60A-01D_Illumina.bam	696b800599e81988b804264cab8bd5f1	TARGET-80-PPT046-60A-01D	BCM	OK
a18067cf-e193-5a2d-9d60-3ec35382ab72	SRR1066857	TARGET-30-PASXWX-60B-01D_Illumina.bam	b6f1c946c7e1c4422cd38bfcc7fc7105	TARGET-30-PASXWX-60B-01D	BCM	OK
a1a6cd66-cbdf-5ea6-8ab7-27a77fc1e728	SRR1067812	TARGET-30-PPT063-61A-01D_Illumina.bam	5714091d02891ed9417ba13ee9c655ad	TARGET-30-PPT063-61A-01D	BCM	OK
a1cab90c-3733-5352-8266-acb96609274c	SRR1066836	TARGET-30-NAABZK-50.1A-01D_Illumina.bam	f425ca06c6319e77f5298bdf3837964b	TARGET-30-NAABZK-50.1A-01D	BCM	OK
a3ebd46e-8fa5-5efb-9c04-1f73f4554e33	SRR1067883	TARGET-71-PPT131-50A-01D_Illumina.bam	c34e5582feba00112db7fb6443f44743	TARGET-71-PPT131-50A-01D	BCM	OK
a3ef13db-c531-5649-b45d-6f098a4e588f	SRR563702	TARGET-10-PAPAGK-04A-01D_hg19_Illumina.bam	26effaf75312454f2256d74d2dcc5f95	TARGET-10-PAPAGK-04A-01D	BCM	OK
a4103445-1c3a-5bac-bd71-bc9c98e0edf6	SRR563985	TARGET-20-PANVGP-04A-01D_hg19_Illumina.bam	d487a8c01053fefc06bc25e9af26eeb7	TARGET-20-PANVGP-04A-01D	BCM	OK
a6387589-d921-53d1-8f31-5e690e499785	SRR563583	TARGET-10-PAPSPN-04A-01D_hg19_Illumina.bam	5a5a755ed03a28b2d735ab95ad2b3039	TARGET-10-PAPSPN-04A-01D	BCM	OK
a66af274-3d62-50c6-adbd-8634fc625f06	SRR1067865	TARGET-61-PPT022-60A-01D_Illumina.bam	2b51da4da6eb8a7a2c206a524b7f2c1b	TARGET-61-PPT022-60A-01D	BCM	OK
a6a8b6f2-ccee-585e-ace4-de0247903c68	SRR566157	TARGET-50-PADXAY-01A-01D_hg19_Illumina.bam	768916fc4aa8d18e4e2020c5699a462f	TARGET-50-PADXAY-01A-01D	BCM	OK
a726fbf1-ccb2-5075-884b-9fd809a0d3a6	SRR1067781	TARGET-10-PPT091-60A-02D_Illumina.bam	52126e844affbb5d6768328745c886db	TARGET-10-PPT091-60A-02D	BCM	OK
a73ba97e-23b7-5552-a379-c3952885e6d7	SRR563984	TARGET-20-PARGVC-03A-01D_hg19_Illumina.bam	a3f7c3ff0b252d3d1c5ac9fcf936a90e	TARGET-20-PARGVC-03A-01D	BCM	OK
a77b3e40-1e84-510e-8873-2d70d92bea95	SRR1067824	TARGET-40-PPT070-50A-01D_Illumina.bam	c1130432d1da3ff61484a5dd27a08a34	TARGET-40-PPT070-50A-01D	BCM	OK
a792c9c4-a017-5986-84e7-c5731fb3706a	SRR564051	TARGET-10-PARJZZ-03A-01D_hg19_Illumina.bam	18af2d88268ba4cc737794cf22c55997	TARGET-10-PARJZZ-03A-01D	BCM	OK
a7e2a9b8-eb3a-533b-ad46-8a578304cf57	SRR563991	TARGET-10-PARAKF-10A-01D_hg19_Illumina.bam	b9f71841951ef3b25df7d42fcacd9db3	TARGET-10-PARAKF-10A-01D	BCM	OK
a8bbb1ae-5d73-5d23-bb72-82fb701c77d7	SRR566189	TARGET-20-PAMYAS-14A-01D_hg19_Illumina.bam	48c731da984308a5953db61495cd5595	TARGET-20-PAMYAS-14A-01D	BCM	OK
a95f0794-da8f-545e-a22b-7b56683b2f56	SRR563980	TARGET-20-PARVUA-14A-01D_hg19_Illumina.bam	b1034cc5c01694577f12fd129a105eac	TARGET-20-PARVUA-14A-01D	BCM	OK
a9a68766-636e-565c-8a42-6450a18f0187	SRR1067798	TARGET-10-PPT109-60A-01D_Illumina.bam	c9475a87a82bc72295e93f932ec47221	TARGET-10-PPT109-60A-01D	BCM	OK
aaff7ec1-b2ba-5928-9fed-1287115b7546	SRR563772	TARGET-10-PAPLDL-04A-01D_hg19_Illumina.bam	77806dd5f8a19acb302e995555339ebb	TARGET-10-PAPLDL-10A-01D	BCM	OK
abc8dc5e-8c28-5ffb-99c0-0d381c9d615f	SRR1067849	TARGET-50-PPT024-60A-01D_Illumina.bam	4fb73b0d07515d12adef29b2ed527dc5	TARGET-50-PPT024-60A-01D	BCM	OK
acab605c-54b4-5a27-8cc8-e0583eba4c73	SRR1067857	TARGET-60-PPT029-60A-01D_Illumina.bam	115ca5c5eb18326b8598d7e007990cd7	TARGET-60-PPT029-60A-01D	BCM	OK
acb5aa58-a747-5e5f-9e2d-57c8e8e016cd	SRR1067902	TARGET-81-PPT058-60A-01D_Illumina.bam	be5b417e201cf0ff4153dbe98e858696	TARGET-81-PPT058-60A-01D	BCM	OK
acdac175-d5a6-50af-b01d-01236822a28e	SRR566163	TARGET-50-PAJMJT-01A-01D_hg19_Illumina.bam	723fa3a37c2b516656d17135b575919d	TARGET-50-PAJMJT-01A-01D	BCM	OK
ad6da25e-fb26-5dba-a32e-310122509e14	SRR566208	TARGET-50-PAJNVE-10A-01D_hg19_Illumina.bam	d3f8f4ae98de08cbdfc00daa19662f37	TARGET-50-PAJNVE-10A-01D	BCM	OK
aeede4c2-8391-58f8-87b6-27926b21d201	SRR1067809	TARGET-30-PPT061-61A-01D_Illumina.bam	2728fa8e10451a46623e004da5455044	TARGET-30-PPT061-61A-01D	BCM	OK
afb93d57-83e2-5b37-997c-393c4cacc16b	SRR1067879	TARGET-65-PPT033-60A-01D_Illumina.bam	4a867693ac5432a32b2e42b97226bbc6	TARGET-65-PPT033-60A-01D	BCM	OK
b0166d46-4b0c-56f3-a550-81d2d79001b5	SRR1067887	TARGET-80-PPT043-60A-01D_Illumina.bam	157bbc2d6cdd82a10da4074f979054a8	TARGET-80-PPT043-60A-01D	BCM	OK
b01e4457-5ca3-58b1-bef7-d06674581715	SRR563938	TARGET-10-PAPEFH-14A-01D_hg19_Illumina.bam	dc4cff45bd8a5fd56bed21433995869c	TARGET-10-PAPEFH-14A-01D	BCM	OK
b0af4594-1459-5341-9bf8-56ff0f81b827	SRR566202	TARGET-20-PANLIZ-04A-01D_hg19_Illumina.bam	8643eaa76c8a775d627c1f78deee3406	TARGET-20-PANLIZ-04A-01D	BCM	OK
b20c31b0-1980-5f29-8d90-fe883e5e9ceb	SRR1067885	TARGET-80-PPT042-60A-01D_Illumina.bam	0b0129e4473cbddce1e2f4707e036f4a	TARGET-80-PPT042-60A-01D	BCM	OK
b24bca88-2c7a-5245-82d6-a82d4fe5b9d5	SRR563643	TARGET-20-PASCGC-10A-01D_hg19_Illumina.bam	c63ca2c9fe9b4120ca30ca20faa1fd49	TARGET-20-PASCGC-10A-01D	BCM	OK
b2b73e3e-edbf-5a16-88ea-290298164ab2	SRR1067814	TARGET-30-PPT064-61A-01D_Illumina.bam	a3fad94545e33ec5e00f7b20f4c041d6	TARGET-30-PPT064-61A-01D	BCM	OK
b37e64f3-4c2f-528c-829c-d7ea59cc21ea	SRR563667	TARGET-10-PAPSPN-03A-01D_hg19_Illumina.bam	ebbadb4ba580c754ebb476f6c199bcdf	TARGET-10-PAPSPN-03A-01D	BCM	OK
b3e2d30c-97ee-542e-9c28-381c28951b0a	SRR566201	TARGET-50-PALJIP-01A-01D_hg19_Illumina.bam	2a9d8b642d9aac3305faa2bb3000ecea	TARGET-50-PALJIP-01A-01D	BCM	OK
b4156c7e-8de8-512f-9a6e-66ed70208505	SRR1067831	TARGET-40-PPT077-60A-01D_Illumina.bam	e08c065e2bd2a7fb86b86be794c7d1a5	TARGET-40-PPT077-60A-01D	BCM	OK
b42daeea-1ee2-5e6a-9c70-1cb0f34a0962	SRR564086	TARGET-20-PASFEW-14A-01D_hg19_Illumina.bam	049c9170fa87ae45539ad94b7b70c3c0	TARGET-20-PASFEW-14A-01D	BCM	OK
b4a6167d-f439-5786-bfb4-0a4ae8a7de2f	SRR566186	TARGET-50-PAKMSV-10A-01D_hg19_Illumina.bam	21e52a0bc4b541618296b58bffa7c8e5	TARGET-50-PAKMSV-10A-01D	BCM	OK
b53629ed-183a-5a1f-8b35-7d7ef75a23c7	SRR1067859	TARGET-61-PPT018-50A-01D_Illumina.bam	ca80f5431d83dafa261b877483782eb5	TARGET-61-PPT018-50A-01D	BCM	OK
b545cde3-8f6a-59d4-8b71-93eacf2b2cae	SRR1067838	TARGET-41-PPT035-60A-01D_Illumina.bam	1ac2f1f807486e6758ac400f138d9044	TARGET-41-PPT035-60A-01D	BCM	OK
b6010d6b-cb3a-531b-9192-03ae82c1962a	SRR1067785	TARGET-10-PPT096-60A-01D_Illumina.bam	ef29a74f563811c937aabb4642a2ed2b	TARGET-10-PPT096-60A-01D	BCM	OK
b6aa2f5f-6c17-5203-bbd1-d086b040eec2	SRR563587	TARGET-10-PARPNM-10A-01D_hg19_Illumina.bam	cfcff2f0224b6abd9a42b27c41f2fc8e	TARGET-10-PARPNM-10A-01D	BCM	OK
b869cafc-8314-5f43-8b5b-5397bf9eb929	SRR564017	TARGET-10-PASFXA-10A-01D_hg19_Illumina.bam	1ca085e181498b3b9686fba86e9bc295	TARGET-10-PASFXA-10A-01D	BCM	OK
b8aca0de-f4b7-5705-a0ae-06ad2469df47	SRR1067860	TARGET-61-PPT018-61A-01D_Illumina.bam	0f35f47ff17372b65921098c01b303ea	TARGET-61-PPT018-61A-01D	BCM	OK
b8d47be5-71cd-51c6-b87c-3ecf9d44b9e4	SRR563882	TARGET-20-PARVUA-03A-01D_hg19_Illumina.bam	e8734ab4112c7b68582e30abe9f0221f	TARGET-20-PARVUA-03A-01D	BCM	OK
b90028b8-bf34-5d95-8923-f57d2289b05e	SRR1067779	TARGET-10-PPT089-60A-02D_Illumina.bam	ad532de54f2a794b238d131db79b9660	TARGET-10-PPT089-60A-02D	BCM	OK
b9f91e6a-64af-50ab-9f09-5eeb87a51f6c	SRR1067872	TARGET-63-PPT010-60A-02D_Illumina.bam	7f3b434625615b3bf6927510a3653662	TARGET-63-PPT010-60A-02D	BCM	OK
bb4b7ad7-cd59-5cc0-af6f-cb5c15028d86	SRR563637	TARGET-20-PANGTF-14A-01D_hg19_Illumina.bam	8adb4130a9f3f398838f780341ed7850	TARGET-20-PANGTF-14A-01D	BCM	OK
bba76a04-9408-5d5c-bd51-c57b75bb0aa0	SRR1067851	TARGET-50-PPT026-60A-01D_Illumina.bam	ff30c9d88b29c3a39738a5ea6961692f	TARGET-50-PPT026-60A-01D	BCM	OK
bcee07cb-b185-5083-890b-c99308bdd13e	SRR1067852	TARGET-50-PPT027-60A-01D_Illumina.bam	eb7f484e92d0463f3d7c15d88c1d0be6	TARGET-50-PPT027-60A-01D	BCM	OK
be365084-433f-5797-b6f2-3c4fe294d4cb	SRR1067836	TARGET-40-PPT083-60A-01D_Illumina.bam	5292cd869c03b33c33832dff2899744c	TARGET-40-PPT083-60A-01D	BCM	OK
be9b658e-76e9-5965-9471-0a3fda70aea1	SRR566168	TARGET-50-CAAAAP-10A-01D_hg19_Illumina.bam	55bcc1c4d4f1dd06932af7cab5e98187	TARGET-50-CAAAAP-10A-01D	BCM	OK
bec3775b-8135-5000-a518-b4925e67f844	SRR1057358	TARGET-50-PAKFYV-10A-01D_Illumina.bam	ea7e70a5631f75a0026d6a408995b805	TARGET-50-PAKFYV-10A-01D	BCM	OK
bf22afc1-e893-5e8e-bd98-5e0bcdfd957d	SRR564048	TARGET-10-PAPZNK-10A-01D_hg19_Illumina.bam	2eb2b97e5a8364b21dc35dec492e10e1	TARGET-10-PAPZNK-10A-01D	BCM	OK
bf61e168-4edd-50b5-966d-2e3666db7de4	SRR1067861	TARGET-61-PPT019-60A-01D_Illumina.bam	16fe642e03a79892d8f44d4216f6b2f7	TARGET-61-PPT019-60A-01D	BCM	OK
bff03375-e42a-5a29-baea-8087907d64c0	SRR1057340	TARGET-50-PAJLKC-10A-01D_Illumina.bam	c0ec4cc99a8e0eb4bef76485e87c1816	TARGET-50-PAJLKC-10A-01D	BCM	OK
c002954f-2cde-5812-af76-2170b4f8f4d9	SRR566167	TARGET-50-PAJMJT-10A-01D_hg19_Illumina.bam	1124b94382b9ccff868e0752c0044826	TARGET-50-PAJMJT-10A-01D	BCM	OK
c05accd8-bf64-5c12-960a-d2313f5a4471	SRR566211	TARGET-50-PALFME-01A-01D_hg19_Illumina.bam	f325826c8caeb29a2ba995498f0fd4ba	TARGET-50-PALFME-01A-01D	BCM	OK
c09ad595-015b-5602-861b-546647a08261	SRR566199	TARGET-50-PAKXWB-01A-01D_hg19_Illumina.bam	1bb3690b46df2c54bd6f8e3b83cbb22f	TARGET-50-PAKXWB-01A-01D	BCM	OK
c1f10611-e3fa-586b-a5da-ffae657e0e65	SRR563940	TARGET-10-PAPJIB-04A-01D_hg19_Illumina.bam	171e416e30f90134e3b1954d7a1f97b0	TARGET-10-PAPJIB-04A-01D	BCM	OK
c2305f36-c53a-55ed-a553-ab6dab55b101	SRR563909	TARGET-20-PANSBH-14A-01D_hg19_Illumina.bam	77d179e844964213cc0ae93ff6290be4	TARGET-20-PANSBH-14A-01D	BCM	OK
c2329f72-3ebd-5f70-bb3d-57924bc63ac0	SRR1067829	TARGET-40-PPT074-60A-01D_Illumina.bam	00d31000156f2ca66d79c0fd5b5dccec	TARGET-40-PPT074-60A-01D	BCM	OK
c232d199-74fd-5dfd-8035-4141ec70fa54	SRR563780	TARGET-10-PARIAD-03A-01D_hg19_Illumina.bam	07c273cc7ca7efd8f2abd9514539e12b	TARGET-10-PARIAD-03A-01D	BCM	OK
c250fc27-95f6-5027-9cf7-c39085b86558	SRR564871	TARGET-10-PARFTR-03A-01D_hg19_Illumina.bam	7d6d0d3baefdc6fa1043b9a4528aa208	TARGET-10-PARFTR-03A-01D	BCM	OK
c4bc00b6-ca53-5640-afbd-04a4bde98821	SRR1057342	TARGET-50-PAJLKR-11A-01D_Illumina.bam	0573b6939dfc2d60e2c07d89085875b4	TARGET-50-PAJLKR-11A-01D	BCM	OK
c4c0a320-196d-5ea8-962a-daca9fa5a219	SRR563988	TARGET-20-PASFEW-04A-01D_hg19_Illumina.bam	e58887dbd1d6e91b99138065c2bea81e	TARGET-20-PASFEW-04A-01D	BCM	OK
c4c1d0c2-2150-5576-a072-0d31e89760b2	SRR563993	TARGET-20-PARWXU-09A-01D_hg19_Illumina.bam	7393da57ccb5719d0b87bf1d4f0df676	TARGET-20-PARWXU-09A-01D	BCM	OK
c5df74d6-ab6b-5f2c-a58b-6b94341b9438	SRR563880	TARGET-20-PARUNX-09A-01D_hg19_Illumina.bam	3c6516edeaf9e87b5d2187888d2d25ad	TARGET-20-PARUNX-09A-01D	BCM	OK
c66b5de6-cac1-5907-8925-9839b05fd799	SRR563981	TARGET-20-PANLRE-04A-01D_hg19_Illumina.bam	b6797e4227aa65216595b50b560c6810	TARGET-20-PANLRE-04A-01D	BCM	OK
c6b3ff71-9ce7-5f33-84f0-0fbccfa75f10	SRR1067871	TARGET-62-PPT111-50A-01D_Illumina.bam	7a0d32ef109250eed541405a212e8448	TARGET-62-PPT111-50A-01D	BCM	OK
c700143a-1458-5a5f-a5a2-19244c8acb0e	SRR1067901	TARGET-80-PPT116-50A-01D_Illumina.bam	29d303ab12e187e7487ab1129f398c3a	TARGET-80-PPT116-50A-01D	BCM	OK
c7193bad-af68-59ca-a3bb-ff5b64602206	SRR563642	TARGET-20-PARWXU-14A-01D_hg19_Illumina.bam	cc267348937b87934134963d43575573	TARGET-20-PARWXU-14A-01D	BCM	OK
c74b63e1-45f5-57f3-be2c-b27247885567	SRR567925	TARGET-50-PAJNNR-10A-01D_hg19_Illumina.bam	8cfffc20c6a4eff6450b0bc87f0e9673	TARGET-50-PAJNNR-10A-01D	BCM	OK
c79a9d5b-a092-5d4e-bd9a-0c8cacdeffb9	SRR1067782	TARGET-10-PPT092-60A-01D_Illumina.bam	9831c3b781df3f2ecf47d7d6d0567c0e	TARGET-10-PPT092-60A-01D	BCM	OK
c7eda7b2-fe02-5588-8b6a-a799bb7a063d	SRR1066855	TARGET-30-PASXWX-50.1B-01D_Illumina.bam	5d43c1a6c730fba9443da17e9fc9ef3e	TARGET-30-PASXWX-50.1B-01D	BCM	OK
c905f88c-7010-5990-9845-035c5b3f510c	SRR566195	TARGET-50-PAJNNR-01A-01D_hg19_Illumina.bam	61a9fcf2ca5544b449edf98a6e9f62bf	TARGET-50-PAJNNR-01A-01D	BCM	OK
c98d5c20-2203-515c-a1ea-f5bf93355e69	SRR566181	TARGET-50-PAJPDC-01A-01D_hg19_Illumina.bam	4735c108a6428a92c8024474cf2c09a5	TARGET-50-PAJPDC-01A-01D	BCM	OK
ca299537-35d4-535e-82b0-ccc85ccf298f	SRR563879	TARGET-20-PANTWV-04A-01D_hg19_Illumina.bam	85895de868867c9405eb9b3e1c89ab84	TARGET-20-PANTWV-04A-01D	BCM	OK
cb792206-514d-5896-ab98-0632ca944610	SRR1067816	TARGET-30-PPT066-61A-02D_Illumina.bam	aab0041844f3455ec66619f5abc1fd49	TARGET-30-PPT066-61A-02D	BCM	OK
cbe90822-0260-5f88-a61d-0481fabfcd13	SRR567922	TARGET-50-PAJNVX-01A-01D_hg19_Illumina.bam	cb46bc1d997cfacef3d442eb1f5f21a3	TARGET-50-PAJNVX-01A-01D	BCM	OK
cc217c7a-470f-5b5f-a157-f64d6945c8e1	SRR563748	TARGET-20-PARGVC-14A-01D_hg19_Illumina.bam	8e3998caeea71062527e60243d0be5a4	TARGET-20-PARGVC-14A-01D	BCM	OK
cca5e5df-0c18-56ac-90c6-6bdf3af72ec6	SRR563937	TARGET-10-PAKSWW-10A-01D_hg19_Illumina.bam	bbb0b005d58ac5a2eaf0c90042050aa6	TARGET-10-PAKSWW-10A-01D	BCM	OK
ccfa0f88-47dc-5465-80f3-7c0731593634	SRR563885	TARGET-20-PATABB-04A-01D_hg19_Illumina.bam	53c1ecb4930b940b43b3cef6be138393	TARGET-20-PATABB-04A-01D	BCM	OK
cd717ee6-28be-59c6-8ecd-ae2f437005a2	SRR563939	TARGET-10-PAPEFH-03A-01D_hg19_Illumina.bam	32b658a489c4629c0be81ed370fac0cf	TARGET-10-PAPEFH-03A-01D	BCM	OK
cdae064c-1d7c-5997-8df5-781896a527bd	SRR1067889	TARGET-80-PPT044-60A-01D_Illumina.bam	264efed1f7418013422cd63e617abb05	TARGET-80-PPT044-60A-01D	BCM	OK
cebbb473-9019-5b07-841f-486d38ca6722	SRR563588	TARGET-10-PARPRW-04A-01D_hg19_Illumina.bam	23a17f72b1ca411a556d71d4b70c8f8c	TARGET-10-PARPRW-04A-01D	BCM	OK
cf6910b3-4c5d-5698-826d-6efdbd3b1995	SRR1067784	TARGET-10-PPT094-60A-01D_Illumina.bam	1af10a81d02b8ae217238f03fc662f2f	TARGET-10-PPT094-60A-01D	BCM	OK
d04cee44-b7ea-542d-b14f-5fe3e79d6dbf	SRR1066848	TARGET-30-NAABZN-50.2D-01D_Illumina.bam	d3234160e7b3122117e0a1ef61012340	TARGET-30-NAABZN-50.2D-01D	BCM	OK
d0615338-fbc5-597b-a5a0-8ca075e5f50e	SRR566204	TARGET-50-PAJMVC-11A-01D_hg19_Illumina.bam	53210a64549aafc84a30cf921b280683	TARGET-50-PAJMVC-11A-01D	BCM	OK
d0854bc2-f5f7-5007-8e21-17aa15db2a94	SRR563987	TARGET-20-PARWAS-09A-01D_hg19_Illumina.bam	c1e3e76e5e1d2927af722787092a8a98	TARGET-20-PARWAS-09A-01D	BCM	OK
d1a06db6-2234-5790-9ddd-253de072214b	SRR566182	TARGET-50-PAJNRH-01A-01D_hg19_Illumina.bam	0d817c8ba0056478fcc705437482f5eb	TARGET-50-PAJNRH-01A-01D	BCM	OK
d26089ac-d73d-5bab-920b-109cd5e237c4	SRR563779	TARGET-10-PARGHW-10A-01D_hg19_Illumina.bam	6df0910fabbedb0055c5855e02ee2ab7	TARGET-10-PARGHW-10A-01D	BCM	OK
d2fe850d-a217-53c3-b7ae-8c64ddd09abb	SRR563580	TARGET-10-PAPAGK-03A-01D_hg19_Illumina.bam	9982669e7811782d6fd578591782619f	TARGET-10-PAPAGK-03A-01D	BCM	OK
d300a529-6b8e-54fc-b200-aef7b41a4528	SRR1057354	TARGET-50-PAJPAR-11A-01D_Illumina.bam	32090979b7f6df91c449d73e6f061b64	TARGET-50-PAJPAR-11A-01D	BCM	OK
d4a47123-e020-5ffc-8dd9-f403d4ec9043	SRR1067960	TARGET-80-PPT048-50A-01D_Illumina.bam	5b87c76f4ac45d437eaab0e7abc72262	TARGET-80-PPT048-50A-01D	BCM	OK
d62f57d3-10b1-5b98-b3d1-f617a7570da7	SRR1067854	TARGET-52-PPT003-60A-01D_Illumina.bam	6f6881f3808a9c52431b4567cbda1125	TARGET-52-PPT003-60A-01D	BCM	OK
d652eed4-646f-537a-a66f-83b0eecc12ad	SRR564084	TARGET-20-PARWAS-14A-01D_hg19_Illumina.bam	d9a21848c2c678f471ab6b97ea916d31	TARGET-20-PARWAS-14A-01D	BCM	OK
d65b3827-ed09-5dd3-a67c-c325d8c30cf8	SRR1066837	TARGET-30-NAABZK-50.2A-01D_Illumina.bam	25aaec94de2f4c647ec1667c8edaeccb	TARGET-30-NAABZK-50.2A-01D	BCM	OK
d72bffb8-4dca-51fa-8e74-fa398551b243	SRR1067791	TARGET-10-PPT102-60A-01D_Illumina.bam	b00250e540effbf96b6ce93111996758	TARGET-10-PPT102-60A-01D	BCM	OK
d778aa23-f868-55f2-8fe9-ce5839b2b130	SRR564016	TARGET-10-PANTSM-04A-01D_hg19_Illumina.bam	4d583e0aa735c6217e698a2087b65b07	TARGET-10-PANTSM-04A-01D	BCM	OK
d9a32d23-cc84-5967-930d-8632682539ca	SRR1067882	TARGET-70-PPT130-50A-01D_Illumina.bam	bc5a1ed4693d825f62e8524df7fb9340	TARGET-70-PPT130-50A-01D	BCM	OK
d9f98ee8-2540-5ee9-b2b1-201f7c3751c6	SRR566203	TARGET-50-PAKECR-01A-01D_hg19_Illumina.bam	b7cc15651854317fdf0a0048fca22e11	TARGET-50-PAKECR-01A-01D	BCM	OK
da04c64e-a49a-5c97-8d08-6777d17a1da8	SRR563881	TARGET-20-PARUNX-04A-01D_hg19_Illumina.bam	8f360b53b1eefc0accf7af6c721ba3ff	TARGET-20-PARUNX-04A-01D	BCM	OK
db015fe7-98ad-59be-938d-75e6810aba0e	SRR1067797	TARGET-10-PPT108-60A-01D_Illumina.bam	5a9991cf8904e7dde0b1365310f1a7e5	TARGET-10-PPT108-60A-01D	BCM	OK
db167eb8-735a-5722-9a95-5f37aaa32157	SRR564050	TARGET-10-PARAKF-04A-01D_hg19_Illumina.bam	998e651b8f5f8a1b4809ac337a9f2331	TARGET-10-PARAKF-04A-01D	BCM	OK
db39e1eb-0a8d-58e5-a809-616cd6867743	SRR564079	TARGET-20-PAKKBK-04A-01D_hg19_Illumina.bam	a101235aa2629d3aac1c488d25925274	TARGET-20-PAKKBK-04A-01D	BCM	OK
db5c5061-0a0b-5adc-b0df-351dede599c9	SRR557346	TARGET-10-PAKSWW-03A-01D_hg19_Illumina.bam	66a123582e05c9da47838fdaaf7799b5	TARGET-10-PAKSWW-03A-01D	BCM	Failed
dbc9a290-9a7c-596a-8eb5-367c25d1303f	SRR1057339	TARGET-50-PAJLKC-01A-01D_Illumina.bam	e58041ff1f8f1195799240ad0e7a03f8	TARGET-50-PAJLKC-01A-01D	BCM	OK
dcae7ecc-1697-59a5-b6e1-012d906d47a7	SRR1057365	TARGET-50-PALDTE-01A-01D_Illumina.bam	ec1aba1e60f6ff144c228ed07ee971ad	TARGET-50-PALDTE-01A-01D	BCM	OK
dcf47928-d608-535d-b589-48af14c2177e	SRR564078	TARGET-20-PANLRE-09A-01D_hg19_Illumina.bam	3817de266c79add526ce59a2f5eee20a	TARGET-20-PANLRE-09A-01D	BCM	OK
df55eb4e-2337-5566-89d2-a14832b97007	SRR1067802	TARGET-10-PPT126-50A-01D_Illumina.bam	abb06c57bbeeaa132a3c7ff631c7b87c	TARGET-10-PPT126-50A-01D	BCM	OK
e0d37147-acfc-5655-86ba-20498e907082	SRR566210	TARGET-50-PAKXWB-10A-01D_hg19_Illumina.bam	0d8c0d33e63ce90de55e1cca77635b8a	TARGET-50-PAKXWB-10A-01D	BCM	OK
e2187e98-7e0a-5914-8e22-1edc24ec4570	SRR564077	TARGET-20-PAERAH-14A-01D_hg19_Illumina.bam	0cd049040db1b4ec54c0fdc11f59e7e4	TARGET-20-PAERAH-14A-01D	BCM	OK
e2d1cbf0-3b46-5081-9853-04d842c8a319	SRR566194	TARGET-50-PAJMVC-01A-01D_hg19_Illumina.bam	d977411ba807ae676ecc08b7d9c7ec84	TARGET-50-PAJMVC-01A-01D	BCM	OK
e35e3c6a-3150-5fee-bf6f-d144b624ce0a	SRR563912	TARGET-10-PARGHW-04A-01D_hg19_Illumina.bam	a11134300e7817fadf9b42d92f7fd4c8	TARGET-10-PARGHW-04A-01D	BCM	OK
e50e0162-daa2-5eab-8cb7-9c78e47ef69c	SRR566164	TARGET-50-PALJIP-11A-01D_hg19_Illumina.bam	38a2f4e6c2571fc0c1f69ae80cff29ec	TARGET-50-PALJIP-11A-01D	BCM	OK
e6d0054e-efe7-541d-8ad2-cd8dcabba09e	SRR564083	TARGET-20-PARWXU-04A-01D_hg19_Illumina.bam	0e9633429e74bba088f9ade46f028b2c	TARGET-20-PARWXU-04A-01D	BCM	OK
e8d9f004-0fb6-5c24-a1ae-02ca022ed70e	SRR563582	TARGET-10-PAPSPG-10A-01D_hg19_Illumina.bam	ed9d1f6ba9ebb2a7dcda285fe739080c	TARGET-10-PAPSPG-10A-01D	BCM	OK
e92938bb-6b59-54c6-b31d-9e7968fe83db	SRR566205	TARGET-50-PAKVET-01A-01D_hg19_Illumina.bam	a83e22cd1e69092a219600886681f59c	TARGET-50-PAKVET-01A-01D	BCM	OK
e963c3a8-1cbc-5935-884f-391bfd710861	SRR1057352	TARGET-50-PAJNNC-11A-01D_Illumina.bam	cfaa2b56fddd1451d3c5849f5780284c	TARGET-50-PAJNNC-11A-01D	BCM	OK
eb3f8c2a-a098-5f66-be0b-20a6223d5d71	SRR564019	TARGET-20-PARIEG-14A-01D_hg19_Illumina.bam	32a34933910f064c2466591f8b4b107c	TARGET-20-PARIEG-14A-01D	BCM	OK
eb70fd89-b12c-5c40-9504-c07b306a5cc6	SRR1067813	TARGET-30-PPT064-50A-01D_Illumina.bam	34339ac58f850963270b72906b0c7f9a	TARGET-30-PPT064-50A-01D	BCM	OK
ebd26eac-f523-5368-840c-980852a704cd	SRR1067826	TARGET-40-PPT071-60A-01D_Illumina.bam	998f9b857f6b9cdf230d605c2069964e	TARGET-40-PPT071-60A-01D	BCM	OK
ec047d46-06f1-5e63-b2ee-2a670c0169f8	SRR1067832	TARGET-40-PPT078-60A-01D_Illumina.bam	5c8b3ae037e170bd5552e611e431422f	TARGET-40-PPT078-60A-01D	BCM	OK
ed37be1c-2d3a-5a4d-863c-f8b9081f4e87	SRR1066849	TARGET-30-NAABZN-60A-01D_Illumina.bam	17b4ab83af6ed5ff4b93bb2be0410a80	TARGET-30-NAABZN-60A-01D	BCM	OK
edf00cb5-afb6-52a9-8ac9-b43f7f9ff927	SRR1057347	TARGET-50-PAJMEP-01A-01D_Illumina.bam	fbc316bd0c2792a27b83ba2dd7140e5f	TARGET-50-PAJMEP-01A-01D	BCM	OK
ee0fb27d-90a1-5cff-816d-8e35221f73d9	SRR566193	TARGET-20-PANLIZ-14A-01D_hg19_Illumina.bam	6c3a3817c7d61833638d21950987ed58	TARGET-20-PANLIZ-14A-01D	BCM	OK
ef3f6946-15ca-5bca-9b3a-b56d60191e5c	SRR1066846	TARGET-30-NAABZN-13A-01D_Illumina.bam	c5b26ccfc88129d2e066b6006a6e2701	TARGET-30-NAABZN-13A-01D	BCM	OK
efbb9eac-8fca-5c08-ba0b-69c4bfbd2dda	SRR563910	TARGET-20-PANTWV-14A-01D_hg19_Illumina.bam	d4ef869076152ffc353476e207e0bce7	TARGET-20-PANTWV-14A-01D	BCM	OK
f0b82b8a-05b1-5487-8bc2-f147fcdcddf3	SRR563641	TARGET-20-PARIEG-04A-01D_hg19_Illumina.bam	504d4b7500389b881e2deb3c8026c33d	TARGET-20-PARIEG-04A-01D	BCM	OK
f1d63b3d-09fd-56b5-a144-f3370431460a	SRR567923	TARGET-50-PAJNUP-01A-01D_hg19_Illumina.bam	d67e738df58ed4725c262e81c8dd16b4	TARGET-50-PAJNUP-01A-01D	BCM	OK
f2637d22-a934-52d8-bb15-e7384fdcf385	SRR1066843	TARGET-30-NAABZM-13A-01D_Illumina.bam	53eebc9d4590df229accb27408a43589	TARGET-30-NAABZM-13A-01D	BCM	OK
f2a3932b-1919-5083-8b66-b55fd2a83d29	SRR563586	TARGET-10-PARPNM-04A-01D_hg19_Illumina.bam	d30900a0a28cb9d638e66630aa61514f	TARGET-10-PARPNM-04A-01D	BCM	OK
f2ddf0cb-dbbb-5e39-bd4d-59cf09f90c9f	SRR563773	TARGET-10-PAPJIB-14A-01D_hg19_Illumina.bam	e7cac94379fd4b68d47d2ff641ab0d88	TARGET-10-PAPJIB-14A-01D	BCM	OK
f418dd99-6bb5-5626-882c-f4c1746cafbd	SRR1067900	TARGET-80-PPT115-50A-01D_Illumina.bam	5d9e212ca3b1b6f1ccf5f1ff8d10978d	TARGET-80-PPT115-50A-01D	BCM	OK
f4c71935-fe93-55dc-a174-dcec5f8be16c	SRR1067870	TARGET-62-PPT110-50A-01D_Illumina.bam	ef828fb024320a73499c4910a651a315	TARGET-62-PPT110-50A-01D	BCM	OK
f4f19259-c54f-51cd-a702-727a75cdd23a	SRR1066844	TARGET-30-NAABZM-50.1A-01D_Illumina.bam	e0efa07f16f6605758fdd0a80a0d8898	TARGET-30-NAABZM-50.1A-01D	BCM	OK
f5176430-c79c-5714-9ff6-b6a55bf63c92	SRR566188	TARGET-50-PALJIP-02A-01D_hg19_Illumina.bam	6943d398fda4250ea0faea33a6d5fc7c	TARGET-50-PALJIP-02A-01D	BCM	OK
f606b745-fb8c-5110-a9f4-98b026ee17e1	SRR1067844	TARGET-41-PPT039-61A-01D_Illumina.bam	3165825c833093158fa7dc3cf2a4158c	TARGET-41-PPT039-61A-01D	BCM	OK
f6ac9fdd-fbe9-5739-9a51-98bb91944411	SRR1067866	TARGET-61-PPT023-61A-01D_Illumina.bam	c5ee479f41f3f850660bef5fbc63fb7b	TARGET-61-PPT023-61A-01D	BCM	OK
f7c9c1df-30c4-510b-8cea-b6568b849af3	SRR1067776	TARGET-10-PPT086-60A-01D_Illumina.bam	8103f3b64cd9095c7ed6b3088aabe674	TARGET-10-PPT086-60A-01D	BCM	OK
f7e63702-2aae-50d9-93d8-ae2b6b48ea26	SRR563584	TARGET-10-PARBRK-03A-01D_hg19_Illumina.bam	dafd648e27516cf9150db1add69da5be	TARGET-10-PARBRK-03A-01D	BCM	OK
f84326d9-1e47-58f2-9922-8917f52424fa	SRR566209	TARGET-50-PAJNTJ-10A-01D_hg19_Illumina.bam	604625284e80a6b6752f3f5e25c33b1a	TARGET-50-PAJNTJ-10A-01D	BCM	OK
f88c2faa-c9c4-5011-a6bf-090f16eea443	SRR1067794	TARGET-10-PPT105-60A-01D_Illumina.bam	795e5e984104a1422e76dfef79f2f9c2	TARGET-10-PPT105-60A-01D	BCM	OK
f9319f8b-78a0-5082-9adc-bfb80e8e18b8	SRR563585	TARGET-10-PARBRK-10A-01D_hg19_Illumina.bam	fad7227d2d3b7a3e880bd05c70a7a2ea	TARGET-10-PARBRK-10A-01D	BCM	OK
f9c2852d-0608-517a-aa07-6b9f124a7338	SRR1067867	TARGET-62-PPT001-60A-01D_Illumina.bam	f4cdbac0d20054768cc2b8373cc057f6	TARGET-62-PPT001-60A-01D	BCM	OK
fc78b4e2-50de-5e9b-a052-59d2890cc3af	SRR563883	TARGET-20-PASRTP-14A-01D_hg19_Illumina.bam	bb4cc56de70fee779c5020a78aee61ac	TARGET-20-PASRTP-14A-01D	BCM	OK
fc8f4f15-541f-50f7-b9a6-28fe4927d789	SRR564140	TARGET-20-PASFEW-09A-01D_hg19_Illumina.bam	073c4bd8b517662eed431f09682545ac	TARGET-20-PASFEW-09A-01D	BCM	OK
fdd569cc-75d9-5844-9286-cffebc24e737	SRR1066854	TARGET-30-PASXWX-13B-01D_Illumina.bam	d7bcf13bfdd6346eb166a3a292eef001	TARGET-30-PASXWX-13B-01D	BCM	OK
fe5fbcd8-95b3-518c-aa15-8ce6e81e183c	SRR566156	TARGET-50-CAAAAR-11A-01D_hg19_Illumina.bam	3873fa830191197135da3ac5d41d4dcc	TARGET-50-CAAAAR-11A-01D	BCM	OK
fe8a8366-7b52-5267-8e5d-c27b4d0f3072	SRR1067848	TARGET-41-PPT113-50A-01D_Illumina.bam	ce0feacf4192801733682c2b47d65308	TARGET-41-PPT113-50A-01D	BCM	OK
fec431b2-2b86-57f5-9baa-40664c9d3d2e	SRR1067839	TARGET-41-PPT036-60A-01D_Illumina.bam	f0ad0f7d34d64eaec8868f334adff364	TARGET-41-PPT036-60A-01D	BCM	OK
