runAcc	exprAcc	sampleAcc	runSubmissionAcc	sraStatus	sraInfo	study	center	sampleBarcode	metadataState	metadataDesc	metadataGitId	downloadedState	downloadedDesc	cghubState	cghubDesc	analysisId	allRunAccs	allExprAccs	downloadedDir
SRR631430	SRX209854	SRS375980	SRA062875	live		TARGET (NBL)	BI	TARGET-30-PASEGA-10A-01D	ok	live	b3d9299d-58be-471d-9948-bed97547b73f.error	ok	absent	ok	live	b3d9299d-58be-471d-9948-bed97547b73f	SRR631430,SRR631431,SRR631432,SRR631433,SRR631434,SRR631435,SRR631436,SRR631437,SRR631438,SRR631439,SRR631440,SRR631441,SRR631442,SRR631443,SRR631444,SRR631445,SRR631446	SRX209854,SRX209855,SRX209856,SRX209857,SRX209858	
SRR638633	SRX211946	SRS375186	SRA062875	live		TARGET (NBL)	BI	TARGET-30-PASTCN-01A-01D	ok	live	0d37ee70-2537-47ac-be7d-aee7bb62de25.error	ok	absent	ok	live	0d37ee70-2537-47ac-be7d-aee7bb62de25	SRR638633,SRR638634,SRR638635,SRR638636,SRR638637,SRR638638,SRR638639,SRR638640,SRR638641,SRR638642,SRR638643,SRR638644,SRR638645,SRR638646,SRR638647,SRR638648,SRR638649,SRR638650	SRX211944,SRX211945,SRX211946	
