SRR	filetak_path	dbgap_path	md5
SRR1302921	/netmnt/archive/filetrack-ca/BACKUP/375/506362/Run105758Lane7.srf	SRS405396/SRX085015/SRR1302921_processed/Run105758Lane7.srf	d256b3bdc176208f7da14efcbd69ac77
SRR1302923	/netmnt/archive/filetrack-ca/BACKUP/374/505378/Run104125Lane1.srf	SRS405397/SRX085016/SRR1302923_processed/Run104125Lane1.srf	eaf2bc1775b2baca5d07e7a11e4664d6
SRR1302924	/netmnt/archive/filetrack-ca/BACKUP/374/505380/Run104126Lane2.srf	SRS405397/SRX085016/SRR1302924_processed/Run104126Lane2.srf	707b38968f646f5fe7d29f7098a259f4
SRR1302925	/netmnt/archive/filetrack-ca/BACKUP/375/506356/Run105752Lane1.srf	SRS405390/SRX085009/SRR1302925_processed/Run105752Lane1.srf	9b814d65992fe9dcde035efe03d02f60
SRR1302926	/netmnt/archive/filetrack-ca/BACKUP/418/519721/Run106368Lane1.srf	SRS405390/SRX085009/SRR1302926_processed/Run106368Lane1.srf	8d5c2ce597fd37ea12d82c403696ca39
SRR1302927	/netmnt/archive/filetrack-ca/BACKUP/418/519722/Run106369Lane2.srf	SRS405390/SRX085009/SRR1302927_processed/Run106369Lane2.srf	918e45caf88563947f58259c24aaf625
SRR1302928	/netmnt/archive/filetrack-ca/BACKUP/418/519725/Run106370Lane3.srf	SRS405390/SRX085009/SRR1302928_processed/Run106370Lane3.srf	23f8fbebcf1a7a3ea4dd9b0837691205
SRR1302929	/netmnt/archive/filetrack-ca/BACKUP/418/519727/Run106371Lane4.srf	SRS405390/SRX085009/SRR1302929_processed/Run106371Lane4.srf	cf12bc046d9139b61f8eabe52b963521
SRR1302930	/netmnt/archive/filetrack-ca/BACKUP/375/506379/Run106385Lane2.srf	SRS405390/SRX085009/SRR1302930_processed/Run106385Lane2.srf	1582addb7450bcb6ec5578ad860c2f7d
SRR1302931	/netmnt/archive/filetrack-ca/BACKUP/374/506088/Run107064Lane1.srf	SRS405390/SRX085009/SRR1302931_processed/Run107064Lane1.srf	55e48606a1c2c58cea6b8be28daea075
SRR1302932	/netmnt/archive/filetrack-ca/BACKUP/375/506916/Run113294Lane1.srf	SRS405390/SRX085009/SRR1302932_processed/Run113294Lane1.srf	947b8f00f5dcaa00da27c5a464b5bb0d
SRR1302933	/netmnt/archive/filetrack-ca/BACKUP/374/506266/Run111991Lane1.srf	SRS405391/SRX085010/SRR1302933_processed/Run111991Lane1.srf	ff42c79d83c72ae3f85083870ac1b4f5
SRR1302934	/netmnt/archive/filetrack-ca/BACKUP/375/506886/Run112565Lane1.srf	SRS405391/SRX085010/SRR1302934_processed/Run112565Lane1.srf	2ae2ed77a0994c9689cb3af69b90fc34
SRR1302936	/netmnt/archive/filetrack-ca/BACKUP/373/504733/Run102624Lane2.srf	SRS405393/SRX085011/SRR1302936_processed/Run102624Lane2.srf	e9ddc3397d22f8ce8904556330ebba7a
SRR1302937	/netmnt/archive/filetrack-ca/BACKUP/374/505405/Run103936Lane1.srf	SRS405393/SRX085011/SRR1302937_processed/Run103936Lane1.srf	9cd86d30f5158c175431b6c5a1a4fea1
SRR1302938	/netmnt/archive/filetrack-ca/BACKUP/374/505407/Run103937Lane2.srf	SRS405393/SRX085011/SRR1302938_processed/Run103937Lane2.srf	fa1987498c578cad20f363d909bda58e
SRR1302939	/netmnt/archive/filetrack-ca/BACKUP/374/505410/Run103938Lane3.srf	SRS405393/SRX085011/SRR1302939_processed/Run103938Lane3.srf	57a9959142cde70bb80e2c42c9d1b743
SRR1302940	/netmnt/archive/filetrack-ca/BACKUP/374/505412/Run103939Lane4.srf	SRS405393/SRX085011/SRR1302940_processed/Run103939Lane4.srf	5417a54738dadad4fe655a85c394193a
SRR1302941	/netmnt/archive/filetrack-ca/BACKUP/374/505424/Run103940Lane5.srf	SRS405393/SRX085011/SRR1302941_processed/Run103940Lane5.srf	0a2551c3d4d9b470f4888b7ed32f7fbb
SRR1302950	/netmnt/archive/filetrack-ca/BACKUP/373/505328/Run103683Lane1.srf	SRS405394/SRX085013/SRR1302950_processed/Run103683Lane1.srf	ee8b1ff2ff3f8c4a4e1658c14bf95f3f
SRR1302951	/netmnt/archive/filetrack-ca/BACKUP/374/505476/Run104569Lane1.srf	SRS405394/SRX085013/SRR1302951_processed/Run104569Lane1.srf	d99bd76d10b03a286473e5bc68103404
SRR1302952	/netmnt/archive/filetrack-ca/BACKUP/374/505486/Run104570Lane2.srf	SRS405394/SRX085013/SRR1302952_processed/Run104570Lane2.srf	3c942924efcb69c1230ba36b0d2f05fd
SRR1302953	/netmnt/archive/filetrack-ca/BACKUP/374/505495/Run104571Lane3.srf	SRS405394/SRX085013/SRR1302953_processed/Run104571Lane3.srf	d7af0e01788463babe805b96ef807d28
SRR1302954	/netmnt/archive/filetrack-ca/BACKUP/374/505503/Run104572Lane4.srf	SRS405394/SRX085013/SRR1302954_processed/Run104572Lane4.srf	fbe0b7c37590d642ed128937dd043fa4
SRR1302955	/netmnt/archive/filetrack-ca/BACKUP/374/505515/Run104573Lane5.srf	SRS405394/SRX085013/SRR1302955_processed/Run104573Lane5.srf	f2bc946d95fc62e853d1517d8eb4550d
SRR1302957	/netmnt/archive/filetrack-ca/BACKUP/373/504735/Run102627Lane5.srf	SRS405395/SRX085014/SRR1302957_processed/Run102627Lane5.srf	8654639a6653895261adb15af69b9f63
SRR1302958	/netmnt/archive/filetrack-ca/BACKUP/374/505395/Run104316Lane2.srf	SRS405395/SRX085014/SRR1302958_processed/Run104316Lane2.srf	422345458e55703c28c12f44534c3e78
SRR1302959	/netmnt/archive/filetrack-ca/BACKUP/374/505397/Run104317Lane3.srf	SRS405395/SRX085014/SRR1302959_processed/Run104317Lane3.srf	2c1e29bcf935c37b8a4849b7e25aff29
SRR1302960	/netmnt/archive/filetrack-ca/BACKUP/374/505399/Run104318Lane4.srf	SRS405395/SRX085014/SRR1302960_processed/Run104318Lane4.srf	cc6a3ced0c1ea331411207c7475a9aae
SRR1302961	/netmnt/archive/filetrack-ca/BACKUP/374/505401/Run104319Lane5.srf	SRS405395/SRX085014/SRR1302961_processed/Run104319Lane5.srf	1354eeece53d10c803e72795440b6f34
SRR1302962	/netmnt/archive/filetrack-ca/BACKUP/374/505403/Run104320Lane6.srf	SRS405395/SRX085014/SRR1302962_processed/Run104320Lane6.srf	ad9c7ea6b7b4c7d9d9674a0ea911d1b2
SRR1302964	/netmnt/archive/filetrack-ca/BACKUP/373/504737/Run102628Lane6.srf	SRS405396/SRX085015/SRR1302964_processed/Run102628Lane6.srf	7a913261a6173ba6ac26fb4ae5d96135
SRR1302965	/netmnt/archive/filetrack-ca/BACKUP/375/506357/Run105753Lane2.srf	SRS405396/SRX085015/SRR1302965_processed/Run105753Lane2.srf	64e6abab1daca509c20886bac124d8bf
SRR1302966	/netmnt/archive/filetrack-ca/BACKUP/375/506358/Run105754Lane3.srf	SRS405396/SRX085015/SRR1302966_processed/Run105754Lane3.srf	44cd901ff9b1fe0f17059910ef1ec2a1
SRR1302967	/netmnt/archive/filetrack-ca/BACKUP/375/506359/Run105755Lane4.srf	SRS405396/SRX085015/SRR1302967_processed/Run105755Lane4.srf	f201b258a7b3e56565cac3fbf1d09c28
SRR1302968	/netmnt/archive/filetrack-ca/BACKUP/375/506360/Run105756Lane5.srf	SRS405396/SRX085015/SRR1302968_processed/Run105756Lane5.srf	53643ad37c8adf340873f715e80978e7
SRR1302970	/netmnt/archive/filetrack-ca/BACKUP/374/505382/Run104127Lane3.srf	SRS405397/SRX085016/SRR1302970_processed/Run104127Lane3.srf	e4e7bfa89e0fa3e804bce8207db12dfd
SRR1302971	/netmnt/archive/filetrack-ca/BACKUP/374/505384/Run104128Lane4.srf	SRS405397/SRX085016/SRR1302971_processed/Run104128Lane4.srf	57cdf4e38e518ae2f4e3d39f6c197de7
SRR1302972	/netmnt/archive/filetrack-ca/BACKUP/374/505386/Run104129Lane5.srf	SRS405397/SRX085016/SRR1302972_processed/Run104129Lane5.srf	6a007352b469db2c01db31be0e50754c
SRR1302973	/netmnt/archive/filetrack-ca/BACKUP/374/505391/Run104130Lane6.srf	SRS405397/SRX085016/SRR1302973_processed/Run104130Lane6.srf	ec45b2a17c8775eb5d3fb9c15eb4dd16
SRR1302974	/netmnt/archive/filetrack-ca/BACKUP/373/504714/Run102415Lane1.srf	SRS405399/SRX085017/SRR1302974_processed/Run102415Lane1.srf	20cc31554692aff0b13fa1320e35457d
SRR1302975	/netmnt/archive/filetrack-ca/BACKUP/374/505343/Run103750Lane1.srf	SRS405399/SRX085017/SRR1302975_processed/Run103750Lane1.srf	a7913438f676cdc9c8f75b9647ceca31
SRR1302976	/netmnt/archive/filetrack-ca/BACKUP/374/505345/Run103751Lane2.srf	SRS405399/SRX085017/SRR1302976_processed/Run103751Lane2.srf	3984284ee8140b5ea35034faf9ca71d4
SRR1302977	/netmnt/archive/filetrack-ca/BACKUP/374/505347/Run103752Lane3.srf	SRS405399/SRX085017/SRR1302977_processed/Run103752Lane3.srf	7b68dacc975c54d46e468867e5732f05
SRR1302978	/netmnt/archive/filetrack-ca/BACKUP/374/505351/Run103753Lane4.srf	SRS405399/SRX085017/SRR1302978_processed/Run103753Lane4.srf	266acfa1259b1462eb21373ff19bf554
SRR1302979	/netmnt/archive/filetrack-ca/BACKUP/374/505354/Run103754Lane5.srf	SRS405399/SRX085017/SRR1302979_processed/Run103754Lane5.srf	ac00269d70030027bd0fa7fd640f1bf1
SRR1302981	/netmnt/archive/filetrack-ca/BACKUP/373/504741/Run102630Lane8.srf	SRS405398/SRX085018/SRR1302981_processed/Run102630Lane8.srf	83cad1317e6b5d7883829f3d0f2c61ec
SRR1302982	/netmnt/archive/filetrack-ca/BACKUP/373/505296/Run103477Lane1.srf	SRS405398/SRX085018/SRR1302982_processed/Run103477Lane1.srf	a552e25093bec6d4b076ccd6a505e983
SRR1302983	/netmnt/archive/filetrack-ca/BACKUP/373/505304/Run103478Lane2.srf	SRS405398/SRX085018/SRR1302983_processed/Run103478Lane2.srf	5c932927bf2fa29ba471c747cfc5b3e9
SRR1302984	/netmnt/archive/filetrack-ca/BACKUP/373/505309/Run103479Lane3.srf	SRS405398/SRX085018/SRR1302984_processed/Run103479Lane3.srf	d87784390243a6427954b31a48f6064e
SRR1302985	/netmnt/archive/filetrack-ca/BACKUP/373/505313/Run103480Lane4.srf	SRS405398/SRX085018/SRR1302985_processed/Run103480Lane4.srf	7e58e5dfba89187c1af43fc8ba3dcb4d
SRR1302986	/netmnt/archive/filetrack-ca/BACKUP/373/505315/Run103481Lane5.srf	SRS405398/SRX085018/SRR1302986_processed/Run103481Lane5.srf	fd8b77b5a11cf67ecc30c33359b9f8a2
SRR1302988	/netmnt/archive/filetrack-ca/BACKUP/373/504748/Run102939Lane1.srf	SRS405401/SRX085019/SRR1302988_processed/Run102939Lane1.srf	11f490befbdfb1f88609b43123016591
SRR1302989	/netmnt/archive/filetrack-ca/BACKUP/375/506314/Run105506Lane1.srf	SRS405401/SRX085019/SRR1302989_processed/Run105506Lane1.srf	13f71dd969d73eff757af96a0f62f802
SRR1302990	/netmnt/archive/filetrack-ca/BACKUP/375/506316/Run105507Lane2.srf	SRS405401/SRX085019/SRR1302990_processed/Run105507Lane2.srf	dedce8cb799bd6a75177a2e941433aa7
SRR1302991	/netmnt/archive/filetrack-ca/BACKUP/375/506317/Run105508Lane3.srf	SRS405401/SRX085019/SRR1302991_processed/Run105508Lane3.srf	efb27f286f7d95621774bff73a45af48
SRR1302992	/netmnt/archive/filetrack-ca/BACKUP/375/506319/Run105509Lane4.srf	SRS405401/SRX085019/SRR1302992_processed/Run105509Lane4.srf	4d93c65705208c0465a716dfc8bd99f7
SRR1302993	/netmnt/archive/filetrack-ca/BACKUP/375/506321/Run105510Lane5.srf	SRS405401/SRX085019/SRR1302993_processed/Run105510Lane5.srf	9c9625d8e59fdf1022fd0059b22eadb3
SRR1302995	/netmnt/archive/filetrack-ca/BACKUP/373/504719/Run102443Lane1.srf	SRS405400/SRX085020/SRR1302995_processed/Run102443Lane1.srf	55a87fc54f44152e532ad6264ab42fa1
SRR1302996	/netmnt/archive/filetrack-ca/BACKUP/374/505408/Run104410Lane2.srf	SRS405400/SRX085020/SRR1302996_processed/Run104410Lane2.srf	037aea03cf8b999982a9db3b7478337a
SRR1302997	/netmnt/archive/filetrack-ca/BACKUP/374/505411/Run104411Lane3.srf	SRS405400/SRX085020/SRR1302997_processed/Run104411Lane3.srf	ae70537626e82a4080d1c17fd51da2d9
SRR1302998	/netmnt/archive/filetrack-ca/BACKUP/374/505422/Run104412Lane4.srf	SRS405400/SRX085020/SRR1302998_processed/Run104412Lane4.srf	6e65704ffe6bfb5178784531fd9b6f1c
SRR1302999	/netmnt/archive/filetrack-ca/BACKUP/374/505436/Run104413Lane5.srf	SRS405400/SRX085020/SRR1302999_processed/Run104413Lane5.srf	5498631634727bf3e58097ae5eb2922c
SRR1303000	/netmnt/archive/filetrack-ca/BACKUP/374/505452/Run104414Lane6.srf	SRS405400/SRX085020/SRR1303000_processed/Run104414Lane6.srf	89dda751450f001487ff13dba0ad8c91
SRR1303002	/netmnt/archive/filetrack-ca/BACKUP/373/504725/Run102444Lane2.srf	SRS405402/SRX085021/SRR1303002_processed/Run102444Lane2.srf	8cf102420c0a689a56f591debb7553fa
SRR1303003	/netmnt/archive/filetrack-ca/BACKUP/374/505619/Run104849Lane1.srf	SRS405402/SRX085021/SRR1303003_processed/Run104849Lane1.srf	39bd45d03772c54470efa3c83854e147
SRR1303004	/netmnt/archive/filetrack-ca/BACKUP/374/505620/Run104850Lane2.srf	SRS405402/SRX085021/SRR1303004_processed/Run104850Lane2.srf	cceb7425f7c1de2fa525e225cfeb095a
SRR1303005	/netmnt/archive/filetrack-ca/BACKUP/374/505621/Run104851Lane3.srf	SRS405402/SRX085021/SRR1303005_processed/Run104851Lane3.srf	8acc1449a60febcd8275bd87e358398d
SRR1303006	/netmnt/archive/filetrack-ca/BACKUP/374/505622/Run104852Lane4.srf	SRS405402/SRX085021/SRR1303006_processed/Run104852Lane4.srf	000b0c40f47e8b6642b92f5019e4d129
SRR1303007	/netmnt/archive/filetrack-ca/BACKUP/374/505623/Run104853Lane5.srf	SRS405402/SRX085021/SRR1303007_processed/Run104853Lane5.srf	2c1f6500fe356fee3e64b4cac960da4e
SRR1303009	/netmnt/archive/filetrack-ca/BACKUP/374/506103/Run107831Lane1.srf	SRS405403/SRX085022/SRR1303009_processed/Run107831Lane1.srf	dc40d1c7dd6c2cb51775926c0d132a80
SRR1303010	/netmnt/archive/filetrack-ca/BACKUP/374/506085/Run108519Lane1.srf	SRS405403/SRX085022/SRR1303010_processed/Run108519Lane1.srf	b2a38cc42de2fce6037b5996a75cbe29
SRR1303011	/netmnt/archive/filetrack-ca/BACKUP/374/506089/Run108520Lane2.srf	SRS405403/SRX085022/SRR1303011_processed/Run108520Lane2.srf	f37e664944382307dfac8b90a115ead5
SRR1303013	/netmnt/archive/filetrack-ca/BACKUP/373/505105/Run103238Lane7.srf	SRS405404/SRX085023/SRR1303013_processed/Run103238Lane7.srf	cb48f76e4bc313e35b20067ceb51386d
SRR1303014	/netmnt/archive/filetrack-ca/BACKUP/374/505357/Run103758Lane1.srf	SRS405404/SRX085023/SRR1303014_processed/Run103758Lane1.srf	25a85cfd772ccfd2347dc6aa7809d8e3
SRR1303015	/netmnt/archive/filetrack-ca/BACKUP/374/505358/Run103759Lane2.srf	SRS405404/SRX085023/SRR1303015_processed/Run103759Lane2.srf	4fdefe7afe016bc1ecc81ab9ab3942ef
SRR1303016	/netmnt/archive/filetrack-ca/BACKUP/374/505360/Run103760Lane3.srf	SRS405404/SRX085023/SRR1303016_processed/Run103760Lane3.srf	9f2a16d48e448b62dc81b541992faeea
SRR1303017	/netmnt/archive/filetrack-ca/BACKUP/374/505367/Run103761Lane4.srf	SRS405404/SRX085023/SRR1303017_processed/Run103761Lane4.srf	d34b7ddfc48429d066074fbdf18e09d2
SRR1303018	/netmnt/archive/filetrack-ca/BACKUP/374/505371/Run103762Lane5.srf	SRS405404/SRX085023/SRR1303018_processed/Run103762Lane5.srf	0d6ad8c88398111ce16a64bb03478569
SRR1303020	/netmnt/archive/filetrack-ca/BACKUP/373/504747/Run102932Lane2.srf	SRS405405/SRX085024/SRR1303020_processed/Run102932Lane2.srf	0c47f890f5726ef4af935439fcae9855
SRR1303021	/netmnt/archive/filetrack-ca/BACKUP/374/506279/Run105360Lane1.srf	SRS405405/SRX085024/SRR1303021_processed/Run105360Lane1.srf	a991b193a249a83f7c44a1fbc2c86a0d
SRR1303022	/netmnt/archive/filetrack-ca/BACKUP/374/506281/Run105361Lane2.srf	SRS405405/SRX085024/SRR1303022_processed/Run105361Lane2.srf	fd7835e2d5f73db82e271e1558b065aa
SRR1303023	/netmnt/archive/filetrack-ca/BACKUP/374/506284/Run105362Lane3.srf	SRS405405/SRX085024/SRR1303023_processed/Run105362Lane3.srf	8ec596fe0a98e8eaa76b1c07ebb8821b
SRR1303024	/netmnt/archive/filetrack-ca/BACKUP/374/506289/Run105363Lane4.srf	SRS405405/SRX085024/SRR1303024_processed/Run105363Lane4.srf	cf1d359c14f17725a5388397f885ec01
SRR1303025	/netmnt/archive/filetrack-ca/BACKUP/374/506292/Run105364Lane5.srf	SRS405405/SRX085024/SRR1303025_processed/Run105364Lane5.srf	4ae0c62919a0a7db8a21bb4fb111ba0c
SRR1303027	/netmnt/archive/filetrack-ca/BACKUP/373/505183/Run103448Lane1.srf	SRS405406/SRX085025/SRR1303027_processed/Run103448Lane1.srf	96f8da4888e655ade1bf62a78c9c3b14
SRR1303028	/netmnt/archive/filetrack-ca/BACKUP/375/506329/Run105516Lane3.srf	SRS405406/SRX085025/SRR1303028_processed/Run105516Lane3.srf	5992e57c9897c47b1fee106971cdac44
SRR1303029	/netmnt/archive/filetrack-ca/BACKUP/375/506331/Run105517Lane4.srf	SRS405406/SRX085025/SRR1303029_processed/Run105517Lane4.srf	142399276514e581a44dfff3480663f2
SRR1303030	/netmnt/archive/filetrack-ca/BACKUP/375/506332/Run105518Lane5.srf	SRS405406/SRX085025/SRR1303030_processed/Run105518Lane5.srf	612dc4056ef3741ee826342e5fb7f9c7
SRR1303031	/netmnt/archive/filetrack-ca/BACKUP/375/506334/Run105519Lane6.srf	SRS405406/SRX085025/SRR1303031_processed/Run105519Lane6.srf	d5972a56f8d9623cf41944ad64e00648
SRR1303032	/netmnt/archive/filetrack-ca/BACKUP/375/506336/Run105520Lane7.srf	SRS405406/SRX085025/SRR1303032_processed/Run105520Lane7.srf	9bd5e80476598869e4de756e96505dde
SRR1303034	/netmnt/archive/filetrack-ca/BACKUP/373/505323/Run103483Lane7.srf	SRS405407/SRX085026/SRR1303034_processed/Run103483Lane7.srf	4fd7fbf3a8b6fd88ffd6ded227250188
SRR1303035	/netmnt/archive/filetrack-ca/BACKUP/374/506128/Run105113Lane4.srf	SRS405407/SRX085026/SRR1303035_processed/Run105113Lane4.srf	6a11a23ace37b54df0be4fc881bea1a4
SRR1303036	/netmnt/archive/filetrack-ca/BACKUP/374/506137/Run105114Lane5.srf	SRS405407/SRX085026/SRR1303036_processed/Run105114Lane5.srf	5e569f2e2da2c6d5d4a820222e8494ae
SRR1303037	/netmnt/archive/filetrack-ca/BACKUP/374/506145/Run105115Lane6.srf	SRS405407/SRX085026/SRR1303037_processed/Run105115Lane6.srf	f5a4434287239ffb29a47f999e7021fc
SRR1303038	/netmnt/archive/filetrack-ca/BACKUP/374/506122/Run105110Lane1.srf	SRS405407/SRX085026/SRR1303038_processed/Run105110Lane1.srf	d5252ac1c40abf198bff60cdf5e1dd9c
SRR1303039	/netmnt/archive/filetrack-ca/BACKUP/408/515264/Run105111Lane2.srf	SRS405407/SRX085026/SRR1303039_processed/Run105111Lane2.srf	af99994d41777539ca920dbc210ade08
SRR1303041	/netmnt/archive/filetrack-ca/BACKUP/373/505325/Run103484Lane8.srf	SRS405408/SRX085027/SRR1303041_processed/Run103484Lane8.srf	f661e99ee6532f23f361cf2c66530535
SRR1303042	/netmnt/archive/filetrack-ca/BACKUP/374/506265/Run105218Lane1.srf	SRS405408/SRX085027/SRR1303042_processed/Run105218Lane1.srf	92ea51d8556130ee5d0ef83768e564b9
SRR1303043	/netmnt/archive/filetrack-ca/BACKUP/374/506267/Run105219Lane2.srf	SRS405408/SRX085027/SRR1303043_processed/Run105219Lane2.srf	19930ded51cdd9b78c05d390ac52eca8
SRR1303044	/netmnt/archive/filetrack-ca/BACKUP/374/506270/Run105220Lane3.srf	SRS405408/SRX085027/SRR1303044_processed/Run105220Lane3.srf	23d1cdac8da50f42e15ff375f5a67914
SRR1303045	/netmnt/archive/filetrack-ca/BACKUP/374/506272/Run105221Lane4.srf	SRS405408/SRX085027/SRR1303045_processed/Run105221Lane4.srf	bba5c365026368a130bd535cd68284ee
SRR1303046	/netmnt/archive/filetrack-ca/BACKUP/374/506273/Run105222Lane5.srf	SRS405408/SRX085027/SRR1303046_processed/Run105222Lane5.srf	255d9abb26f909f246b38235af095ea6
SRR1303048	/netmnt/archive/filetrack-ca/BACKUP/373/505292/Run103449Lane2.srf	SRS405409/SRX085028/SRR1303048_processed/Run103449Lane2.srf	d52d349022eb05c8fc63060765571a47
SRR1303049	/netmnt/archive/filetrack-ca/BACKUP/374/506118/Run105108Lane7.srf	SRS405409/SRX085028/SRR1303049_processed/Run105108Lane7.srf	21ccff75d33a2d6a310b6714aa600db7
SRR1303050	/netmnt/archive/filetrack-ca/BACKUP/374/506305/Run105375Lane1.srf	SRS405409/SRX085028/SRR1303050_processed/Run105375Lane1.srf	24fbba8df047c5ffee49b0bca2a9773e
SRR1303051	/netmnt/archive/filetrack-ca/BACKUP/374/506307/Run105376Lane2.srf	SRS405409/SRX085028/SRR1303051_processed/Run105376Lane2.srf	dd3cb9f0b6c61a51147960ff4c45fb9d
SRR1303052	/netmnt/archive/filetrack-ca/BACKUP/374/506308/Run105377Lane3.srf	SRS405409/SRX085028/SRR1303052_processed/Run105377Lane3.srf	42033581bc46069c225e8a43108ed59b
SRR1303053	/netmnt/archive/filetrack-ca/BACKUP/375/506311/Run105378Lane4.srf	SRS405409/SRX085028/SRR1303053_processed/Run105378Lane4.srf	e0f6fde66f0dc9fe9e02969e95dc5eb8
SRR1303055	/netmnt/archive/filetrack-ca/BACKUP/373/505331/Run103691Lane1.srf	SRS405522/SRX085029/SRR1303055_processed/Run103691Lane1.srf	426282331c9fa55ed6ca19894ebb42c5
SRR1303056	/netmnt/archive/filetrack-ca/BACKUP/374/505625/Run104857Lane1.srf	SRS405522/SRX085029/SRR1303056_processed/Run104857Lane1.srf	cf960a77b6c61d0b30dd560bf2cb2471
SRR1303057	/netmnt/archive/filetrack-ca/BACKUP/374/505626/Run104858Lane2.srf	SRS405522/SRX085029/SRR1303057_processed/Run104858Lane2.srf	14c54e8a60184b0dd8a9ff53eebd4042
SRR1303059	/netmnt/archive/filetrack-ca/BACKUP/373/504742/Run102744Lane4.srf	SRS405523/SRX085030/SRR1303059_processed/Run102744Lane4.srf	c7bf7e04538fe608e7d91133602f634d
SRR1303060	/netmnt/archive/filetrack-ca/BACKUP/374/505379/Run103766Lane1.srf	SRS405523/SRX085030/SRR1303060_processed/Run103766Lane1.srf	515c8e0199cfac48fce840624d222002
SRR1303061	/netmnt/archive/filetrack-ca/BACKUP/374/505381/Run103767Lane2.srf	SRS405523/SRX085030/SRR1303061_processed/Run103767Lane2.srf	6461bb576a8d8e58718a89186bd84036
SRR1303063	/netmnt/archive/filetrack-ca/BACKUP/374/505613/Run104788Lane3.srf	SRS405415/SRX085045/SRR1303063_processed/Run104788Lane3.srf	a866e5a4d91969ed092a1ef77e3081be
SRR1303064	/netmnt/archive/filetrack-ca/BACKUP/374/506115/Run105048Lane8.srf	SRS405415/SRX085045/SRR1303064_processed/Run105048Lane8.srf	3b2de05b91fe5fc35f20a252e34f7a58
SRR1303065	/netmnt/archive/filetrack-ca/BACKUP/375/506363/Run105909Lane1.srf	SRS405415/SRX085045/SRR1303065_processed/Run105909Lane1.srf	df5128dcec4a58333c7d69785662bf23
SRR1303066	/netmnt/archive/filetrack-ca/BACKUP/375/506364/Run105910Lane2.srf	SRS405415/SRX085045/SRR1303066_processed/Run105910Lane2.srf	2a307a1c4b61eef1a61882bf612c76fa
SRR1303067	/netmnt/archive/filetrack-ca/BACKUP/375/506375/Run106380Lane5.srf	SRS405415/SRX085045/SRR1303067_processed/Run106380Lane5.srf	b5e8c90d93f5029e7e5c71ab3a233385
SRR1303068	/netmnt/archive/filetrack-ca/BACKUP/375/506376/Run106381Lane6.srf	SRS405415/SRX085045/SRR1303068_processed/Run106381Lane6.srf	956d970e8e65f71fa00d90552fdd468e
SRR1303069	/netmnt/archive/filetrack-ca/BACKUP/375/506377/Run106382Lane7.srf	SRS405415/SRX085045/SRR1303069_processed/Run106382Lane7.srf	ea4e8fdbbafd16e48b81930d49a938ad
SRR1303070	/netmnt/archive/filetrack-ca/BACKUP/375/506378/Run106383Lane8.srf	SRS405415/SRX085045/SRR1303070_processed/Run106383Lane8.srf	03cab9474f74e3167f3304cb3f17ae97
SRR1303071	/netmnt/archive/filetrack-ca/BACKUP/374/505618/Run104789Lane4.srf	SRS405416/SRX085047/SRR1303071_processed/Run104789Lane4.srf	3dd4db9a4cd9b72c44e4230295023c44
SRR1303072	/netmnt/archive/filetrack-ca/BACKUP/374/506258/Run105215Lane6.srf	SRS405416/SRX085047/SRR1303072_processed/Run105215Lane6.srf	8f7404e19fbf416279138f596ee9c9b3
SRR1303073	/netmnt/archive/filetrack-ca/BACKUP/374/506262/Run105216Lane7.srf	SRS405416/SRX085047/SRR1303073_processed/Run105216Lane7.srf	a9aa6645f2b9f0c4356a1a378dc9acc2
SRR1303074	/netmnt/archive/filetrack-ca/BACKUP/375/506346/Run105590Lane5.srf	SRS405416/SRX085047/SRR1303074_processed/Run105590Lane5.srf	2779c4ecc35c565213aad7fdd0e9377e
SRR1303075	/netmnt/archive/filetrack-ca/BACKUP/375/506347/Run105591Lane6.srf	SRS405416/SRX085047/SRR1303075_processed/Run105591Lane6.srf	5237d5c9f7c8a04efc9497377488d81f
SRR1303076	/netmnt/archive/filetrack-ca/BACKUP/375/506348/Run105592Lane7.srf	SRS405416/SRX085047/SRR1303076_processed/Run105592Lane7.srf	7ae7538255e18702e27fafbeff6e25dd
SRR1303077	/netmnt/archive/filetrack-ca/BACKUP/375/506349/Run105593Lane8.srf	SRS405416/SRX085047/SRR1303077_processed/Run105593Lane8.srf	a36583cd032ceb156c2ab4443d8e64ae
SRR1303078	/netmnt/archive/filetrack-ca/BACKUP/375/506380/Run106387Lane4.srf	SRS405416/SRX085047/SRR1303078_processed/Run106387Lane4.srf	276d34de5b5033c8f337ee308badc636
SRR1303079	/netmnt/archive/filetrack-ca/BACKUP/375/506328/Run105513Lane8.srf	SRS405417/SRX085048/SRR1303079_processed/Run105513Lane8.srf	fd2286eb825f15adb983a6eb9e9a1b60
SRR1303080	/netmnt/archive/filetrack-ca/BACKUP/374/506098/Run107068Lane5.srf	SRS405417/SRX085048/SRR1303080_processed/Run107068Lane5.srf	5a77387d27a9b2c1c3cf032c94a09d22
SRR1303081	/netmnt/archive/filetrack-ca/BACKUP/374/506101/Run107069Lane6.srf	SRS405417/SRX085048/SRR1303081_processed/Run107069Lane6.srf	7e3ade8936d2a9a305b98bfa34dfa7b3
SRR1303082	/netmnt/archive/filetrack-ca/BACKUP/375/506881/Run112416Lane2.srf	SRS405417/SRX085048/SRR1303082_processed/Run112416Lane2.srf	3726a59338d6e85617b94632914c2f2e
SRR1303083	/netmnt/archive/filetrack-ca/BACKUP/375/506917/Run113296Lane3.srf	SRS405417/SRX085048/SRR1303083_processed/Run113296Lane3.srf	254564b2d67ad85d934b2e7b19969473
SRR1303085	/netmnt/archive/filetrack-ca/BACKUP/374/506120/Run105109Lane8.srf	SRS405418/SRX085049/SRR1303085_processed/Run105109Lane8.srf	fb89603d73064213efa8e7e7d9f5b904
SRR1303086	/netmnt/archive/filetrack-ca/BACKUP/375/506365/Run105911Lane3.srf	SRS405418/SRX085049/SRR1303086_processed/Run105911Lane3.srf	64e2a6453b09ca6049836f5f9c37b00a
SRR1303087	/netmnt/archive/filetrack-ca/BACKUP/375/506366/Run105912Lane4.srf	SRS405418/SRX085049/SRR1303087_processed/Run105912Lane4.srf	a6c40d653f174f16f0c99b08c5fa78d5
SRR1303088	/netmnt/archive/filetrack-ca/BACKUP/375/506367/Run105913Lane5.srf	SRS405418/SRX085049/SRR1303088_processed/Run105913Lane5.srf	8374ed99eb2e3b097ba261b1fed13455
SRR1303089	/netmnt/archive/filetrack-ca/BACKUP/375/506368/Run105914Lane6.srf	SRS405418/SRX085049/SRR1303089_processed/Run105914Lane6.srf	68c058c5377794403fa96e8ffc06ec1e
SRR1303090	/netmnt/archive/filetrack-ca/BACKUP/375/506369/Run105915Lane7.srf	SRS405418/SRX085049/SRR1303090_processed/Run105915Lane7.srf	d48903109337f4bb91d8ce9e5b9a0b2d
SRR1303092	/netmnt/archive/filetrack-ca/BACKUP/375/506325/Run105512Lane7.srf	SRS405419/SRX085050/SRR1303092_processed/Run105512Lane7.srf	35fd8fb77a136301d5f4fe15d3c5564f
SRR1303093	/netmnt/archive/filetrack-ca/BACKUP/374/506090/Run107065Lane2.srf	SRS405419/SRX085050/SRR1303093_processed/Run107065Lane2.srf	0f3b57659a61886a96e72c429f451686
SRR1303094	/netmnt/archive/filetrack-ca/BACKUP/374/506093/Run107066Lane3.srf	SRS405419/SRX085050/SRR1303094_processed/Run107066Lane3.srf	791038b134b7a1f32caf02221d49ff24
SRR1303096	/netmnt/archive/filetrack-ca/BACKUP/376/507339/Run115673Lane7.srf	SRS405458/SRX085089/SRR1303096_processed/Run115673Lane7.srf	b6f16f02603eb551a40a03e48ccc84cf
SRR1303098	/netmnt/archive/filetrack-ca/BACKUP/376/507343/Run115674Lane8.srf	SRS405459/SRX085090/SRR1303098_processed/Run115674Lane8.srf	21b1d927bc2acd6ff9355543b7712455
SRR1303100	/netmnt/archive/filetrack-ca/BACKUP/376/507357/Run116182Lane8.srf	SRS405460/SRX085091/SRR1303100_processed/Run116182Lane8.srf	e53086f688dd8ec459569c65d65dec6f
SRR1303101	/netmnt/archive/filetrack-ca/BACKUP/408/515275/Run117161Lane6.srf	SRS405460/SRX085091/SRR1303101_processed/Run117161Lane6.srf	b562cb544121f91d8f28930c09a7247f
SRR1303102	/netmnt/archive/filetrack-ca/BACKUP/408/515276/Run117162Lane7.srf	SRS405460/SRX085091/SRR1303102_processed/Run117162Lane7.srf	f7b82a290637258d16d22689dea41375
SRR1303104	/netmnt/archive/filetrack-ca/BACKUP/376/507346/Run115964Lane8.srf	SRS405461/SRX085092/SRR1303104_processed/Run115964Lane8.srf	ce1f733753a1aa01e704b0ab12860ecd
SRR1303106	/netmnt/archive/filetrack-ca/BACKUP/376/507375/Run116662Lane7.srf	SRS405462/SRX085093/SRR1303106_processed/Run116662Lane7.srf	a733385ac14976518167953c34617fdd
SRR1303108	/netmnt/archive/filetrack-ca/BACKUP/376/507389/Run116904Lane7.srf	SRS405463/SRX085094/SRR1303108_processed/Run116904Lane7.srf	356932811333e900e28dedf00566b41b
