
## Validation Failed (HTTP Status Code 400)

The submission failed to pass validation checks.  Details of the
validation error are included in the errmsg component of this response.
    Subsystem                    : SRA Validation Library 1.0
    Error Number                 : 03-103
    Result                       : The requested action will not be
                                   performed
    Remediation                  : Please correct the xml in your
                                   submission or contact the helpdesk if you
                                   feel your input is correct.
    File Validation              : Failed (details below)
    Reference Validation         : Succeeded
----------------------------------------------------------------------------

File Validation Details:

    Analysis File                : Failed (3 errors found)
        Error 1, line 10:
            Value didn't match with pattern
            XPath                : //ANALYSIS_SET/ANALYSIS/STUDY_REF
            Expected             : ^UCSC$|^NHGRI$|^CGHUB$|^The Cancer Genome Atlas Research Network$
            Received             : National Cancer Institute
        Error 2, line 10:
            Value didn't match with pattern
            XPath                : //ANALYSIS_SET/ANALYSIS/STUDY_REF
            Expected             : ^phs000178$|^CGTEST$|^TCGA_MUT_BENCHMARK_4$|^CGHUB_PERFORMANCE_TESTING$
            Received             : phs000467
        Error 3, line 402:
            Value didn't match with pattern
            XPath                : //ANALYSIS_SET/ANALYSIS/TARGETS/TARGET
            Expected             : ^TCGA$|^UCSC$
            Received             : NCI_TARGET

    Experiment File              : Failed (12 errors found)
        Error 1, line 10:
            Value didn't match with pattern
            XPath                : //EXPERIMENT_SET/EXPERIMENT/STUDY_REF
            Expected             : ^UCSC$|^NHGRI$|^CGHUB$|^The Cancer Genome Atlas Research Network$
            Received             : National Cancer Institute
        Error 2, line 103:
            Value didn't match with pattern
            XPath                : //EXPERIMENT_SET/EXPERIMENT/STUDY_REF
            Expected             : ^UCSC$|^NHGRI$|^CGHUB$|^The Cancer Genome Atlas Research Network$
            Received             : National Cancer Institute
        Error 3, line 196:
            Value didn't match with pattern
            XPath                : //EXPERIMENT_SET/EXPERIMENT/STUDY_REF
            Expected             : ^UCSC$|^NHGRI$|^CGHUB$|^The Cancer Genome Atlas Research Network$
            Received             : National Cancer Institute
        Error 4, line 289:
            Value didn't match with pattern
            XPath                : //EXPERIMENT_SET/EXPERIMENT/STUDY_REF
            Expected             : ^UCSC$|^NHGRI$|^CGHUB$|^The Cancer Genome Atlas Research Network$
            Received             : National Cancer Institute
        Error 5, line 10:
            Value didn't match with pattern
            XPath                : //EXPERIMENT_SET/EXPERIMENT/STUDY_REF
            Expected             : ^phs000178|CGTEST$|^TCGA_MUT_BENCHMARK_4$|^CGHUB_PERFORMANCE_TESTING$
            Received             : phs000467
        Error 6, line 103:
            Value didn't match with pattern
            XPath                : //EXPERIMENT_SET/EXPERIMENT/STUDY_REF
            Expected             : ^phs000178|CGTEST$|^TCGA_MUT_BENCHMARK_4$|^CGHUB_PERFORMANCE_TESTING$
            Received             : phs000467
        Error 7, line 196:
            Value didn't match with pattern
            XPath                : //EXPERIMENT_SET/EXPERIMENT/STUDY_REF
            Expected             : ^phs000178|CGTEST$|^TCGA_MUT_BENCHMARK_4$|^CGHUB_PERFORMANCE_TESTING$
            Received             : phs000467
        Error 8, line 289:
            Value didn't match with pattern
            XPath                : //EXPERIMENT_SET/EXPERIMENT/STUDY_REF
            Expected             : ^phs000178|CGTEST$|^TCGA_MUT_BENCHMARK_4$|^CGHUB_PERFORMANCE_TESTING$
            Received             : phs000467
        Error 9, line 20:
            Value didn't match with pattern
            XPath                : //EXPERIMENT_SET/EXPERIMENT/DESIGN/SAMPLE_DESCRIPTOR
            Expected             : ^TCGA$|^UCSC$
            Received             : NCI_TARGET
        Error 10, line 113:
            Value didn't match with pattern
            XPath                : //EXPERIMENT_SET/EXPERIMENT/DESIGN/SAMPLE_DESCRIPTOR
            Expected             : ^TCGA$|^UCSC$
            Received             : NCI_TARGET
        Error 11, line 206:
            Value didn't match with pattern
            XPath                : //EXPERIMENT_SET/EXPERIMENT/DESIGN/SAMPLE_DESCRIPTOR
            Expected             : ^TCGA$|^UCSC$
            Received             : NCI_TARGET
        Error 12, line 299:
            Value didn't match with pattern
            XPath                : //EXPERIMENT_SET/EXPERIMENT/DESIGN/SAMPLE_DESCRIPTOR
            Expected             : ^TCGA$|^UCSC$
            Received             : NCI_TARGET

    Run File                     : Succeeded
----------------------------------------------------------------------------

============================================================================
    cgsubmit Version             : 3.1.1
    CGHub Server                 : https://cghub.ucsc.edu
    Request Type                 : Validation
    Analysis Directory           : /seq/submissions/CGHub/uploading/697b7b19-5b40-49e8-aa61-33301afaebde
    UUID                         : 697b7b19-5b40-49e8-aa61-33301afaebde
    Output File                  : None
----------------------------------------------------------------------------
## Metadata Validation Failed.
============================================================================
