runAcc	exprAcc	sampleAcc	runSubmissionAcc	sraStatus	sraInfo	study	center	sampleBarcode	metadataState	metadataDesc	metadataGitId	downloadedState	downloadedDesc	cghubState	cghubDesc	analysisId	allRunAccs	allExprAccs	downloadedDir
SRR564202	SRX185425	SRS301138	SRA058595	live	multiLiveExpr	TARGET (AML)	CompleteGenomics	TARGET-20-PASJGZ-14A-01D	ok	live		ok	chromSplitBam	ok	live	56740c8a-bf47-4d43-8fe4-0f376c8ac9cb	SRR564202,SRR564203,SRR564204,SRR564205,SRR564206,SRR564207,SRR564208,SRR564209	SRX185425	master2/AML/TARGET-20-PASJGZ/normal_sample/TARGET-20-PASJGZ-14A-01D/SRX185425
SRR616391	SRX204262	SRS375186	SRA061507	live		TARGET (NBL)	CompleteGenomics	TARGET-30-PASTCN-01A-01D	ok	live	c0b852dc-f0b9-5bf6-b578-67a684d42583	ok	absent	ok	live	c45bb766-8020-57f4-8f65-73b7d90a6f65	SRR616391,SRR616392,SRR616393,SRR616394,SRR616395,SRR616396,SRR616397	SRX204262	
SRR618209	SRX205056	SRS375980	SRA061740	live		TARGET (NBL)	CompleteGenomics	TARGET-30-PASEGA-10A-01D	ok	live	97ae39f0-f360-5adf-901f-54da0bb72fea	ok	absent	ok	live	bbea14d9-7cb5-5eb9-b2c2-8334345522e9	SRR618209,SRR618210,SRR618211,SRR618212,SRR618213,SRR618214,SRR618215,SRR618216	SRX205056	
